{
    "goal": {
        "global_pose": {
            "orientation": {
                "w": 0.7031023502349854,
                "x": -0.7110244035720825,
                "y": 0.007748599164187908,
                "z": 0.005598929710686207
            },
            "position": {
                "x": 0.11585023208521307,
                "y": 0.44412534475326537,
                "z": 0.3711530566215515
            }
        },
        "name": "move_to_auspresseinheit_A"
    },
    "id": "TRRT_move_to_auspresseinheit_A_38",
    "joint_names": [
        "shoulder_pan_joint",
        "shoulder_lift_joint",
        "elbow_joint",
        "wrist_1_joint",
        "wrist_2_joint",
        "wrist_3_joint"
    ],
    "metrics": {
        "cart_traj_len": 0.6634075031968566,
        "distance_elbow_joint": 0.13715194874861547,
        "distance_shoulder_lift_joint": 0.5344335107150477,
        "distance_shoulder_pan_joint": 1.0448318971608344,
        "distance_wrist_1_joint": 0.5617036252504336,
        "distance_wrist_2_joint": 0.515372509818693,
        "distance_wrist_3_joint": 0.6073644860466532,
        "smoothness": 0.595545074753344,
        "time": 0.032895009,
        "traj_len": 1.844141528663209,
        "weighted_distance": 2.385930234709873
    },
    "planner": "TRRT",
    "start": {
        "state": {
            "elbow_joint": 2.422574709923281,
            "shoulder_lift_joint": -1.3736533754116391,
            "shoulder_pan_joint": -0.33786336945926293,
            "wrist_1_joint": -1.0288603412921917,
            "wrist_2_joint": 1.2330224858903978,
            "wrist_3_joint": -3.094022268022082
        }
    },
    "waypoints": [
        {
            "positions": [
                -0.33786336945926293,
                -1.3736533754116391,
                2.422574709923281,
                -1.0288603412921917,
                1.2330224858903978,
                -3.094022268022082
            ]
        },
        {
            "positions": [
                -0.254292458536804,
                -1.4328015386632558,
                2.4334045645481464,
                -0.9562217063189151,
                1.1432991185634394,
                -3.0365929751855734
            ]
        },
        {
            "positions": [
                -0.17072154761434502,
                -1.4919497019148724,
                2.444234419173011,
                -0.8835830713456385,
                1.0535757512364807,
                -2.9791636823490646
            ]
        },
        {
            "positions": [
                -0.08715063669188611,
                -1.5510978651664888,
                2.4550642737978765,
                -0.8109444363723619,
                0.9638523839095222,
                -2.9217343895125554
            ]
        },
        {
            "positions": [
                -0.003579725769427111,
                -1.6102460284181055,
                2.4658941284227414,
                -0.7383058013990852,
                0.8741290165825637,
                -2.8643050966760466
            ]
        },
        {
            "positions": [
                0.07999118515303184,
                -1.6693941916697221,
                2.4767239830476067,
                -0.6656671664258086,
                0.7844056492556052,
                -2.806875803839538
            ]
        },
        {
            "positions": [
                0.2367355207901667,
                -1.7290673652839632,
                2.4559733141415343,
                -0.616039553829796,
                0.7677167309596301,
                -2.886930309305565
            ]
        },
        {
            "positions": [
                0.39347985642730154,
                -1.7887405388982045,
                2.435222645235462,
                -0.5664119412337834,
                0.7510278126636549,
                -2.9669848147715925
            ]
        },
        {
            "positions": [
                0.5502241920644364,
                -1.8484137125124458,
                2.414471976329389,
                -0.5167843286377707,
                0.7343388943676799,
                -3.0470393202376194
            ]
        },
        {
            "positions": [
                0.7069685277015713,
                -1.9080868861266869,
                2.393721307423317,
                -0.4671567160417581,
                0.7176499760717048,
                -3.1270938257036467
            ]
        }
    ]
}