{
    "goal": {
        "global_pose": {
            "orientation": {
                "w": 0.7047431468963623,
                "x": -0.7094548344612122,
                "y": 0.0024358443915843964,
                "z": -0.0022348060738295317
            },
            "position": {
                "x": 0.6094750761985779,
                "y": 0.3671506643295288,
                "z": 0.19426114857196808
            }
        },
        "name": "move_to_magneteinheit_A"
    },
    "id": "TRRT_move_to_magneteinheit_A_115",
    "joint_names": [
        "shoulder_pan_joint",
        "shoulder_lift_joint",
        "elbow_joint",
        "wrist_1_joint",
        "wrist_2_joint",
        "wrist_3_joint"
    ],
    "metrics": {
        "cart_traj_len": 1.8769950166909886,
        "distance_elbow_joint": 3.9127904569594913,
        "distance_shoulder_lift_joint": 0.7012061196164628,
        "distance_shoulder_pan_joint": 1.2426373061197247,
        "distance_wrist_1_joint": 1.508284221926597,
        "distance_wrist_2_joint": 1.6922302462895693,
        "distance_wrist_3_joint": 1.1356521757315252,
        "smoothness": 2.631639764355545e-16,
        "time": 0.061219842999999996,
        "traj_len": 3.192616564300099,
        "weighted_distance": 3.9578553973487445
    },
    "planner": "TRRT",
    "start": {
        "state": {
            "elbow_joint": -1.919643507792019,
            "shoulder_lift_joint": -0.07675430207160344,
            "shoulder_pan_joint": -1.1188671864651873,
            "wrist_1_joint": 0.42560062535961957,
            "wrist_2_joint": 1.5706038300724876,
            "wrist_3_joint": 1.1188968870953055
        }
    },
    "waypoints": [
        {
            "positions": [
                -1.1188671864651873,
                -0.07675430207160344,
                -1.919643507792019,
                0.42560062535961957,
                1.5706038300724876,
                1.1188968870953055
            ]
        },
        {
            "positions": [
                -1.071073443922121,
                -0.10372376821069818,
                -1.7691515671397309,
                0.483611556972181,
                1.5055180513690427,
                1.0752179572594776
            ]
        },
        {
            "positions": [
                -1.0232797013790547,
                -0.1306932343497929,
                -1.6186596264874429,
                0.5416224885847424,
                1.4404322726655976,
                1.0315390274236498
            ]
        },
        {
            "positions": [
                -0.9754859588359883,
                -0.15766270048888764,
                -1.4681676858351547,
                0.5996334201973038,
                1.3753464939621527,
                0.9878600975878219
            ]
        },
        {
            "positions": [
                -0.927692216292922,
                -0.18463216662798237,
                -1.3176757451828665,
                0.6576443518098652,
                1.3102607152587078,
                0.944181167751994
            ]
        },
        {
            "positions": [
                -0.8798984737498556,
                -0.2116016327670771,
                -1.1671838045305782,
                0.7156552834224268,
                1.2451749365552627,
                0.900502237916166
            ]
        },
        {
            "positions": [
                -0.8321047312067893,
                -0.2385710989061718,
                -1.0166918638782902,
                0.7736662150349881,
                1.1800891578518178,
                0.8568233080803382
            ]
        },
        {
            "positions": [
                -0.784310988663723,
                -0.2655405650452666,
                -0.8661999232260023,
                0.8316771466475495,
                1.1150033791483729,
                0.8131443782445102
            ]
        },
        {
            "positions": [
                -0.7365172461206566,
                -0.29251003118436125,
                -0.715707982573714,
                0.889688078260111,
                1.0499176004449278,
                0.7694654484086824
            ]
        },
        {
            "positions": [
                -0.6887235035775904,
                -0.319479497323456,
                -0.565216041921426,
                0.9476990098726723,
                0.9848318217414829,
                0.7257865185728545
            ]
        },
        {
            "positions": [
                -0.6409297610345239,
                -0.3464489634625508,
                -0.4147241012691376,
                1.005709941485234,
                0.9197460430380379,
                0.6821075887370266
            ]
        },
        {
            "positions": [
                -0.5931360184914577,
                -0.37341842960164545,
                -0.2642321606168496,
                1.0637208730977952,
                0.8546602643345929,
                0.6384286589011987
            ]
        },
        {
            "positions": [
                -0.5453422759483914,
                -0.4003878957407402,
                -0.1137402199645614,
                1.1217318047103566,
                0.7895744856311478,
                0.5947497290653708
            ]
        },
        {
            "positions": [
                -0.497548533405325,
                -0.4273573618798349,
                0.036751720687726586,
                1.179742736322918,
                0.724488706927703,
                0.5510707992295429
            ]
        },
        {
            "positions": [
                -0.44975479086225867,
                -0.45432682801892965,
                0.18724366134001458,
                1.2377536679354795,
                0.6594029282242581,
                0.5073918693937151
            ]
        },
        {
            "positions": [
                -0.40196104831919244,
                -0.48129629415802433,
                0.3377356019923028,
                1.295764599548041,
                0.594317149520813,
                0.46371293955788717
            ]
        },
        {
            "positions": [
                -0.354167305776126,
                -0.5082657602971191,
                0.488227542644591,
                1.3537755311606023,
                0.5292313708173679,
                0.4200340097220592
            ]
        },
        {
            "positions": [
                -0.30637356323305964,
                -0.5352352264362139,
                0.6387194832968792,
                1.4117864627731638,
                0.46414559211392303,
                0.3763550798862314
            ]
        },
        {
            "positions": [
                -0.2585798206899934,
                -0.5622046925753086,
                0.789211423949167,
                1.4697973943857252,
                0.39905981341047814,
                0.3326761500504035
            ]
        },
        {
            "positions": [
                -0.21078607814692707,
                -0.5891741587144033,
                0.9397033646014552,
                1.5278083259982866,
                0.33397403470703324,
                0.28899722021457563
            ]
        },
        {
            "positions": [
                -0.16299233560386062,
                -0.6161436248534982,
                1.0901953052537439,
                1.5858192576108483,
                0.2688882560035881,
                0.24531829037874764
            ]
        },
        {
            "positions": [
                -0.11519859306079439,
                -0.6431130909925928,
                1.2406872459060316,
                1.6438301892234095,
                0.20380247730014323,
                0.20163936054291975
            ]
        },
        {
            "positions": [
                -0.06740485051772804,
                -0.6700825571316875,
                1.3911791865583198,
                1.701841120835971,
                0.1387166985966981,
                0.15796043070709187
            ]
        },
        {
            "positions": [
                -0.0196111079746617,
                -0.6970520232707822,
                1.5416711272106076,
                1.7598520524485324,
                0.07363091989325321,
                0.1142815008712641
            ]
        },
        {
            "positions": [
                0.02818263456840464,
                -0.7240214894098769,
                1.6921630678628963,
                1.8178629840610938,
                0.008545141189808092,
                0.0706025710354361
            ]
        },
        {
            "positions": [
                0.07597637711147098,
                -0.7509909555489718,
                1.842655008515184,
                1.8758739156736552,
                -0.056540637513636804,
                0.026923641199608106
            ]
        },
        {
            "positions": [
                0.12377011965453728,
                -0.7779604216880663,
                1.9931469491674723,
                1.9338848472862167,
                -0.12162641621708178,
                -0.01675528863621976
            ]
        }
    ]
}