{
    "goal": {
        "global_pose": {
            "orientation": {
                "w": 0.7031023502349854,
                "x": -0.7110244035720825,
                "y": 0.007748599164187908,
                "z": 0.005598929710686207
            },
            "position": {
                "x": 0.11585023208521307,
                "y": 0.44412534475326537,
                "z": 0.3711530566215515
            }
        },
        "name": "move_to_auspresseinheit_A"
    },
    "id": "TRRT_move_to_auspresseinheit_A_28",
    "joint_names": [
        "shoulder_pan_joint",
        "shoulder_lift_joint",
        "elbow_joint",
        "wrist_1_joint",
        "wrist_2_joint",
        "wrist_3_joint"
    ],
    "metrics": {
        "cart_traj_len": 5.136981925181122,
        "distance_elbow_joint": 8.217156840893594,
        "distance_shoulder_lift_joint": 0.5361562504396342,
        "distance_shoulder_pan_joint": 1.0418889968750253,
        "distance_wrist_1_joint": 8.232062437622565,
        "distance_wrist_2_joint": 3.291920479641222,
        "distance_wrist_3_joint": 4.373763839430975,
        "smoothness": 0.6849207222039732,
        "time": 0.03778104,
        "traj_len": 5.068821248071688,
        "weighted_distance": 6.779709392077859
    },
    "planner": "TRRT",
    "start": {
        "state": {
            "elbow_joint": 2.422574709923281,
            "shoulder_lift_joint": -1.3736533754116391,
            "shoulder_pan_joint": -0.33786336945926293,
            "wrist_1_joint": -1.0288603412921917,
            "wrist_2_joint": 1.2330224858903978,
            "wrist_3_joint": -3.094022268022082
        }
    },
    "waypoints": [
        {
            "positions": [
                -0.33786336945926293,
                -1.3736533754116391,
                2.422574709923281,
                -1.0288603412921917,
                1.2330224858903978,
                -3.094022268022082
            ]
        },
        {
            "positions": [
                -0.31722719375616887,
                -1.382095980181695,
                2.3014415398530046,
                -0.9017139175147065,
                1.1788400833091095,
                -3.030072665554066
            ]
        },
        {
            "positions": [
                -0.29659101805307475,
                -1.3905385849517506,
                2.180308369782728,
                -0.7745674937372213,
                1.1246576807278215,
                -2.9661230630860502
            ]
        },
        {
            "positions": [
                -0.2759548423499807,
                -1.3989811897218065,
                2.0591751997124517,
                -0.647421069959736,
                1.0704752781465332,
                -2.9021734606180343
            ]
        },
        {
            "positions": [
                -0.2553186666468866,
                -1.4074237944918622,
                1.9380420296421754,
                -0.5202746461822508,
                1.0162928755652452,
                -2.8382238581500183
            ]
        },
        {
            "positions": [
                -0.23468249094379257,
                -1.415866399261918,
                1.816908859571899,
                -0.3931282224047655,
                0.9621104729839569,
                -2.7742742556820024
            ]
        },
        {
            "positions": [
                -0.21404631524069848,
                -1.4243090040319737,
                1.6957756895016225,
                -0.26598179862728033,
                0.9079280704026688,
                -2.7103246532139864
            ]
        },
        {
            "positions": [
                -0.19341013953760441,
                -1.4327516088020296,
                1.5746425194313463,
                -0.13883537484979513,
                0.8537456678213806,
                -2.6463750507459705
            ]
        },
        {
            "positions": [
                -0.17277396383451032,
                -1.4411942135720852,
                1.4535093493610698,
                -0.011688951072309939,
                0.7995632652400924,
                -2.5824254482779545
            ]
        },
        {
            "positions": [
                -0.15213778813141626,
                -1.449636818342141,
                1.3323761792907933,
                0.11545747270517537,
                0.7453808626588043,
                -2.5184758458099386
            ]
        },
        {
            "positions": [
                -0.13150161242832217,
                -1.458079423112197,
                1.2112430092205169,
                0.24260389648266067,
                0.6911984600775161,
                -2.4545262433419226
            ]
        },
        {
            "positions": [
                -0.11086543672522808,
                -1.4665220278822526,
                1.0901098391502404,
                0.36975032026014576,
                0.6370160574962279,
                -2.3905766408739066
            ]
        },
        {
            "positions": [
                -0.09022926102213402,
                -1.4749646326523085,
                0.9689766690799639,
                0.49689674403763107,
                0.5828336549149398,
                -2.3266270384058907
            ]
        },
        {
            "positions": [
                -0.06959308531903996,
                -1.4834072374223641,
                0.8478434990096879,
                0.6240431678151162,
                0.5286512523336516,
                -2.262677435937875
            ]
        },
        {
            "positions": [
                -0.0489569096159459,
                -1.49184984219242,
                0.7267103289394115,
                0.7511895915926015,
                0.4744688497523635,
                -2.1987278334698592
            ]
        },
        {
            "positions": [
                -0.028320733912851837,
                -1.5002924469624757,
                0.605577158869135,
                0.8783360153700865,
                0.42028644717107533,
                -2.1347782310018433
            ]
        },
        {
            "positions": [
                -0.007684558209757719,
                -1.5087350517325315,
                0.4844439887988585,
                1.0054824391475718,
                0.36610404458978707,
                -2.0708286285338273
            ]
        },
        {
            "positions": [
                0.012951617493336343,
                -1.5171776565025872,
                0.36331081872858206,
                1.1326288629250572,
                0.3119216420084989,
                -2.0068790260658114
            ]
        },
        {
            "positions": [
                0.033587793196430404,
                -1.525620261272643,
                0.2421776486583056,
                1.2597752867025425,
                0.2577392394272108,
                -1.9429294235977952
            ]
        },
        {
            "positions": [
                0.05422396889952452,
                -1.534062866042699,
                0.12104447858802914,
                1.3869217104800278,
                0.20355683684592263,
                -1.8789798211297792
            ]
        },
        {
            "positions": [
                0.07486014460261858,
                -1.5425054708127546,
                -8.869148224732726e-05,
                1.514068134257513,
                0.14937443426463437,
                -1.8150302186617633
            ]
        },
        {
            "positions": [
                0.09549632030571265,
                -1.5509480755828104,
                -0.12122186155252379,
                1.6412145580349984,
                0.09519203168334611,
                -1.7510806161937473
            ]
        },
        {
            "positions": [
                0.11613249600880676,
                -1.559390680352866,
                -0.24235503162280025,
                1.7683609818124832,
                0.041009629102058076,
                -1.6871310137257314
            ]
        },
        {
            "positions": [
                0.13676867171190082,
                -1.567833285122922,
                -0.3634882016930767,
                1.8955074055899686,
                -0.013172773479230182,
                -1.6231814112577154
            ]
        },
        {
            "positions": [
                0.1574048474149949,
                -1.5762758898929778,
                -0.4846213717633532,
                2.022653829367454,
                -0.06735517606051822,
                -1.5592318087896995
            ]
        },
        {
            "positions": [
                0.17804102311808895,
                -1.5847184946630335,
                -0.6057545418336296,
                2.149800253144939,
                -0.12153757864180648,
                -1.4952822063216835
            ]
        },
        {
            "positions": [
                0.198677198821183,
                -1.5931610994330891,
                -0.7268877119039052,
                2.276946676922424,
                -0.1757199812230945,
                -1.4313326038536678
            ]
        },
        {
            "positions": [
                0.21931337452427707,
                -1.601603704203145,
                -0.8480208819741817,
                2.4040931006999093,
                -0.22990238380438277,
                -1.3673830013856518
            ]
        },
        {
            "positions": [
                0.23994955022737113,
                -1.610046308973201,
                -0.9691540520444581,
                2.5312395244773946,
                -0.2840847863856708,
                -1.3034333989176359
            ]
        },
        {
            "positions": [
                0.2605857259304652,
                -1.6184889137432565,
                -1.0902872221147346,
                2.65838594825488,
                -0.33826718896695906,
                -1.23948379644962
            ]
        },
        {
            "positions": [
                0.28122190163355926,
                -1.6269315185133124,
                -1.211420392185011,
                2.785532372032365,
                -0.3924495915482471,
                -1.175534193981604
            ]
        },
        {
            "positions": [
                0.30185807733665343,
                -1.635374123283368,
                -1.3325535622552875,
                2.91267879580985,
                -0.44663199412953536,
                -1.111584591513588
            ]
        },
        {
            "positions": [
                0.3224942530397475,
                -1.643816728053424,
                -1.453686732325564,
                3.0398252195873354,
                -0.5008143967108236,
                -1.047634989045572
            ]
        },
        {
            "positions": [
                0.34313042874284155,
                -1.6522593328234798,
                -1.5748199023958405,
                3.166971643364821,
                -0.5549967992921117,
                -0.9836853865775561
            ]
        },
        {
            "positions": [
                0.36376660444593556,
                -1.6607019375935355,
                -1.695953072466117,
                3.2941180671423065,
                -0.6091792018733999,
                -0.9197357841095402
            ]
        },
        {
            "positions": [
                0.37052482723551405,
                -1.666581040071321,
                -1.563839872508851,
                3.1702167574333564,
                -0.5646644158769799,
                -0.9906822543494762
            ]
        },
        {
            "positions": [
                0.3772830500250925,
                -1.6724601425491066,
                -1.431726672551585,
                3.0463154477244068,
                -0.52014962988056,
                -1.0616287245894123
            ]
        },
        {
            "positions": [
                0.384041272814671,
                -1.678339245026892,
                -1.299613472594319,
                2.9224141380154567,
                -0.47563484388414,
                -1.1325751948293483
            ]
        },
        {
            "positions": [
                0.3907994956042494,
                -1.6842183475046775,
                -1.167500272637053,
                2.7985128283065066,
                -0.43112005788772,
                -1.2035216650692844
            ]
        },
        {
            "positions": [
                0.3975577183938279,
                -1.690097449982463,
                -1.0353870726797867,
                2.6746115185975565,
                -0.38660527189130006,
                -1.2744681353092202
            ]
        },
        {
            "positions": [
                0.4043159411834064,
                -1.6959765524602486,
                -0.9032738727225208,
                2.5507102088886064,
                -0.3420904858948801,
                -1.3454146055491563
            ]
        },
        {
            "positions": [
                0.41107416397298485,
                -1.701855654938034,
                -0.7711606727652548,
                2.426808899179657,
                -0.2975756998984601,
                -1.4163610757890923
            ]
        },
        {
            "positions": [
                0.41783238676256335,
                -1.7077347574158195,
                -0.6390474728079887,
                2.3029075894707067,
                -0.25306091390204016,
                -1.4873075460290284
            ]
        },
        {
            "positions": [
                0.42459060955214184,
                -1.713613859893605,
                -0.5069342728507227,
                2.1790062797617566,
                -0.20854612790562016,
                -1.5582540162689644
            ]
        },
        {
            "positions": [
                0.4313488323417203,
                -1.7194929623713906,
                -0.3748210728934567,
                2.055104970052807,
                -0.1640313419092002,
                -1.6292004865089003
            ]
        },
        {
            "positions": [
                0.4381070551312988,
                -1.725372064849176,
                -0.24270787293619067,
                1.9312036603438567,
                -0.11951655591278021,
                -1.7001469567488365
            ]
        },
        {
            "positions": [
                0.4448652779208772,
                -1.7312511673269615,
                -0.11059467297892467,
                1.8073023506349069,
                -0.07500176991636032,
                -1.7710934269887724
            ]
        },
        {
            "positions": [
                0.4516235007104557,
                -1.737130269804747,
                0.021518526978341557,
                1.6834010409259568,
                -0.030486983919940314,
                -1.8420398972287084
            ]
        },
        {
            "positions": [
                0.45838172350003414,
                -1.7430093722825326,
                0.15363172693560734,
                1.559499731217007,
                0.01402780207647969,
                -1.9129863674686445
            ]
        },
        {
            "positions": [
                0.46513994628961264,
                -1.7488884747603182,
                0.28574492689287356,
                1.4355984215080568,
                0.05854258807289969,
                -1.9839328377085805
            ]
        },
        {
            "positions": [
                0.47189816907919113,
                -1.7547675772381035,
                0.41785812685013957,
                1.3116971117991072,
                0.10305737406931958,
                -2.0548793079485166
            ]
        },
        {
            "positions": [
                0.47865639186876957,
                -1.760646679715889,
                0.5499713268074053,
                1.1877958020901573,
                0.1475721600657396,
                -2.125825778188452
            ]
        },
        {
            "positions": [
                0.48541461465834806,
                -1.7665257821936746,
                0.6820845267646716,
                1.0638944923812068,
                0.1920869460621596,
                -2.1967722484283887
            ]
        },
        {
            "positions": [
                0.4921728374479265,
                -1.7724048846714602,
                0.8141977267219378,
                0.9399931826722572,
                0.2366017320585796,
                -2.2677187186683248
            ]
        },
        {
            "positions": [
                0.498931060237505,
                -1.7782839871492455,
                0.9463109266792036,
                0.8160918729633071,
                0.2811165180549995,
                -2.3386651889082604
            ]
        },
        {
            "positions": [
                0.5056892830270835,
                -1.784163089627031,
                1.0784241266364694,
                0.6921905632543575,
                0.3256313040514194,
                -2.4096116591481964
            ]
        },
        {
            "positions": [
                0.512447505816662,
                -1.7900421921048166,
                1.2105373265937356,
                0.5682892535454069,
                0.3701460900478395,
                -2.480558129388133
            ]
        },
        {
            "positions": [
                0.5192057286062404,
                -1.7959212945826022,
                1.3426505265510018,
                0.4443879438364573,
                0.4146608760442594,
                -2.5515045996280685
            ]
        },
        {
            "positions": [
                0.5259639513958189,
                -1.8018003970603877,
                1.4747637265082676,
                0.3204866341275072,
                0.4591756620406793,
                -2.6224510698680046
            ]
        },
        {
            "positions": [
                0.5327221741853974,
                -1.807679499538173,
                1.6068769264655334,
                0.19658532441855758,
                0.5036904480370994,
                -2.6933975401079406
            ]
        },
        {
            "positions": [
                0.5394803969749759,
                -1.8135586020159586,
                1.7389901264228,
                0.07268401470960706,
                0.5482052340335193,
                -2.7643440103478767
            ]
        },
        {
            "positions": [
                0.5462386197645543,
                -1.8194377044937442,
                1.8711033263800658,
                -0.05121729499934258,
                0.5927200200299394,
                -2.8352904805878127
            ]
        },
        {
            "positions": [
                0.5529968425541327,
                -1.8253168069715298,
                2.0032165263373316,
                -0.17511860470829266,
                0.6372348060263593,
                -2.906236950827749
            ]
        },
        {
            "positions": [
                0.5597550653437112,
                -1.831195909449315,
                2.1353297262945974,
                -0.2990199144172423,
                0.6817495920227792,
                -2.977183421067685
            ]
        },
        {
            "positions": [
                0.5665132881332897,
                -1.8370750119271007,
                2.267442926251864,
                -0.4229212241261928,
                0.7262643780191993,
                -3.048129891307621
            ]
        },
        {
            "positions": [
                0.5732715109228682,
                -1.8429541144048862,
                2.3995561262091303,
                -0.5468225338351427,
                0.7707791640156192,
                -3.119076361547557
            ]
        },
        {
            "positions": [
                0.7040256274157624,
                -1.9098096258512733,
                2.396436266380182,
                -0.47867910562452765,
                0.7010187380272127,
                -3.1192131396279734
            ]
        }
    ]
}