{
    "goal": {
        "global_pose": {
            "orientation": {
                "w": 0.7031023502349854,
                "x": -0.7110244035720825,
                "y": 0.007748599164187908,
                "z": 0.005598929710686207
            },
            "position": {
                "x": 0.11585023208521307,
                "y": 0.44412534475326537,
                "z": 0.3711530566215515
            }
        },
        "name": "move_to_auspresseinheit_A"
    },
    "id": "TRRT_move_to_auspresseinheit_A_101",
    "joint_names": [
        "shoulder_pan_joint",
        "shoulder_lift_joint",
        "elbow_joint",
        "wrist_1_joint",
        "wrist_2_joint",
        "wrist_3_joint"
    ],
    "metrics": {
        "cart_traj_len": 0.6747059494752172,
        "distance_elbow_joint": 0.026964625635935935,
        "distance_shoulder_lift_joint": 0.537030845034121,
        "distance_shoulder_pan_joint": 1.0457723524945919,
        "distance_wrist_1_joint": 0.5511058497525643,
        "distance_wrist_2_joint": 0.5150733466985417,
        "distance_wrist_3_joint": 0.209590235298188,
        "smoothness": 0.1915190036771159,
        "time": 0.033646918,
        "traj_len": 1.6986869208049913,
        "weighted_distance": 2.090669013010291
    },
    "planner": "TRRT",
    "start": {
        "state": {
            "elbow_joint": 2.422574709923281,
            "shoulder_lift_joint": -1.3736533754116391,
            "shoulder_pan_joint": -0.33786336945926293,
            "wrist_1_joint": -1.0288603412921917,
            "wrist_2_joint": 1.2330224858903978,
            "wrist_3_joint": -3.094022268022082
        }
    },
    "waypoints": [
        {
            "positions": [
                -0.33786336945926293,
                -1.3736533754116391,
                2.422574709923281,
                -1.0288603412921917,
                1.2330224858903978,
                -3.094022268022082
            ]
        },
        {
            "positions": [
                -0.19526522555162315,
                -1.4607809473154232,
                2.4217875496049768,
                -0.9323915754039368,
                1.184803400080316,
                -3.0756539426447063
            ]
        },
        {
            "positions": [
                -0.05266708164398337,
                -1.5479085192192072,
                2.421000389286672,
                -0.8359228095156819,
                1.1365843142702343,
                -3.0572856172673304
            ]
        },
        {
            "positions": [
                0.08993106226365633,
                -1.6350360911229913,
                2.4202132289683678,
                -0.739454043627427,
                1.0883652284601526,
                -3.0389172918899545
            ]
        },
        {
            "positions": [
                0.2325292061712962,
                -1.7221636630267754,
                2.419426068650063,
                -0.642985277739172,
                1.0401461426500709,
                -3.0205489665125786
            ]
        },
        {
            "positions": [
                0.37512735007893594,
                -1.8092912349305594,
                2.4186389083317588,
                -0.5465165118509171,
                0.9919270568399892,
                -3.0021806411352028
            ]
        },
        {
            "positions": [
                0.48605456106440026,
                -1.8430888967689596,
                2.4109626336502874,
                -0.5235958384138205,
                0.9006010842906115,
                -3.041430177272306
            ]
        },
        {
            "positions": [
                0.5969817720498647,
                -1.87688655860736,
                2.4032863589688165,
                -0.5006751649767239,
                0.8092751117412338,
                -3.0806797134094084
            ]
        },
        {
            "positions": [
                0.707908983035329,
                -1.9106842204457601,
                2.395610084287345,
                -0.4777544915396274,
                0.7179491391918561,
                -3.1199292495465114
            ]
        }
    ]
}