{
    "goal": {
        "global_pose": {
            "orientation": {
                "w": 0.7047431468963623,
                "x": -0.7094548344612122,
                "y": 0.0024358443915843964,
                "z": -0.0022348060738295317
            },
            "position": {
                "x": 0.6094750761985779,
                "y": 0.3671506643295288,
                "z": 0.19426114857196808
            }
        },
        "name": "move_to_magneteinheit_A"
    },
    "id": "TRRT_move_to_magneteinheit_A_1",
    "joint_names": [
        "shoulder_pan_joint",
        "shoulder_lift_joint",
        "elbow_joint",
        "wrist_1_joint",
        "wrist_2_joint",
        "wrist_3_joint"
    ],
    "metrics": {
        "cart_traj_len": 2.0687180085322994,
        "distance_elbow_joint": 3.9092820098513203,
        "distance_shoulder_lift_joint": 1.071983088503123,
        "distance_shoulder_pan_joint": 1.2427969950497753,
        "distance_wrist_1_joint": 1.3153782329983827,
        "distance_wrist_2_joint": 1.4364007117836732,
        "distance_wrist_3_joint": 4.242715614359943,
        "smoothness": 0.053028881743223025,
        "time": 0.102551968,
        "traj_len": 3.6357333032754506,
        "weighted_distance": 4.945277224387746
    },
    "planner": "TRRT",
    "start": {
        "state": {
            "elbow_joint": -1.919643507792019,
            "shoulder_lift_joint": -0.07675430207160344,
            "shoulder_pan_joint": -1.1188671864651873,
            "wrist_1_joint": 0.42560062535961957,
            "wrist_2_joint": 1.5706038300724876,
            "wrist_3_joint": 1.1188968870953055
        }
    },
    "waypoints": [
        {
            "positions": [
                -1.1188671864651873,
                -0.07675430207160344,
                -1.919643507792019,
                0.42560062535961957,
                1.5706038300724876,
                1.1188968870953055
            ]
        },
        {
            "positions": [
                -1.0820769016044112,
                -0.10923549278740716,
                -1.8020041430939429,
                0.3861403552998509,
                1.5270818933543622,
                0.9932583381126733
            ]
        },
        {
            "positions": [
                -1.045286616743635,
                -0.14171668350321087,
                -1.6843647783958664,
                0.3466800852400822,
                1.483559956636237,
                0.867619789130041
            ]
        },
        {
            "positions": [
                -1.0084963318828586,
                -0.17419787421901461,
                -1.5667254136977902,
                0.30721981518031355,
                1.4400380199181115,
                0.7419812401474087
            ]
        },
        {
            "positions": [
                -0.9717060470220824,
                -0.20667906493481833,
                -1.449086048999714,
                0.2677595451205449,
                1.396516083199986,
                0.6163426911647765
            ]
        },
        {
            "positions": [
                -0.9349157621613062,
                -0.23916025565062207,
                -1.3314466843016377,
                0.22829927506077619,
                1.352994146481861,
                0.4907041421821442
            ]
        },
        {
            "positions": [
                -0.89812547730053,
                -0.2716414463664258,
                -1.2138073196035613,
                0.18883900500100753,
                1.3094722097637355,
                0.36506559319951193
            ]
        },
        {
            "positions": [
                -0.8613351924397539,
                -0.30412263708222953,
                -1.096167954905485,
                0.14937873494123888,
                1.26595027304561,
                0.23942704421687966
            ]
        },
        {
            "positions": [
                -0.8245449075789776,
                -0.3366038277980332,
                -0.9785285902074087,
                0.10991846488147017,
                1.2224283363274848,
                0.11378849523424739
            ]
        },
        {
            "positions": [
                -0.7877546227182014,
                -0.36908501851383696,
                -0.8608892255093326,
                0.07045819482170151,
                1.1789063996093594,
                -0.01185005374838477
            ]
        },
        {
            "positions": [
                -0.7509643378574251,
                -0.4015662092296407,
                -0.7432498608112561,
                0.030997924761932805,
                1.135384462891234,
                -0.13748860273101715
            ]
        },
        {
            "positions": [
                -0.7141740529966489,
                -0.4340473999454444,
                -0.6256104961131799,
                -0.008462345297835794,
                1.0918625261731087,
                -0.2631271517136493
            ]
        },
        {
            "positions": [
                -0.6773837681358728,
                -0.46652859066124813,
                -0.5079711314151034,
                -0.0479226153576045,
                1.0483405894549833,
                -0.3887657006962817
            ]
        },
        {
            "positions": [
                -0.6405934832750966,
                -0.4990097813770518,
                -0.3903317667170272,
                -0.0873828854173731,
                1.004818652736858,
                -0.5144042496789138
            ]
        },
        {
            "positions": [
                -0.6038031984143203,
                -0.5314909720928556,
                -0.27269240201895095,
                -0.1268431554771418,
                0.9612967160187326,
                -0.6400427986615462
            ]
        },
        {
            "positions": [
                -0.5670129135535441,
                -0.5639721628086594,
                -0.15505303732087472,
                -0.16630342553691052,
                0.9177747793006072,
                -0.7656813476441784
            ]
        },
        {
            "positions": [
                -0.5302226286927678,
                -0.5964533535244629,
                -0.037413672622798266,
                -0.20576369559667923,
                0.8742528425824818,
                -0.8913198966268108
            ]
        },
        {
            "positions": [
                -0.49343234383199164,
                -0.6289345442402667,
                0.08022569207527797,
                -0.24522396565644783,
                0.8307309058643566,
                -1.016958445609443
            ]
        },
        {
            "positions": [
                -0.45664205897121546,
                -0.6614157349560705,
                0.19786505677335398,
                -0.28468423571621654,
                0.7872089691462313,
                -1.142596994592075
            ]
        },
        {
            "positions": [
                -0.41985177411043917,
                -0.6938969256718743,
                0.31550442147143065,
                -0.32414450577598525,
                0.7436870324281057,
                -1.2682355435747077
            ]
        },
        {
            "positions": [
                -0.383061489249663,
                -0.7263781163876779,
                0.4331437861695069,
                -0.36360477583575396,
                0.7001650957099804,
                -1.3938740925573398
            ]
        },
        {
            "positions": [
                -0.3462712043888867,
                -0.7588593071034817,
                0.5507831508675831,
                -0.40306504589552256,
                0.6566431589918551,
                -1.519512641539972
            ]
        },
        {
            "positions": [
                -0.3094809195281105,
                -0.7913404978192853,
                0.6684225155656593,
                -0.44252531595529115,
                0.6131212222737298,
                -1.6451511905226042
            ]
        },
        {
            "positions": [
                -0.27269063466733423,
                -0.8238216885350891,
                0.786061880263736,
                -0.48198558601506,
                0.5695992855556042,
                -1.7707897395052368
            ]
        },
        {
            "positions": [
                -0.23590034980655805,
                -0.8563028792508929,
                0.9037012449618123,
                -0.5214458560748285,
                0.526077348837479,
                -1.896428288487869
            ]
        },
        {
            "positions": [
                -0.19911006494578187,
                -0.8887840699666965,
                1.0213406096598885,
                -0.5609061261345973,
                0.4825554121193536,
                -2.022066837470501
            ]
        },
        {
            "positions": [
                -0.1623197800850057,
                -0.9212652606825003,
                1.1389799743579647,
                -0.6003663961943657,
                0.4390334754012284,
                -2.1477053864531332
            ]
        },
        {
            "positions": [
                -0.1255294952242294,
                -0.953746451398304,
                1.2566193390560414,
                -0.6398266662541345,
                0.39551153868310296,
                -2.273343935435766
            ]
        },
        {
            "positions": [
                -0.08873921036345322,
                -0.9862276421141078,
                1.3742587037541172,
                -0.6792869363139031,
                0.3519896019649775,
                -2.398982484418398
            ]
        },
        {
            "positions": [
                -0.051948925502677046,
                -1.0187088328299114,
                1.4918980684521934,
                -0.718747206373672,
                0.3084676652468523,
                -2.52462103340103
            ]
        },
        {
            "positions": [
                -0.015158640641900867,
                -1.0511900235457152,
                1.6095374331502696,
                -0.7582074764334406,
                0.2649457285287269,
                -2.6502595823836623
            ]
        },
        {
            "positions": [
                0.021631644218875534,
                -1.083671214261519,
                1.7271767978483463,
                -0.7976677464932094,
                0.22142379181060146,
                -2.775898131366295
            ]
        },
        {
            "positions": [
                0.05842192907965171,
                -1.1161524049773226,
                1.8448161625464226,
                -0.837128016552978,
                0.17790185509247602,
                -2.901536680348927
            ]
        },
        {
            "positions": [
                0.09521221394042778,
                -1.1486335956931264,
                1.962455527244499,
                -0.8765882866127466,
                0.13437991837435076,
                -3.0271752293315597
            ]
        },
        {
            "positions": [
                0.12392980858458788,
                -1.1487373905747265,
                1.9896385020593015,
                -0.8633989655867299,
                0.13455671845988718,
                -3.1238187272646383
            ]
        }
    ]
}