{
    "goal": {
        "global_pose": {
            "orientation": {
                "w": 0.5084816217422485,
                "x": -0.49083608388900757,
                "y": 0.5182115435600281,
                "z": -0.4816462993621826
            },
            "position": {
                "x": 0.5540239810943604,
                "y": 0.030875300988554955,
                "z": 0.16403168439865112
            }
        },
        "name": "move_to_storage_A"
    },
    "id": "TRRT_move_to_storage_A_20",
    "joint_names": [
        "shoulder_pan_joint",
        "shoulder_lift_joint",
        "elbow_joint",
        "wrist_1_joint",
        "wrist_2_joint",
        "wrist_3_joint"
    ],
    "metrics": {
        "cart_traj_len": 0.3535600148723519,
        "distance_elbow_joint": 0.44792471712049453,
        "distance_shoulder_lift_joint": 0.23517080076578734,
        "distance_shoulder_pan_joint": 0.46325577009474106,
        "distance_wrist_1_joint": 0.23586678362634605,
        "distance_wrist_2_joint": 1.0956012675810176,
        "distance_wrist_3_joint": 0.09457071220530411,
        "smoothness": 1.3322676311638882e-15,
        "time": 0.024926697999999997,
        "traj_len": 1.6038672175070139,
        "weighted_distance": 2.0231162910252247
    },
    "planner": "TRRT",
    "start": {
        "state": {
            "elbow_joint": 1.9715463870305268,
            "shoulder_lift_joint": -1.1394903361783484,
            "shoulder_pan_joint": 0.12281147578464417,
            "wrist_1_joint": -0.7804599489681411,
            "wrist_2_joint": 0.12958660307563738,
            "wrist_3_joint": -3.1924946282119055
        }
    },
    "waypoints": [
        {
            "positions": [
                0.12281147578464417,
                -1.1394903361783484,
                1.9715463870305268,
                -0.7804599489681411,
                0.12958660307563738,
                -3.1924946282119055
            ]
        },
        {
            "positions": [
                0.05663208005682402,
                -1.173086164859175,
                2.0355356323334544,
                -0.8141552037719048,
                0.2861010698729256,
                -3.1789845264682906
            ]
        },
        {
            "positions": [
                -0.009547315670996134,
                -1.206681993540002,
                2.0995248776363824,
                -0.8478504585756685,
                0.4426155366702138,
                -3.165474424724676
            ]
        },
        {
            "positions": [
                -0.07572671139881627,
                -1.2402778222208286,
                2.16351412293931,
                -0.8815457133794322,
                0.599130003467502,
                -3.151964322981061
            ]
        },
        {
            "positions": [
                -0.14190610712663643,
                -1.2738736509016555,
                2.227503368242238,
                -0.915240968183196,
                0.7556444702647903,
                -3.138454221237446
            ]
        },
        {
            "positions": [
                -0.2080855028544566,
                -1.3074694795824822,
                2.2914926135451656,
                -0.9489362229869597,
                0.9121589370620786,
                -3.124944119493831
            ]
        },
        {
            "positions": [
                -0.2742648985822767,
                -1.341065308263309,
                2.3554818588480932,
                -0.9826314777907235,
                1.0686734038593666,
                -3.1114340177502164
            ]
        },
        {
            "positions": [
                -0.3404442943100969,
                -1.3746611369441357,
                2.4194711041510213,
                -1.0163267325944871,
                1.225187870656655,
                -3.0979239160066014
            ]
        }
    ]
}