{
    "goal": {
        "global_pose": {
            "orientation": {
                "w": 0.5084816217422485,
                "x": -0.49083608388900757,
                "y": 0.5182115435600281,
                "z": -0.4816462993621826
            },
            "position": {
                "x": 0.5540239810943604,
                "y": 0.030875300988554955,
                "z": 0.16403168439865112
            }
        },
        "name": "move_to_storage_A"
    },
    "id": "TRRT_move_to_storage_A_1",
    "joint_names": [
        "shoulder_pan_joint",
        "shoulder_lift_joint",
        "elbow_joint",
        "wrist_1_joint",
        "wrist_2_joint",
        "wrist_3_joint"
    ],
    "metrics": {
        "cart_traj_len": 0.35310442051275476,
        "distance_elbow_joint": 0.44943559214638507,
        "distance_shoulder_lift_joint": 0.23653576573001955,
        "distance_shoulder_pan_joint": 0.4600834220647074,
        "distance_wrist_1_joint": 0.2381943848885918,
        "distance_wrist_2_joint": 1.1069041744735053,
        "distance_wrist_3_joint": 0.08650909834553433,
        "smoothness": 1.7763568394002505e-15,
        "time": 0.015627868,
        "traj_len": 1.6055100241508127,
        "weighted_distance": 2.0238031509269647
    },
    "planner": "TRRT",
    "start": {
        "state": {
            "elbow_joint": 1.9715463870305268,
            "shoulder_lift_joint": -1.1394903361783484,
            "shoulder_pan_joint": 0.12281147578464417,
            "wrist_1_joint": -0.7804599489681411,
            "wrist_2_joint": 0.12958660307563738,
            "wrist_3_joint": -3.1924946282119055
        }
    },
    "waypoints": [
        {
            "positions": [
                0.12281147578464417,
                -1.1394903361783484,
                1.9715463870305268,
                -0.7804599489681411,
                0.12958660307563738,
                -3.1924946282119055
            ]
        },
        {
            "positions": [
                0.05708527263254312,
                -1.1732811598540656,
                2.0357514716228673,
                -0.8144877182379399,
                0.2877157708575667,
                -3.180136185591115
            ]
        },
        {
            "positions": [
                -0.00864093051955793,
                -1.2070719835297825,
                2.0999565562152083,
                -0.8485154875077388,
                0.44584493863949604,
                -3.1677777429703244
            ]
        },
        {
            "positions": [
                -0.074367133671659,
                -1.2408628072054997,
                2.164161640807549,
                -0.8825432567775375,
                0.6039741064214253,
                -3.155419300349534
            ]
        },
        {
            "positions": [
                -0.14009333682376002,
                -1.2746536308812166,
                2.22836672539989,
                -0.9165710260473364,
                0.7621032742033547,
                -3.143060857728743
            ]
        },
        {
            "positions": [
                -0.2058195399758611,
                -1.3084444545569338,
                2.2925718099922303,
                -0.9505987953171352,
                0.9202324419852841,
                -3.1307024151079523
            ]
        },
        {
            "positions": [
                -0.27154574312796215,
                -1.3422352782326508,
                2.356776894584571,
                -0.9846265645869341,
                1.0783616097672133,
                -3.1183439724871618
            ]
        },
        {
            "positions": [
                -0.33727194628006324,
                -1.376026101908368,
                2.420981979176912,
                -1.0186543338567329,
                1.2364907775491427,
                -3.105985529866371
            ]
        }
    ]
}