{
    "goal": {
        "global_pose": {
            "orientation": {
                "w": 0.7047431468963623,
                "x": -0.7094548344612122,
                "y": 0.0024358443915843964,
                "z": -0.0022348060738295317
            },
            "position": {
                "x": 0.6094750761985779,
                "y": 0.3671506643295288,
                "z": 0.19426114857196808
            }
        },
        "name": "move_to_magneteinheit_A"
    },
    "id": "TRRT_move_to_magneteinheit_A_139",
    "joint_names": [
        "shoulder_pan_joint",
        "shoulder_lift_joint",
        "elbow_joint",
        "wrist_1_joint",
        "wrist_2_joint",
        "wrist_3_joint"
    ],
    "metrics": {
        "cart_traj_len": 2.065759111409143,
        "distance_elbow_joint": 3.88069356916601,
        "distance_shoulder_lift_joint": 1.0568118747706974,
        "distance_shoulder_pan_joint": 1.2432348787239966,
        "distance_wrist_1_joint": 1.1486033023507272,
        "distance_wrist_2_joint": 1.4309358230364984,
        "distance_wrist_3_joint": 1.9181830052324926,
        "smoothness": 3.4892723817896226e-16,
        "time": 0.132121781,
        "traj_len": 3.2677916783785994,
        "weighted_distance": 4.1345335394857585
    },
    "planner": "TRRT",
    "start": {
        "state": {
            "elbow_joint": -1.919643507792019,
            "shoulder_lift_joint": -0.07675430207160344,
            "shoulder_pan_joint": -1.1188671864651873,
            "wrist_1_joint": 0.42560062535961957,
            "wrist_2_joint": 1.5706038300724876,
            "wrist_3_joint": 1.1188968870953055
        }
    },
    "waypoints": [
        {
            "positions": [
                -1.1188671864651873,
                -0.07675430207160344,
                -1.919643507792019,
                0.42560062535961957,
                1.5706038300724876,
                1.1188968870953055
            ]
        },
        {
            "positions": [
                -1.0728214502161504,
                -0.1158954826186663,
                -1.775914116341426,
                0.38305976230959266,
                1.5176062069970617,
                1.1899407021039163
            ]
        },
        {
            "positions": [
                -1.0267757139671134,
                -0.15503666316572917,
                -1.6321847248908332,
                0.3405188992595657,
                1.4646085839216358,
                1.2609845171125271
            ]
        },
        {
            "positions": [
                -0.9807299777180767,
                -0.19417784371279204,
                -1.4884553334402402,
                0.2979780362095388,
                1.41161096084621,
                1.3320283321211381
            ]
        },
        {
            "positions": [
                -0.9346842414690397,
                -0.2333190242598549,
                -1.3447259419896473,
                0.25543717315951187,
                1.358613337770784,
                1.403072147129749
            ]
        },
        {
            "positions": [
                -0.8886385052200028,
                -0.2724602048069178,
                -1.2009965505390543,
                0.21289631010948493,
                1.3056157146953584,
                1.4741159621383597
            ]
        },
        {
            "positions": [
                -0.8425927689709659,
                -0.31160138535398063,
                -1.0572671590884615,
                0.170355447059458,
                1.2526180916199325,
                1.5451597771469705
            ]
        },
        {
            "positions": [
                -0.7965470327219291,
                -0.35074256590104347,
                -0.9135377676378684,
                0.12781458400943108,
                1.1996204685445067,
                1.6162035921555815
            ]
        },
        {
            "positions": [
                -0.7505012964728921,
                -0.38988374644810636,
                -0.7698083761872756,
                0.08527372095940411,
                1.1466228454690808,
                1.6872474071641923
            ]
        },
        {
            "positions": [
                -0.7044555602238551,
                -0.4290249269951692,
                -0.6260789847366826,
                0.0427328579093772,
                1.093625222393655,
                1.758291222172803
            ]
        },
        {
            "positions": [
                -0.6584098239748182,
                -0.4681661075422321,
                -0.4823495932860895,
                0.00019199485935028626,
                1.040627599318229,
                1.8293350371814139
            ]
        },
        {
            "positions": [
                -0.6123640877257813,
                -0.5073072880892949,
                -0.3386202018354967,
                -0.04234886819067668,
                0.9876299762428031,
                1.9003788521900247
            ]
        },
        {
            "positions": [
                -0.5663183514767445,
                -0.5464484686363578,
                -0.19489081038490363,
                -0.08488973124070359,
                0.9346323531673773,
                1.9714226671986355
            ]
        },
        {
            "positions": [
                -0.5202726152277075,
                -0.5855896491834207,
                -0.05116141893431081,
                -0.1274305942907305,
                0.8816347300919514,
                2.0424664822072462
            ]
        },
        {
            "positions": [
                -0.47422687897867066,
                -0.6247308297304834,
                0.09256797251628224,
                -0.16997145734075741,
                0.8286371070165255,
                2.113510297215857
            ]
        },
        {
            "positions": [
                -0.4281811427296336,
                -0.6638720102775464,
                0.2362973639668755,
                -0.21251232039078444,
                0.7756394839410996,
                2.1845541122244683
            ]
        },
        {
            "positions": [
                -0.38213540648059674,
                -0.7030131908246093,
                0.3800267554174679,
                -0.25505318344081135,
                0.7226418608656738,
                2.2555979272330786
            ]
        },
        {
            "positions": [
                -0.3360896702315598,
                -0.7421543713716723,
                0.5237561468680612,
                -0.29759404649083826,
                0.6696442377902478,
                2.32664174224169
            ]
        },
        {
            "positions": [
                -0.29004393398252293,
                -0.781295551918735,
                0.667485538318654,
                -0.34013490954086517,
                0.6166466147148221,
                2.3976855572503006
            ]
        },
        {
            "positions": [
                -0.24399819773348597,
                -0.820436732465798,
                0.8112149297692473,
                -0.3826757725908922,
                0.5636489916393961,
                2.4687293722589114
            ]
        },
        {
            "positions": [
                -0.19795246148444912,
                -0.8595779130128607,
                0.9549443212198401,
                -0.425216635640919,
                0.5106513685639704,
                2.539773187267522
            ]
        },
        {
            "positions": [
                -0.15190672523541215,
                -0.8987190935599236,
                1.098673712670433,
                -0.467757498690946,
                0.4576537454885443,
                2.610817002276133
            ]
        },
        {
            "positions": [
                -0.1058609889863753,
                -0.9378602741069864,
                1.2424031041210257,
                -0.5102983617409729,
                0.40465612241311866,
                2.681860817284744
            ]
        },
        {
            "positions": [
                -0.05981525273733834,
                -0.9770014546540493,
                1.386132495571619,
                -0.5528392247909999,
                0.3516584993376928,
                2.7529046322933546
            ]
        },
        {
            "positions": [
                -0.013769516488301603,
                -1.0161426352011123,
                1.5298618870222118,
                -0.5953800878410267,
                0.2986608762622669,
                2.823948447301966
            ]
        },
        {
            "positions": [
                0.03227621976073536,
                -1.0552838157481752,
                1.6735912784728046,
                -0.6379209508910537,
                0.245663253186841,
                2.8949922623105766
            ]
        },
        {
            "positions": [
                0.07832195600977232,
                -1.094424996295238,
                1.8173206699233975,
                -0.6804618139410805,
                0.19266563011141513,
                2.9660360773191874
            ]
        },
        {
            "positions": [
                0.1243676922588093,
                -1.1335661768423009,
                1.9610500613739907,
                -0.7230026769911075,
                0.13966800703598933,
                3.037079892327798
            ]
        }
    ]
}