{
    "goal": {
        "global_pose": {
            "orientation": {
                "w": 0.7047431468963623,
                "x": -0.7094548344612122,
                "y": 0.0024358443915843964,
                "z": -0.0022348060738295317
            },
            "position": {
                "x": 0.6094750761985779,
                "y": 0.3671506643295288,
                "z": 0.19426114857196808
            }
        },
        "name": "move_to_magneteinheit_A"
    },
    "id": "TRRT_move_to_magneteinheit_A_88",
    "joint_names": [
        "shoulder_pan_joint",
        "shoulder_lift_joint",
        "elbow_joint",
        "wrist_1_joint",
        "wrist_2_joint",
        "wrist_3_joint"
    ],
    "metrics": {
        "cart_traj_len": 1.878627725477138,
        "distance_elbow_joint": 3.909891065137926,
        "distance_shoulder_lift_joint": 0.6989745927330085,
        "distance_shoulder_pan_joint": 1.2422643114391985,
        "distance_wrist_1_joint": 1.4958862551562944,
        "distance_wrist_2_joint": 1.6952922165393238,
        "distance_wrist_3_joint": 1.1177750261347028,
        "smoothness": 6.579099387555687e-16,
        "time": 0.055623881,
        "traj_len": 3.1874885830604085,
        "weighted_distance": 3.948013676661401
    },
    "planner": "TRRT",
    "start": {
        "state": {
            "elbow_joint": -1.919643507792019,
            "shoulder_lift_joint": -0.07675430207160344,
            "shoulder_pan_joint": -1.1188671864651873,
            "wrist_1_joint": 0.42560062535961957,
            "wrist_2_joint": 1.5706038300724876,
            "wrist_3_joint": 1.1188968870953055
        }
    },
    "waypoints": [
        {
            "positions": [
                -1.1188671864651873,
                -0.07675430207160344,
                -1.919643507792019,
                0.42560062535961957,
                1.5706038300724876,
                1.1188968870953055
            ]
        },
        {
            "positions": [
                -1.071087789871372,
                -0.10363794025364223,
                -1.7692630822097912,
                0.48313471209640013,
                1.5054002832825135,
                1.0759055399362785
            ]
        },
        {
            "positions": [
                -1.0233083932775566,
                -0.13052157843568102,
                -1.6188826566275631,
                0.5406687988331806,
                1.4401967364925397,
                1.0329141927772514
            ]
        },
        {
            "positions": [
                -0.9755289966837414,
                -0.15740521661771983,
                -1.4685022310453353,
                0.5982028855699613,
                1.3749931897025656,
                0.9899228456182244
            ]
        },
        {
            "positions": [
                -0.927749600089926,
                -0.18428885479975862,
                -1.3181218054631074,
                0.6557369723067418,
                1.3097896429125917,
                0.9469314984591974
            ]
        },
        {
            "positions": [
                -0.8799702034961108,
                -0.2111724929817974,
                -1.1677413798808796,
                0.7132710590435223,
                1.2445860961226176,
                0.9039401513001704
            ]
        },
        {
            "positions": [
                -0.8321908069022954,
                -0.23805613116383623,
                -1.0173609542986515,
                0.7708051457803029,
                1.1793825493326437,
                0.8609488041411433
            ]
        },
        {
            "positions": [
                -0.78441141030848,
                -0.264939769345875,
                -0.8669805287164236,
                0.8283392325170834,
                1.1141790025426697,
                0.8179574569821164
            ]
        },
        {
            "positions": [
                -0.7366320137146647,
                -0.2918234075279138,
                -0.7166001031341955,
                0.885873319253864,
                1.0489754557526956,
                0.7749661098230893
            ]
        },
        {
            "positions": [
                -0.6888526171208494,
                -0.31870704570995256,
                -0.5662196775519677,
                0.9434074059906445,
                0.9837719089627217,
                0.7319747626640623
            ]
        },
        {
            "positions": [
                -0.6410732205270341,
                -0.3455906838919914,
                -0.4158392519697398,
                1.0009414927274252,
                0.9185683621727476,
                0.6889834155050352
            ]
        },
        {
            "positions": [
                -0.5932938239332187,
                -0.3724743220740302,
                -0.26545882638751195,
                1.0584755794642056,
                0.8533648153827736,
                0.6459920683460082
            ]
        },
        {
            "positions": [
                -0.5455144273394034,
                -0.399357960256069,
                -0.11507840080528386,
                1.1160096662009862,
                0.7881612685927997,
                0.6030007211869811
            ]
        },
        {
            "positions": [
                -0.4977350307455881,
                -0.42624159843810777,
                0.035302024776944,
                1.1735437529377668,
                0.7229577218028257,
                0.5600093740279541
            ]
        },
        {
            "positions": [
                -0.44995563415177287,
                -0.45312523662014653,
                0.18568245035917186,
                1.2310778396745472,
                0.6577541750128517,
                0.5170180268689272
            ]
        },
        {
            "positions": [
                -0.4021762375579575,
                -0.48000887480218535,
                0.3360628759413997,
                1.2886119264113278,
                0.5925506282228777,
                0.4740266797099001
            ]
        },
        {
            "positions": [
                -0.35439684096414215,
                -0.5068925129842241,
                0.486443301523628,
                1.3461460131481084,
                0.5273470814329038,
                0.431035332550873
            ]
        },
        {
            "positions": [
                -0.3066174443703268,
                -0.533776151166263,
                0.6368237271058559,
                1.403680099884889,
                0.4621435346429297,
                0.38804398539184604
            ]
        },
        {
            "positions": [
                -0.25883804777651154,
                -0.5606597893483017,
                0.7872041526880837,
                1.4612141866216695,
                0.3969399878529558,
                0.34505263823281895
            ]
        },
        {
            "positions": [
                -0.21105865118269618,
                -0.5875434275303406,
                0.9375845782703116,
                1.51874827335845,
                0.3317364410629817,
                0.302061291073792
            ]
        },
        {
            "positions": [
                -0.16327925458888082,
                -0.6144270657123794,
                1.0879650038525395,
                1.5762823600952307,
                0.26653289427300764,
                0.2590699439147649
            ]
        },
        {
            "positions": [
                -0.11549985799506546,
                -0.6413107038944181,
                1.2383454294347673,
                1.6338164468320113,
                0.20132934748303377,
                0.21607859675573793
            ]
        },
        {
            "positions": [
                -0.0677204614012501,
                -0.6681943420764569,
                1.3887258550169952,
                1.6913505335687917,
                0.13612580069305968,
                0.17308724959671085
            ]
        },
        {
            "positions": [
                -0.01994106480743496,
                -0.6950779802584957,
                1.539106280599223,
                1.7488846203055723,
                0.07092225390308582,
                0.13009590243768387
            ]
        },
        {
            "positions": [
                0.02783833178638062,
                -0.7219616184405346,
                1.6894867061814514,
                1.806418707042353,
                0.005718707113111732,
                0.08710455527865668
            ]
        },
        {
            "positions": [
                0.07561772838019576,
                -0.7488452566225734,
                1.8398671317636792,
                1.8639527937791334,
                -0.059484839676862356,
                0.04411320811962982
            ]
        },
        {
            "positions": [
                0.12339712497401105,
                -0.775728894804612,
                1.990247557345907,
                1.921486880515914,
                -0.12468838646683623,
                0.0011218609606028123
            ]
        }
    ]
}