{
    "goal": {
        "global_pose": {
            "orientation": {
                "w": 0.7047431468963623,
                "x": -0.7094548344612122,
                "y": 0.0024358443915843964,
                "z": -0.0022348060738295317
            },
            "position": {
                "x": 0.6094750761985779,
                "y": 0.3671506643295288,
                "z": 0.19426114857196808
            }
        },
        "name": "move_to_magneteinheit_A"
    },
    "id": "TRRT_move_to_magneteinheit_A_41",
    "joint_names": [
        "shoulder_pan_joint",
        "shoulder_lift_joint",
        "elbow_joint",
        "wrist_1_joint",
        "wrist_2_joint",
        "wrist_3_joint"
    ],
    "metrics": {
        "cart_traj_len": 2.0718026471827877,
        "distance_elbow_joint": 3.903222131423872,
        "distance_shoulder_lift_joint": 1.0682978823737865,
        "distance_shoulder_pan_joint": 1.241241760025714,
        "distance_wrist_1_joint": 1.2588172753044458,
        "distance_wrist_2_joint": 1.4338774311538494,
        "distance_wrist_3_joint": 4.258357905968126,
        "smoothness": 3.8064789502396956e-16,
        "time": 0.143240553,
        "traj_len": 3.628197126156433,
        "weighted_distance": 4.9369246403651275
    },
    "planner": "TRRT",
    "start": {
        "state": {
            "elbow_joint": -1.919643507792019,
            "shoulder_lift_joint": -0.07675430207160344,
            "shoulder_pan_joint": -1.1188671864651873,
            "wrist_1_joint": 0.42560062535961957,
            "wrist_2_joint": 1.5706038300724876,
            "wrist_3_joint": 1.1188968870953055
        }
    },
    "waypoints": [
        {
            "positions": [
                -1.1188671864651873,
                -0.07675430207160344,
                -1.919643507792019,
                0.42560062535961957,
                1.5706038300724876,
                1.1188968870953055
            ]
        },
        {
            "positions": [
                -1.081916080710605,
                -0.10861729171306872,
                -1.8028561497191378,
                0.3881924536220404,
                1.527749358385083,
                0.9931786452049594
            ]
        },
        {
            "positions": [
                -1.0449649749560226,
                -0.140480281354534,
                -1.6860687916462567,
                0.35078428188446126,
                1.4848948866976786,
                0.867460403314613
            ]
        },
        {
            "positions": [
                -1.0080138692014402,
                -0.17234327099599928,
                -1.5692814335733754,
                0.31337611014688205,
                1.442040415010274,
                0.7417421614242667
            ]
        },
        {
            "positions": [
                -0.9710627634468578,
                -0.20420626063746453,
                -1.452494075500494,
                0.2759679384093029,
                1.3991859433228693,
                0.6160239195339205
            ]
        },
        {
            "positions": [
                -0.9341116576922754,
                -0.2360692502789298,
                -1.335706717427613,
                0.23855976667172377,
                1.3563314716354646,
                0.49030567764357436
            ]
        },
        {
            "positions": [
                -0.8971605519376931,
                -0.26793223992039505,
                -1.2189193593547314,
                0.20115159493414458,
                1.31347699994806,
                0.36458743575322805
            ]
        },
        {
            "positions": [
                -0.8602094461831107,
                -0.29979522956186033,
                -1.1021320012818503,
                0.16374342319656543,
                1.2706225282606556,
                0.23886919386288186
            ]
        },
        {
            "positions": [
                -0.8232583404285283,
                -0.3316582192033256,
                -0.985344643208969,
                0.12633525145898628,
                1.227768056573251,
                0.11315095197253555
            ]
        },
        {
            "positions": [
                -0.7863072346739459,
                -0.3635212088447909,
                -0.8685572851360879,
                0.08892707972140712,
                1.1849135848858463,
                -0.012567289917810642
            ]
        },
        {
            "positions": [
                -0.7493561289193635,
                -0.39538419848625617,
                -0.7517699270632066,
                0.051518907983827966,
                1.1420591131984419,
                -0.13828553180815684
            ]
        },
        {
            "positions": [
                -0.7124050231647812,
                -0.4272471881277214,
                -0.6349825689903252,
                0.014110736246248812,
                1.0992046415110373,
                -0.26400377369850303
            ]
        },
        {
            "positions": [
                -0.6754539174101987,
                -0.4591101777691867,
                -0.5181952109174439,
                -0.023297435491330398,
                1.0563501698236326,
                -0.38972201558884945
            ]
        },
        {
            "positions": [
                -0.6385028116556164,
                -0.49097316741065195,
                -0.4014078528445628,
                -0.0607056072289095,
                1.0134956981362282,
                -0.5154402574791954
            ]
        },
        {
            "positions": [
                -0.6015517059010339,
                -0.5228361570521173,
                -0.2846204947716815,
                -0.09811377896648871,
                0.9706412264488234,
                -0.6411584993695418
            ]
        },
        {
            "positions": [
                -0.5646006001464515,
                -0.5546991466935824,
                -0.16783313669880018,
                -0.13552195070406786,
                0.9277867547614189,
                -0.766876741259888
            ]
        },
        {
            "positions": [
                -0.5276494943918691,
                -0.5865621363350477,
                -0.05104577862591886,
                -0.17293012244164702,
                0.8849322830740144,
                -0.8925949831502344
            ]
        },
        {
            "positions": [
                -0.49069838863728676,
                -0.618425125976513,
                0.06574157944696224,
                -0.21033829417922617,
                0.8420778113866098,
                -1.0183132250405804
            ]
        },
        {
            "positions": [
                -0.4537472828827044,
                -0.6502881156179783,
                0.18252893751984334,
                -0.24774646591680533,
                0.7992233396992052,
                -1.1440314669309268
            ]
        },
        {
            "positions": [
                -0.4167961771281219,
                -0.6821511052594436,
                0.2993162955927249,
                -0.2851546376543846,
                0.7563688680118006,
                -1.2697497088212732
            ]
        },
        {
            "positions": [
                -0.3798450713735396,
                -0.7140140949009088,
                0.416103653665606,
                -0.32256280939196363,
                0.7135143963243961,
                -1.3954679507116192
            ]
        },
        {
            "positions": [
                -0.34289396561895724,
                -0.7458770845423741,
                0.5328910117384875,
                -0.3599709811295428,
                0.6706599246369915,
                -1.5211861926019656
            ]
        },
        {
            "positions": [
                -0.30594285986437486,
                -0.7777400741838394,
                0.6496783698113686,
                -0.39737915286712194,
                0.6278054529495869,
                -1.6469044344923116
            ]
        },
        {
            "positions": [
                -0.26899175410979237,
                -0.8096030638253047,
                0.7664657278842502,
                -0.4347873246047012,
                0.5849509812621823,
                -1.772622676382658
            ]
        },
        {
            "positions": [
                -0.23204064835521,
                -0.84146605346677,
                0.8832530859571313,
                -0.47219549634228036,
                0.5420965095747776,
                -1.8983409182730044
            ]
        },
        {
            "positions": [
                -0.19508954260062772,
                -0.8733290431082352,
                1.0000404440300124,
                -0.5096036680798595,
                0.4992420378873732,
                -2.0240591601633504
            ]
        },
        {
            "positions": [
                -0.15813843684604534,
                -0.9051920327497005,
                1.1168278021028935,
                -0.5470118398174386,
                0.45638756619996856,
                -2.1497774020536964
            ]
        },
        {
            "positions": [
                -0.12118733109146285,
                -0.9370550223911658,
                1.233615160175775,
                -0.5844200115550178,
                0.4135330945125639,
                -2.2754956439440432
            ]
        },
        {
            "positions": [
                -0.08423622533688047,
                -0.9689180120326311,
                1.350402518248656,
                -0.6218281832925969,
                0.3706786228251593,
                -2.401213885834389
            ]
        },
        {
            "positions": [
                -0.047285119582298085,
                -1.0007810016740963,
                1.4671898763215376,
                -0.6592363550301761,
                0.32782415113775487,
                -2.5269321277247356
            ]
        },
        {
            "positions": [
                -0.010334013827715705,
                -1.0326439913155616,
                1.5839772343944187,
                -0.6966445267677552,
                0.28496967945035023,
                -2.6526503696150816
            ]
        },
        {
            "positions": [
                0.026617091926866676,
                -1.064506980957027,
                1.7007645924673003,
                -0.7340526985053344,
                0.2421152077629456,
                -2.778368611505428
            ]
        },
        {
            "positions": [
                0.06356819768144906,
                -1.0963699705984922,
                1.8175519505401814,
                -0.7714608702429135,
                0.19926073607554118,
                -2.9040868533957744
            ]
        },
        {
            "positions": [
                0.10051930343603133,
                -1.1282329602399574,
                1.9343393086130622,
                -0.8088690419804927,
                0.15640626438813654,
                -3.0298050952861204
            ]
        },
        {
            "positions": [
                0.12237457356052649,
                -1.14505218444539,
                1.9835786236318529,
                -0.8332166499448261,
                0.13672639891863816,
                -3.1394610188728205
            ]
        }
    ]
}