{
    "goal": {
        "global_pose": {
            "orientation": {
                "w": 0.7047431468963623,
                "x": -0.7094548344612122,
                "y": 0.0024358443915843964,
                "z": -0.0022348060738295317
            },
            "position": {
                "x": 0.6094750761985779,
                "y": 0.3671506643295288,
                "z": 0.19426114857196808
            }
        },
        "name": "move_to_magneteinheit_A"
    },
    "id": "TRRT_move_to_magneteinheit_A_80",
    "joint_names": [
        "shoulder_pan_joint",
        "shoulder_lift_joint",
        "elbow_joint",
        "wrist_1_joint",
        "wrist_2_joint",
        "wrist_3_joint"
    ],
    "metrics": {
        "cart_traj_len": 1.8778985066349763,
        "distance_elbow_joint": 3.91251503941141,
        "distance_shoulder_lift_joint": 0.6994936726110283,
        "distance_shoulder_pan_joint": 1.2419336495954725,
        "distance_wrist_1_joint": 1.5029184488460356,
        "distance_wrist_2_joint": 1.6966576319822206,
        "distance_wrist_3_joint": 1.1235595801660507,
        "smoothness": 3.289549710083688e-16,
        "time": 0.171625011,
        "traj_len": 3.190153291397173,
        "weighted_distance": 3.9526919009420123
    },
    "planner": "TRRT",
    "start": {
        "state": {
            "elbow_joint": -1.919643507792019,
            "shoulder_lift_joint": -0.07675430207160344,
            "shoulder_pan_joint": -1.1188671864651873,
            "wrist_1_joint": 0.42560062535961957,
            "wrist_2_joint": 1.5706038300724876,
            "wrist_3_joint": 1.1188968870953055
        }
    },
    "waypoints": [
        {
            "positions": [
                -1.1188671864651873,
                -0.07675430207160344,
                -1.919643507792019,
                0.42560062535961957,
                1.5706038300724876,
                1.1188968870953055
            ]
        },
        {
            "positions": [
                -1.0711005076345923,
                -0.1036579048643353,
                -1.7691621601223495,
                0.4834051810844671,
                1.5053477673039406,
                1.075683057088919
            ]
        },
        {
            "positions": [
                -1.023333828803997,
                -0.13056150765706717,
                -1.6186808124526797,
                0.5412097368093146,
                1.4400917045353938,
                1.0324692270825324
            ]
        },
        {
            "positions": [
                -0.975567149973402,
                -0.15746511044979902,
                -1.46819946478301,
                0.5990142925341622,
                1.3748356417668468,
                0.9892553970761458
            ]
        },
        {
            "positions": [
                -0.927800471142807,
                -0.1843687132425309,
                -1.3177181171133405,
                0.6568188482590097,
                1.3095795789982998,
                0.9460415670697593
            ]
        },
        {
            "positions": [
                -0.8800337923122119,
                -0.21127231603526275,
                -1.167236769443671,
                0.7146234039838573,
                1.2443235162297528,
                0.9028277370633727
            ]
        },
        {
            "positions": [
                -0.8322671134816167,
                -0.2381759188279946,
                -1.0167554217740014,
                0.7724279597087047,
                1.1790674534612058,
                0.8596139070569861
            ]
        },
        {
            "positions": [
                -0.7845004346510217,
                -0.26507952162072645,
                -0.8662740741043318,
                0.8302325154335521,
                1.113811390692659,
                0.8164000770505996
            ]
        },
        {
            "positions": [
                -0.7367337558204266,
                -0.2919831244134583,
                -0.715792726434662,
                0.8880370711583998,
                1.048555327924112,
                0.773186247044213
            ]
        },
        {
            "positions": [
                -0.6889670769898315,
                -0.31888672720619016,
                -0.5653113787649926,
                0.9458416268832472,
                0.9832992651555651,
                0.7299724170378264
            ]
        },
        {
            "positions": [
                -0.6412003981592364,
                -0.34579032999892206,
                -0.4148300310953228,
                1.003646182608095,
                0.9180432023870181,
                0.6867585870314399
            ]
        },
        {
            "positions": [
                -0.5934337193286413,
                -0.3726939327916539,
                -0.2643486834256532,
                1.0614507383329423,
                0.8527871396184712,
                0.6435447570250533
            ]
        },
        {
            "positions": [
                -0.5456670404980462,
                -0.39959753558438577,
                -0.11386733575598362,
                1.11925529405779,
                0.7875310768499242,
                0.6003309270186667
            ]
        },
        {
            "positions": [
                -0.4979003616674511,
                -0.4265011383771176,
                0.03661401191368596,
                1.1770598497826374,
                0.7222750140813773,
                0.5571170970122802
            ]
        },
        {
            "positions": [
                -0.45013368283685606,
                -0.45340474116984947,
                0.18709535958335555,
                1.2348644055074849,
                0.6570189513128304,
                0.5139032670058936
            ]
        },
        {
            "positions": [
                -0.402367004006261,
                -0.4803083439625813,
                0.33757670725302513,
                1.2926689612323323,
                0.5917628885442835,
                0.47068943699950716
            ]
        },
        {
            "positions": [
                -0.35460032517566575,
                -0.5072119467553132,
                0.48805805492269516,
                1.35047351695718,
                0.5265068257757364,
                0.4274756069931205
            ]
        },
        {
            "positions": [
                -0.3068336463450707,
                -0.5341155495480451,
                0.6385394025923643,
                1.4082780726820274,
                0.4612507630071896,
                0.3842617769867339
            ]
        },
        {
            "positions": [
                -0.25906696751447567,
                -0.5610191523407769,
                0.7890207502620339,
                1.466082628406875,
                0.3959947002386426,
                0.34104794698034735
            ]
        },
        {
            "positions": [
                -0.21130028868388062,
                -0.5879227551335087,
                0.9395020979317035,
                1.5238871841317225,
                0.3307386374700956,
                0.2978341169739608
            ]
        },
        {
            "positions": [
                -0.16353360985328536,
                -0.6148263579262407,
                1.0899834456013735,
                1.5816917398565702,
                0.26548257470154857,
                0.2546202869675742
            ]
        },
        {
            "positions": [
                -0.11576693102269031,
                -0.6417299607189726,
                1.240464793271043,
                1.6394962955814176,
                0.20022651193300178,
                0.21140645696118765
            ]
        },
        {
            "positions": [
                -0.06800025219209527,
                -0.6686335635117044,
                1.3909461409407127,
                1.697300851306265,
                0.13497044916445478,
                0.16819262695480108
            ]
        },
        {
            "positions": [
                -0.020233573361500223,
                -0.6955371663044363,
                1.5414274886103818,
                1.7551054070311127,
                0.06971438639590777,
                0.12497879694841452
            ]
        },
        {
            "positions": [
                0.027533105469095043,
                -0.7224407690971681,
                1.6919088362800518,
                1.8129099627559604,
                0.004458323627360761,
                0.08176496694202795
            ]
        },
        {
            "positions": [
                0.07529978429969009,
                -0.7493443718899,
                1.8423901839497214,
                1.8707145184808078,
                -0.060797739141186025,
                0.03855113693564127
            ]
        },
        {
            "positions": [
                0.12306646313028524,
                -0.7762479746826318,
                1.992871531619391,
                1.9285190742056553,
                -0.1260538019097331,
                -0.004662693070745214
            ]
        }
    ]
}