{
    "goal": {
        "global_pose": {
            "orientation": {
                "w": 0.7031023502349854,
                "x": -0.7110244035720825,
                "y": 0.007748599164187908,
                "z": 0.005598929710686207
            },
            "position": {
                "x": 0.11585023208521307,
                "y": 0.44412534475326537,
                "z": 0.3711530566215515
            }
        },
        "name": "move_to_auspresseinheit_A"
    },
    "id": "TRRT_move_to_auspresseinheit_A_136",
    "joint_names": [
        "shoulder_pan_joint",
        "shoulder_lift_joint",
        "elbow_joint",
        "wrist_1_joint",
        "wrist_2_joint",
        "wrist_3_joint"
    ],
    "metrics": {
        "cart_traj_len": 0.6885609313051239,
        "distance_elbow_joint": 0.026516963549992667,
        "distance_shoulder_lift_joint": 0.5388298081543508,
        "distance_shoulder_pan_joint": 1.0473066605209493,
        "distance_wrist_1_joint": 0.5513831731838201,
        "distance_wrist_2_joint": 0.5130367345323903,
        "distance_wrist_3_joint": 0.025503429104441366,
        "smoothness": 0.003658717496721623,
        "time": 0.07237068499999999,
        "traj_len": 1.6439515713809651,
        "weighted_distance": 1.953971221633276
    },
    "planner": "TRRT",
    "start": {
        "state": {
            "elbow_joint": 2.422574709923281,
            "shoulder_lift_joint": -1.3736533754116391,
            "shoulder_pan_joint": -0.33786336945926293,
            "wrist_1_joint": -1.0288603412921917,
            "wrist_2_joint": 1.2330224858903978,
            "wrist_3_joint": -3.094022268022082
        }
    },
    "waypoints": [
        {
            "positions": [
                -0.33786336945926293,
                -1.3736533754116391,
                2.422574709923281,
                -1.0288603412921917,
                1.2330224858903978,
                -3.094022268022082
            ]
        },
        {
            "positions": [
                -0.20342473339329897,
                -1.4426684055821468,
                2.418749682775693,
                -0.9561249942774268,
                1.1665378864921592,
                -3.098917814866825
            ]
        },
        {
            "positions": [
                -0.06898609732733502,
                -1.5116834357526545,
                2.4149246556281048,
                -0.8833896472626619,
                1.1000532870939206,
                -3.103813361711567
            ]
        },
        {
            "positions": [
                0.06545253873862894,
                -1.5806984659231622,
                2.4110996284805166,
                -0.810654300247897,
                1.0335686876956822,
                -3.1087089085563098
            ]
        },
        {
            "positions": [
                0.1998911748045929,
                -1.64971349609367,
                2.4072746013329285,
                -0.7379189532331321,
                0.9670840882974436,
                -3.113604455401052
            ]
        },
        {
            "positions": [
                0.33432981087055685,
                -1.7187285262641776,
                2.4034495741853403,
                -0.6651836062183671,
                0.900599488899205,
                -3.1185000022457947
            ]
        },
        {
            "positions": [
                0.45936763760093335,
                -1.7833134120314484,
                2.400985631581323,
                -0.6026147935150353,
                0.8403949097188058,
                -3.1181581039522186
            ]
        },
        {
            "positions": [
                0.5844054643313099,
                -1.847898297798719,
                2.3985216889773056,
                -0.5400459808117035,
                0.7801903305384067,
                -3.117816205658642
            ]
        },
        {
            "positions": [
                0.7094432910616865,
                -1.91248318356599,
                2.3960577463732884,
                -0.4774771681083716,
                0.7199857513580075,
                -3.117474307365066
            ]
        }
    ]
}