{
    "goal": {
        "global_pose": {
            "orientation": {
                "w": 0.7047431468963623,
                "x": -0.7094548344612122,
                "y": 0.0024358443915843964,
                "z": -0.0022348060738295317
            },
            "position": {
                "x": 0.6094750761985779,
                "y": 0.3671506643295288,
                "z": 0.19426114857196808
            }
        },
        "name": "move_to_magneteinheit_A"
    },
    "id": "TRRT_move_to_magneteinheit_A_87",
    "joint_names": [
        "shoulder_pan_joint",
        "shoulder_lift_joint",
        "elbow_joint",
        "wrist_1_joint",
        "wrist_2_joint",
        "wrist_3_joint"
    ],
    "metrics": {
        "cart_traj_len": 1.8664086439810228,
        "distance_elbow_joint": 3.9419597562394264,
        "distance_shoulder_lift_joint": 0.7140925036718141,
        "distance_shoulder_pan_joint": 1.2415463458550637,
        "distance_wrist_1_joint": 1.5994411982246455,
        "distance_wrist_2_joint": 1.6932256664413357,
        "distance_wrist_3_joint": 1.235230502502623,
        "smoothness": 6.344131619521387e-17,
        "time": 0.090096289,
        "traj_len": 3.2288536623598953,
        "weighted_distance": 4.023508896797189
    },
    "planner": "TRRT",
    "start": {
        "state": {
            "elbow_joint": -1.919643507792019,
            "shoulder_lift_joint": -0.07675430207160344,
            "shoulder_pan_joint": -1.1188671864651873,
            "wrist_1_joint": 0.42560062535961957,
            "wrist_2_joint": 1.5706038300724876,
            "wrist_3_joint": 1.1188968870953055
        }
    },
    "waypoints": [
        {
            "positions": [
                -1.1188671864651873,
                -0.07675430207160344,
                -1.919643507792019,
                0.42560062535961957,
                1.5706038300724876,
                1.1188968870953055
            ]
        },
        {
            "positions": [
                -1.0728839884705554,
                -0.10320217257796693,
                -1.77364499830167,
                0.48483918825682865,
                1.5078917683524382,
                1.073147609224838
            ]
        },
        {
            "positions": [
                -1.0269007904759233,
                -0.12965004308433042,
                -1.627646488811321,
                0.5440777511540378,
                1.4451797066323886,
                1.0273983313543704
            ]
        },
        {
            "positions": [
                -0.9809175924812914,
                -0.15609791359069392,
                -1.4816479793209718,
                0.6033163140512469,
                1.3824676449123392,
                0.9816490534839031
            ]
        },
        {
            "positions": [
                -0.9349343944866594,
                -0.1825457840970574,
                -1.3356494698306225,
                0.6625548769484559,
                1.3197555831922898,
                0.9358997756134355
            ]
        },
        {
            "positions": [
                -0.8889511964920274,
                -0.20899365460342087,
                -1.1896509603402734,
                0.721793439845665,
                1.2570435214722404,
                0.890150497742968
            ]
        },
        {
            "positions": [
                -0.8429679984973955,
                -0.23544152510978436,
                -1.0436524508499243,
                0.7810320027428741,
                1.1943314597521908,
                0.8444012198725005
            ]
        },
        {
            "positions": [
                -0.7969848005027634,
                -0.2618893956161479,
                -0.8976539413595752,
                0.8402705656400832,
                1.1316193980321414,
                0.798651942002033
            ]
        },
        {
            "positions": [
                -0.7510016025081314,
                -0.2883372661225113,
                -0.7516554318692261,
                0.8995091285372923,
                1.0689073363120918,
                0.7529026641315655
            ]
        },
        {
            "positions": [
                -0.7050184045134995,
                -0.31478513662887486,
                -0.605656922378877,
                0.9587476914345014,
                1.0061952745920424,
                0.7071533862610979
            ]
        },
        {
            "positions": [
                -0.6590352065188675,
                -0.3412330071352383,
                -0.45965841288852793,
                1.0179862543317104,
                0.943483212871993,
                0.6614041083906304
            ]
        },
        {
            "positions": [
                -0.6130520085242355,
                -0.3676808776416018,
                -0.31365990339817884,
                1.0772248172289196,
                0.8807711511519435,
                0.6156548305201629
            ]
        },
        {
            "positions": [
                -0.5670688105296035,
                -0.3941287481479653,
                -0.16766139390782975,
                1.1364633801261286,
                0.818059089431894,
                0.5699055526496954
            ]
        },
        {
            "positions": [
                -0.5210856125349715,
                -0.42057661865432877,
                -0.021662884417480655,
                1.1957019430233378,
                0.7553470277118446,
                0.5241562747792279
            ]
        },
        {
            "positions": [
                -0.4751024145403395,
                -0.44702448916069226,
                0.12433562507286866,
                1.2549405059205467,
                0.6926349659917951,
                0.47840699690876043
            ]
        },
        {
            "positions": [
                -0.4291192165457075,
                -0.4734723596670558,
                0.27033413456321775,
                1.314179068817756,
                0.6299229042717456,
                0.43265771903829275
            ]
        },
        {
            "positions": [
                -0.3831360185510756,
                -0.49992023017341924,
                0.41633264405356685,
                1.373417631714965,
                0.5672108425516962,
                0.3869084411678253
            ]
        },
        {
            "positions": [
                -0.33715282055644347,
                -0.5263681006797828,
                0.5623311535439159,
                1.4326561946121743,
                0.5044987808316466,
                0.34115916329735774
            ]
        },
        {
            "positions": [
                -0.29116962256181156,
                -0.5528159711861462,
                0.708329663034265,
                1.4918947575093833,
                0.44178671911159717,
                0.2954098854268903
            ]
        },
        {
            "positions": [
                -0.24518642456717954,
                -0.5792638416925098,
                0.8543281725246146,
                1.5511333204065925,
                0.3790746573915478,
                0.24966060755642272
            ]
        },
        {
            "positions": [
                -0.19920322657254763,
                -0.6057117121988731,
                1.0003266820149632,
                1.6103718833038014,
                0.3163625956714984,
                0.20391132968595527
            ]
        },
        {
            "positions": [
                -0.1532200285779155,
                -0.6321595827052366,
                1.1463251915053128,
                1.6696104462010106,
                0.25365053395144876,
                0.1581620518154877
            ]
        },
        {
            "positions": [
                -0.1072368305832836,
                -0.6586074532116002,
                1.2923237009956614,
                1.7288490090982196,
                0.19093847223139937,
                0.11241277394502025
            ]
        },
        {
            "positions": [
                -0.06125363258865146,
                -0.6850553237179637,
                1.438322210486011,
                1.7880875719954288,
                0.12822641051134975,
                0.06666349607455269
            ]
        },
        {
            "positions": [
                -0.015270434594019555,
                -0.7115031942243271,
                1.5843207199763596,
                1.8473261348926378,
                0.06551434879130036,
                0.020914218204085344
            ]
        },
        {
            "positions": [
                0.030712763400612353,
                -0.7379510647306906,
                1.7303192294667091,
                1.906564697789847,
                0.002802287071250964,
                -0.02483505966638222
            ]
        },
        {
            "positions": [
                0.07669596139524426,
                -0.7643989352370542,
                1.8763177389570578,
                1.965803260687056,
                -0.05990977464879843,
                -0.07058433753684978
            ]
        },
        {
            "positions": [
                0.12267915938987642,
                -0.7908468057434176,
                2.022316248447407,
                2.025041823584265,
                -0.12262183636884806,
                -0.11633361540731735
            ]
        }
    ]
}