{
    "goal": {
        "global_pose": {
            "orientation": {
                "w": 0.7031023502349854,
                "x": -0.7110244035720825,
                "y": 0.007748599164187908,
                "z": 0.005598929710686207
            },
            "position": {
                "x": 0.11585023208521307,
                "y": 0.44412534475326537,
                "z": 0.3711530566215515
            }
        },
        "name": "move_to_auspresseinheit_A"
    },
    "id": "TRRT_move_to_auspresseinheit_A_92",
    "joint_names": [
        "shoulder_pan_joint",
        "shoulder_lift_joint",
        "elbow_joint",
        "wrist_1_joint",
        "wrist_2_joint",
        "wrist_3_joint"
    ],
    "metrics": {
        "cart_traj_len": 0.6882277889781747,
        "distance_elbow_joint": 0.026243127083431794,
        "distance_shoulder_lift_joint": 0.5359702513999001,
        "distance_shoulder_pan_joint": 1.0475206243838673,
        "distance_wrist_1_joint": 0.5477167314686502,
        "distance_wrist_2_joint": 0.5138939750330505,
        "distance_wrist_3_joint": 0.030623236890647387,
        "smoothness": 1.9737298371844314e-16,
        "time": 0.016276533,
        "traj_len": 1.6437663904154833,
        "weighted_distance": 1.9557160137766787
    },
    "planner": "TRRT",
    "start": {
        "state": {
            "elbow_joint": 2.422574709923281,
            "shoulder_lift_joint": -1.3736533754116391,
            "shoulder_pan_joint": -0.33786336945926293,
            "wrist_1_joint": -1.0288603412921917,
            "wrist_2_joint": 1.2330224858903978,
            "wrist_3_joint": -3.094022268022082
        }
    },
    "waypoints": [
        {
            "positions": [
                -0.33786336945926293,
                -1.3736533754116391,
                2.422574709923281,
                -1.0288603412921917,
                1.2330224858903978,
                -3.094022268022082
            ]
        },
        {
            "positions": [
                -0.20346510001565632,
                -1.44241906134147,
                2.4192076823128446,
                -0.9585875665695054,
                1.1670892151611827,
                -3.097951269463257
            ]
        },
        {
            "positions": [
                -0.06906683057204971,
                -1.511184747271301,
                2.4158406547024085,
                -0.8883147918468192,
                1.1011559444319676,
                -3.1018802709044317
            ]
        },
        {
            "positions": [
                0.06072051701072598,
                -1.577591227194674,
                2.412589142725315,
                -0.8204529281762729,
                1.0374847055028642,
                -3.1056744765724815
            ]
        },
        {
            "positions": [
                0.19050786459350166,
                -1.643997707118047,
                2.409337630748222,
                -0.7525910645057265,
                0.9738134665737609,
                -3.109468682240531
            ]
        },
        {
            "positions": [
                0.3202952121762774,
                -1.7104041870414202,
                2.406086118771129,
                -0.6847292008351803,
                0.9101422276446575,
                -3.1132628879085806
            ]
        },
        {
            "positions": [
                0.45008255975905304,
                -1.776810666964793,
                2.402834606794036,
                -0.616867337164634,
                0.8464709887155542,
                -3.1170570935766304
            ]
        },
        {
            "positions": [
                0.5798699073418287,
                -1.8432171468881662,
                2.3995830948169425,
                -0.5490054734940877,
                0.7827997497864507,
                -3.1208512992446797
            ]
        },
        {
            "positions": [
                0.7096572549246044,
                -1.9096236268115392,
                2.3963315828398493,
                -0.4811436098235415,
                0.7191285108573473,
                -3.1246455049127295
            ]
        }
    ]
}