{
    "goal": {
        "global_pose": {
            "orientation": {
                "w": 0.7031023502349854,
                "x": -0.7110244035720825,
                "y": 0.007748599164187908,
                "z": 0.005598929710686207
            },
            "position": {
                "x": 0.11585023208521307,
                "y": 0.44412534475326537,
                "z": 0.3711530566215515
            }
        },
        "name": "move_to_auspresseinheit_A"
    },
    "id": "TRRT_move_to_auspresseinheit_A_106",
    "joint_names": [
        "shoulder_pan_joint",
        "shoulder_lift_joint",
        "elbow_joint",
        "wrist_1_joint",
        "wrist_2_joint",
        "wrist_3_joint"
    ],
    "metrics": {
        "cart_traj_len": 7.711258549559606,
        "distance_elbow_joint": 10.35461917344192,
        "distance_shoulder_lift_joint": 1.1815545605640148,
        "distance_shoulder_pan_joint": 2.7415823282365817,
        "distance_wrist_1_joint": 1.7619180590500099,
        "distance_wrist_2_joint": 3.1348991621996563,
        "distance_wrist_3_joint": 3.217131259103641,
        "smoothness": 0.7995294074647863,
        "time": 0.07786654500000001,
        "traj_len": 4.7319873776877115,
        "weighted_distance": 5.8071321908539995
    },
    "planner": "TRRT",
    "start": {
        "state": {
            "elbow_joint": 2.422574709923281,
            "shoulder_lift_joint": -1.3736533754116391,
            "shoulder_pan_joint": -0.33786336945926293,
            "wrist_1_joint": -1.0288603412921917,
            "wrist_2_joint": 1.2330224858903978,
            "wrist_3_joint": -3.094022268022082
        }
    },
    "waypoints": [
        {
            "positions": [
                -0.33786336945926293,
                -1.3736533754116391,
                2.422574709923281,
                -1.0288603412921917,
                1.2330224858903978,
                -3.094022268022082
            ]
        },
        {
            "positions": [
                -0.2833269472487398,
                -1.3979729552726337,
                2.2552606139946545,
                -0.9948433776954292,
                1.1773110001810272,
                -3.042627665655563
            ]
        },
        {
            "positions": [
                -0.22879052503821667,
                -1.4222925351336282,
                2.087946518066028,
                -0.9608264140986666,
                1.1215995144716568,
                -2.991233063289044
            ]
        },
        {
            "positions": [
                -0.17425410282769352,
                -1.446612114994623,
                1.920632422137401,
                -0.926809450501904,
                1.0658880287622863,
                -2.939838460922525
            ]
        },
        {
            "positions": [
                -0.11971768061717039,
                -1.4709316948556175,
                1.7533183262087744,
                -0.8927924869051415,
                1.010176543052916,
                -2.888443858556006
            ]
        },
        {
            "positions": [
                -0.06518125840664724,
                -1.495251274716612,
                1.5860042302801476,
                -0.8587755233083789,
                0.9544650573435454,
                -2.837049256189487
            ]
        },
        {
            "positions": [
                -0.010644836196124108,
                -1.5195708545776068,
                1.418690134351521,
                -0.8247585597116164,
                0.8987535716341748,
                -2.785654653822968
            ]
        },
        {
            "positions": [
                0.04389158601439902,
                -1.5438904344386013,
                1.2513760384228942,
                -0.7907415961148538,
                0.8430420859248045,
                -2.734260051456449
            ]
        },
        {
            "positions": [
                0.09842800822492215,
                -1.5682100142995958,
                1.0840619424942677,
                -0.7567246325180912,
                0.7873306002154339,
                -2.6828654490899293
            ]
        },
        {
            "positions": [
                0.15296443043544533,
                -1.5925295941605904,
                0.9167478465656407,
                -0.7227076689213286,
                0.7316191145060634,
                -2.6314708467234103
            ]
        },
        {
            "positions": [
                0.20750085264596846,
                -1.616849174021585,
                0.7494337506370141,
                -0.6886907053245661,
                0.675907628796693,
                -2.580076244356891
            ]
        },
        {
            "positions": [
                0.2620372748564916,
                -1.6411687538825797,
                0.5821196547083873,
                -0.6546737417278035,
                0.6201961430873224,
                -2.528681641990372
            ]
        },
        {
            "positions": [
                0.3165736970670147,
                -1.6654883337435742,
                0.414805558779761,
                -0.620656778131041,
                0.564484657377952,
                -2.477287039623853
            ]
        },
        {
            "positions": [
                0.37111011927753784,
                -1.689807913604569,
                0.247491462851134,
                -0.5866398145342784,
                0.5087731716685815,
                -2.425892437257334
            ]
        },
        {
            "positions": [
                0.42564654148806097,
                -1.7141274934655635,
                0.08017736692250743,
                -0.5526228509375158,
                0.45306168595921104,
                -2.374497834890815
            ]
        },
        {
            "positions": [
                0.4801829636985841,
                -1.738447073326558,
                -0.08713672900611957,
                -0.5186058873407532,
                0.39735020024984047,
                -2.323103232524296
            ]
        },
        {
            "positions": [
                0.5347193859091073,
                -1.7627666531875525,
                -0.2544508249347457,
                -0.48458892374399076,
                0.3416387145404701,
                -2.271708630157777
            ]
        },
        {
            "positions": [
                0.5892558081196302,
                -1.787086233048547,
                -0.42176492086337225,
                -0.4505719601472282,
                0.28592722883109967,
                -2.220314027791258
            ]
        },
        {
            "positions": [
                0.6437922303301535,
                -1.8114058129095418,
                -0.5890790167919997,
                -0.4165549965504656,
                0.2302157431217291,
                -2.168919425424739
            ]
        },
        {
            "positions": [
                0.6983286525406767,
                -1.8357253927705364,
                -0.7563931127206263,
                -0.38253803295370303,
                0.17450425741235853,
                -2.1175248230582198
            ]
        },
        {
            "positions": [
                0.7528650747511998,
                -1.860044972631531,
                -0.9237072086492528,
                -0.3485210693569405,
                0.11879277170298819,
                -2.0661302206917007
            ]
        },
        {
            "positions": [
                0.8074014969617227,
                -1.8843645524925257,
                -1.0910213045778794,
                -0.31450410576017795,
                0.06308128599361762,
                -2.0147356183251817
            ]
        },
        {
            "positions": [
                0.861937919172246,
                -1.9086841323535202,
                -1.2583354005065064,
                -0.2804871421634153,
                0.007369800284247052,
                -1.9633410159586624
            ]
        },
        {
            "positions": [
                0.9164743413827692,
                -1.9330037122145147,
                -1.425649496435133,
                -0.24647017856665276,
                -0.04834168542512329,
                -1.9119464135921433
            ]
        },
        {
            "positions": [
                0.9710107635932923,
                -1.9573232920755093,
                -1.592963592363759,
                -0.21245321496989023,
                -0.10405317113449386,
                -1.8605518112256243
            ]
        },
        {
            "positions": [
                1.0255471858038152,
                -1.9816428719365038,
                -1.760277688292386,
                -0.17843625137312769,
                -0.1597646568438642,
                -1.8091572088591052
            ]
        },
        {
            "positions": [
                1.0800836080143386,
                -2.0059624517974983,
                -1.927591784221013,
                -0.14441928777636504,
                -0.21547614255323477,
                -1.757762606492586
            ]
        },
        {
            "positions": [
                1.1346200302248617,
                -2.0302820316584933,
                -2.094905880149639,
                -0.1104023241796025,
                -0.27118762826260534,
                -1.706368004126067
            ]
        },
        {
            "positions": [
                1.1891564524353848,
                -2.0546016115194874,
                -2.262219976078266,
                -0.07638536058283996,
                -0.3268991139719757,
                -1.654973401759548
            ]
        },
        {
            "positions": [
                1.243692874645908,
                -2.0789211913804824,
                -2.4295340720068923,
                -0.04236839698607742,
                -0.38261059968134603,
                -1.603578799393029
            ]
        },
        {
            "positions": [
                1.298229296856431,
                -2.103240771241477,
                -2.59684816793552,
                -0.008351433389314655,
                -0.4383220853907168,
                -1.5521841970265098
            ]
        },
        {
            "positions": [
                1.3527657190669542,
                -2.1275603511024714,
                -2.7641622638641468,
                0.025665530207447773,
                -0.49403357110008717,
                -1.5007895946599907
            ]
        },
        {
            "positions": [
                1.3188717933586045,
                -2.1146707417335775,
                -2.5575805231716426,
                0.0014202157807759776,
                -0.4415638915824574,
                -1.5656214331841185
            ]
        },
        {
            "positions": [
                1.2849778676502548,
                -2.101781132364683,
                -2.3509987824791385,
                -0.022825098645895818,
                -0.38909421206482764,
                -1.6304532717082463
            ]
        },
        {
            "positions": [
                1.251083941941905,
                -2.088891522995789,
                -2.1444170417866344,
                -0.04707041307256761,
                -0.33662453254719793,
                -1.695285110232374
            ]
        },
        {
            "positions": [
                1.2171900162335552,
                -2.076001913626895,
                -1.9378353010941303,
                -0.07131572749923941,
                -0.28415485302956817,
                -1.7601169487565018
            ]
        },
        {
            "positions": [
                1.1832960905252055,
                -2.063112304258001,
                -1.731253560401626,
                -0.0955610419259112,
                -0.2316851735119384,
                -1.8249487872806296
            ]
        },
        {
            "positions": [
                1.1494021648168558,
                -2.050222694889107,
                -1.524671819709122,
                -0.119806356352583,
                -0.1792154939943087,
                -1.8897806258047574
            ]
        },
        {
            "positions": [
                1.115508239108506,
                -2.0373330855202125,
                -1.3180900790166177,
                -0.1440516707792548,
                -0.12674581447667888,
                -1.9546124643288851
            ]
        },
        {
            "positions": [
                1.0816143134001563,
                -2.0244434761513186,
                -1.1115083383241136,
                -0.1682969852059266,
                -0.07427613495904917,
                -2.019444302853013
            ]
        },
        {
            "positions": [
                1.0477203876918066,
                -2.0115538667824246,
                -0.9049265976316097,
                -0.19254229963259836,
                -0.02180645544141946,
                -2.0842761413771402
            ]
        },
        {
            "positions": [
                1.0138264619834567,
                -1.9986642574135303,
                -0.6983448569391051,
                -0.21678761405927016,
                0.03066322407621036,
                -2.1491079799012685
            ]
        },
        {
            "positions": [
                0.9799325362751071,
                -1.9857746480446363,
                -0.4917631162466014,
                -0.24103292848594193,
                0.08313290359384007,
                -2.2139398184253958
            ]
        },
        {
            "positions": [
                0.9460386105667574,
                -1.9728850386757422,
                -0.2851813755540973,
                -0.26527824291261376,
                0.13560258311146978,
                -2.278771656949524
            ]
        },
        {
            "positions": [
                0.9121446848584076,
                -1.959995429306848,
                -0.07859963486159272,
                -0.28952355733928553,
                0.1880722626290996,
                -2.3436034954736513
            ]
        },
        {
            "positions": [
                0.8782507591500579,
                -1.9471058199379538,
                0.1279821058309114,
                -0.31376887176595736,
                0.24054194214672941,
                -2.4084353339977795
            ]
        },
        {
            "positions": [
                0.8443568334417082,
                -1.93421621056906,
                0.3345638465234151,
                -0.33801418619262913,
                0.293011621664359,
                -2.473267172521907
            ]
        },
        {
            "positions": [
                0.8104629077333584,
                -1.9213266012001657,
                0.5411455872159197,
                -0.36225950061930096,
                0.34548130118198883,
                -2.538099011046035
            ]
        },
        {
            "positions": [
                0.7765689820250087,
                -1.9084369918312716,
                0.7477273279084238,
                -0.3865048150459727,
                0.39795098069961865,
                -2.6029308495701624
            ]
        },
        {
            "positions": [
                0.742675056316659,
                -1.8955473824623774,
                0.9543090686009275,
                -0.4107501294726445,
                0.45042066021724825,
                -2.66776268809429
            ]
        },
        {
            "positions": [
                0.7087811306083093,
                -1.8826577730934835,
                1.160890809293432,
                -0.4349954438993163,
                0.5028903397348781,
                -2.732594526618418
            ]
        },
        {
            "positions": [
                0.6748872048999595,
                -1.8697681637245893,
                1.3674725499859366,
                -0.4592407583259881,
                0.5553600192525079,
                -2.797426365142546
            ]
        },
        {
            "positions": [
                0.6409932791916098,
                -1.8568785543556952,
                1.5740542906784403,
                -0.48348607275265987,
                0.6078296987701375,
                -2.8622582036666735
            ]
        },
        {
            "positions": [
                0.60709935348326,
                -1.843988944986801,
                1.780636031370944,
                -0.5077313871793316,
                0.6602993782877673,
                -2.9270900421908013
            ]
        },
        {
            "positions": [
                0.5732054277749102,
                -1.8310993356179068,
                1.9872177720634485,
                -0.5319767016060035,
                0.7127690578053971,
                -2.991921880714929
            ]
        },
        {
            "positions": [
                0.5393115020665606,
                -1.818209726249013,
                2.193799512755952,
                -0.5562220160326753,
                0.7652387373230267,
                -3.056753719239057
            ]
        },
        {
            "positions": [
                0.5054175763582108,
                -1.8053201168801187,
                2.4003812534484563,
                -0.5804673304593471,
                0.8177084168406565,
                -3.1215855577631846
            ]
        },
        {
            "positions": [
                0.6072201248590205,
                -1.8580237922055336,
                2.3987119122775122,
                -0.5298376670175603,
                0.7696578582064427,
                -3.120034246444007
            ]
        },
        {
            "positions": [
                0.7090226733598304,
                -1.9107274675309485,
                2.397042571106568,
                -0.4792080035757736,
                0.7216072995722289,
                -3.118482935124829
            ]
        }
    ]
}