{
    "goal": {
        "global_pose": {
            "orientation": {
                "w": 0.5084816217422485,
                "x": -0.49083608388900757,
                "y": 0.5182115435600281,
                "z": -0.4816462993621826
            },
            "position": {
                "x": 0.5540239810943604,
                "y": 0.030875300988554955,
                "z": 0.16403168439865112
            }
        },
        "name": "move_to_storage_A"
    },
    "id": "TRRT_move_to_storage_A_23",
    "joint_names": [
        "shoulder_pan_joint",
        "shoulder_lift_joint",
        "elbow_joint",
        "wrist_1_joint",
        "wrist_2_joint",
        "wrist_3_joint"
    ],
    "metrics": {
        "cart_traj_len": 0.3535993024477944,
        "distance_elbow_joint": 0.4477460684686623,
        "distance_shoulder_lift_joint": 0.23534151026392336,
        "distance_shoulder_pan_joint": 0.4606581112291752,
        "distance_wrist_1_joint": 0.2348114187682474,
        "distance_wrist_2_joint": 1.1071963828413298,
        "distance_wrist_3_joint": 0.10349468633079573,
        "smoothness": 2.2204460668324854e-16,
        "time": 0.017181850999999998,
        "traj_len": 1.6091140972293214,
        "weighted_distance": 2.034267768061349
    },
    "planner": "TRRT",
    "start": {
        "state": {
            "elbow_joint": 1.9715463870305268,
            "shoulder_lift_joint": -1.1394903361783484,
            "shoulder_pan_joint": 0.12281147578464417,
            "wrist_1_joint": -0.7804599489681411,
            "wrist_2_joint": 0.12958660307563738,
            "wrist_3_joint": -3.1924946282119055
        }
    },
    "waypoints": [
        {
            "positions": [
                0.12281147578464417,
                -1.1394903361783484,
                1.9715463870305268,
                -0.7804599489681411,
                0.12958660307563738,
                -3.1924946282119055
            ]
        },
        {
            "positions": [
                0.05700317418047629,
                -1.1731105519303375,
                2.0355101110974787,
                -0.814004437363605,
                0.28775751491011303,
                -3.1777096730217917
            ]
        },
        {
            "positions": [
                -0.008805127423691592,
                -1.2067307676823265,
                2.09947383516443,
                -0.8475489257590689,
                0.44592842674458877,
                -3.1629247178316784
            ]
        },
        {
            "positions": [
                -0.07461342902785949,
                -1.2403509834343156,
                2.163437559231382,
                -0.8810934141545328,
                0.6040993385790644,
                -3.1481397626415646
            ]
        },
        {
            "positions": [
                -0.14042173063202734,
                -1.2739711991863045,
                2.2274012832983336,
                -0.9146379025499968,
                0.7622702504135401,
                -3.133354807451451
            ]
        },
        {
            "positions": [
                -0.20623003223619524,
                -1.3075914149382937,
                2.2913650073652856,
                -0.9481823909454606,
                0.9204411622480159,
                -3.118569852261337
            ]
        },
        {
            "positions": [
                -0.27203833384036313,
                -1.3412116306902826,
                2.355328731432237,
                -0.9817268793409246,
                1.0786120740824914,
                -3.1037848970712236
            ]
        },
        {
            "positions": [
                -0.33784663544453103,
                -1.3748318464422717,
                2.419292455499189,
                -1.0152713677363885,
                1.2367829859169672,
                -3.08899994188111
            ]
        }
    ]
}