{
    "goal": {
        "global_pose": {
            "orientation": {
                "w": 0.5084816217422485,
                "x": -0.49083608388900757,
                "y": 0.5182115435600281,
                "z": -0.4816462993621826
            },
            "position": {
                "x": 0.5540239810943604,
                "y": 0.030875300988554955,
                "z": 0.16403168439865112
            }
        },
        "name": "move_to_storage_A"
    },
    "id": "TRRT_move_to_storage_A_120",
    "joint_names": [
        "shoulder_pan_joint",
        "shoulder_lift_joint",
        "elbow_joint",
        "wrist_1_joint",
        "wrist_2_joint",
        "wrist_3_joint"
    ],
    "metrics": {
        "cart_traj_len": 0.3530104544172317,
        "distance_elbow_joint": 0.4512676911455613,
        "distance_shoulder_lift_joint": 0.23582288022656672,
        "distance_shoulder_pan_joint": 0.46045346787171565,
        "distance_wrist_1_joint": 0.24138908200218034,
        "distance_wrist_2_joint": 1.104988682081096,
        "distance_wrist_3_joint": 0.08886915497633519,
        "smoothness": 4.440892098500626e-16,
        "time": 0.024870495,
        "traj_len": 1.6071063929632834,
        "weighted_distance": 2.0265505254839815
    },
    "planner": "TRRT",
    "start": {
        "state": {
            "elbow_joint": 1.9715463870305268,
            "shoulder_lift_joint": -1.1394903361783484,
            "shoulder_pan_joint": 0.12281147578464417,
            "wrist_1_joint": -0.7804599489681411,
            "wrist_2_joint": 0.12958660307563738,
            "wrist_3_joint": -3.1924946282119055
        }
    },
    "waypoints": [
        {
            "positions": [
                0.12281147578464417,
                -1.1394903361783484,
                1.9715463870305268,
                -0.7804599489681411,
                0.12958660307563738,
                -3.1924946282119055
            ]
        },
        {
            "positions": [
                0.05703240894582766,
                -1.1731793190678579,
                2.0360132000513214,
                -0.8149441035398811,
                0.2874421290872225,
                -3.1797990346438576
            ]
        },
        {
            "positions": [
                -0.008746657892988854,
                -1.2068683019573674,
                2.1004800130721155,
                -0.8494282581116211,
                0.4452976550988076,
                -3.1671034410758097
            ]
        },
        {
            "positions": [
                -0.07452572473180537,
                -1.2405572848468769,
                2.16494682609291,
                -0.8839124126833612,
                0.6031531811103927,
                -3.1544078475077617
            ]
        },
        {
            "positions": [
                -0.14030479157062187,
                -1.2742462677363866,
                2.2294136391137047,
                -0.9183965672551013,
                0.7610087071219779,
                -3.141712253939714
            ]
        },
        {
            "positions": [
                -0.20608385840943844,
                -1.307935250625896,
                2.2938804521344993,
                -0.9528807218268414,
                0.918864233133563,
                -3.1290166603716663
            ]
        },
        {
            "positions": [
                -0.2718629252482549,
                -1.3416242335154056,
                2.3583472651552935,
                -0.9873648763985814,
                1.076719759145148,
                -3.1163210668036183
            ]
        },
        {
            "positions": [
                -0.33764199208707146,
                -1.375313216404915,
                2.422814078176088,
                -1.0218490309703214,
                1.2345752851567333,
                -3.1036254732355704
            ]
        }
    ]
}