{
    "goal": {
        "global_pose": {
            "orientation": {
                "w": 0.7047431468963623,
                "x": -0.7094548344612122,
                "y": 0.0024358443915843964,
                "z": -0.0022348060738295317
            },
            "position": {
                "x": 0.6094750761985779,
                "y": 0.3671506643295288,
                "z": 0.19426114857196808
            }
        },
        "name": "move_to_magneteinheit_A"
    },
    "id": "TRRT_move_to_magneteinheit_A_63",
    "joint_names": [
        "shoulder_pan_joint",
        "shoulder_lift_joint",
        "elbow_joint",
        "wrist_1_joint",
        "wrist_2_joint",
        "wrist_3_joint"
    ],
    "metrics": {
        "cart_traj_len": 2.0626123939241037,
        "distance_elbow_joint": 3.8749463773546773,
        "distance_shoulder_lift_joint": 1.053657658804373,
        "distance_shoulder_pan_joint": 1.2404944657128048,
        "distance_wrist_1_joint": 1.1292716790822659,
        "distance_wrist_2_joint": 1.446264531252991,
        "distance_wrist_3_joint": 1.900835453851442,
        "smoothness": 3.1720657918664137e-16,
        "time": 1.503823729,
        "traj_len": 3.2627396718185397,
        "weighted_distance": 4.125854733760836
    },
    "planner": "TRRT",
    "start": {
        "state": {
            "elbow_joint": -1.919643507792019,
            "shoulder_lift_joint": -0.07675430207160344,
            "shoulder_pan_joint": -1.1188671864651873,
            "wrist_1_joint": 0.42560062535961957,
            "wrist_2_joint": 1.5706038300724876,
            "wrist_3_joint": 1.1188968870953055
        }
    },
    "waypoints": [
        {
            "positions": [
                -1.1188671864651873,
                -0.07675430207160344,
                -1.919643507792019,
                0.42560062535961957,
                1.5706038300724876,
                1.1188968870953055
            ]
        },
        {
            "positions": [
                -1.0729229469943427,
                -0.11577865980509873,
                -1.7761269752974014,
                0.3837757483565727,
                1.5170384770631176,
                1.1892982002009145
            ]
        },
        {
            "positions": [
                -1.0269787075234982,
                -0.15480301753859402,
                -1.6326104428027837,
                0.3419508713535258,
                1.4634731240537475,
                1.2596995133065234
            ]
        },
        {
            "positions": [
                -0.9810344680526535,
                -0.19382737527208932,
                -1.4890939103081662,
                0.30012599435047893,
                1.4099077710443775,
                1.3301008264121323
            ]
        },
        {
            "positions": [
                -0.9350902285818089,
                -0.2328517330055846,
                -1.3455773778135485,
                0.258301117347432,
                1.3563424180350074,
                1.4005021395177413
            ]
        },
        {
            "positions": [
                -0.8891459891109643,
                -0.2718760907390799,
                -1.2020608453189308,
                0.21647624034438515,
                1.3027770650256374,
                1.4709034526233504
            ]
        },
        {
            "positions": [
                -0.8432017496401196,
                -0.3109004484725752,
                -1.058544312824313,
                0.1746513633413383,
                1.2492117120162674,
                1.5413047657289594
            ]
        },
        {
            "positions": [
                -0.797257510169275,
                -0.34992480620607047,
                -0.9150277803296953,
                0.13282648633829142,
                1.1956463590068973,
                1.6117060788345683
            ]
        },
        {
            "positions": [
                -0.7513132706984305,
                -0.38894916393956575,
                -0.7715112478350776,
                0.09100160933524448,
                1.1420810059975275,
                1.6821073919401772
            ]
        },
        {
            "positions": [
                -0.7053690312275858,
                -0.4279735216730611,
                -0.6279947153404601,
                0.049176732332197604,
                1.0885156529881574,
                1.7525087050457862
            ]
        },
        {
            "positions": [
                -0.6594247917567412,
                -0.46699787940655635,
                -0.48447818284584243,
                0.007351855329150725,
                1.0349502999787874,
                1.8229100181513953
            ]
        },
        {
            "positions": [
                -0.6134805522858966,
                -0.5060222371400516,
                -0.3409616503512247,
                -0.034473021673896154,
                0.9813849469694172,
                1.8933113312570042
            ]
        },
        {
            "positions": [
                -0.5675363128150519,
                -0.545046594873547,
                -0.197445117856607,
                -0.07629789867694298,
                0.9278195939600472,
                1.9637126443626132
            ]
        },
        {
            "positions": [
                -0.5215920733442073,
                -0.5840709526070422,
                -0.0539285853619893,
                -0.11812277567998991,
                0.8742542409506772,
                2.034113957468222
            ]
        },
        {
            "positions": [
                -0.47564783387336274,
                -0.6230953103405374,
                0.08958794713262841,
                -0.15994765268303673,
                0.8206888879413071,
                2.104515270573831
            ]
        },
        {
            "positions": [
                -0.42970359440251804,
                -0.6621196680740329,
                0.23310447962724612,
                -0.20177252968608378,
                0.7671235349319371,
                2.17491658367944
            ]
        },
        {
            "positions": [
                -0.38375935493167346,
                -0.7011440258075281,
                0.37662101212186383,
                -0.2435974066891306,
                0.7135581819225671,
                2.245317896785049
            ]
        },
        {
            "positions": [
                -0.33781511546082876,
                -0.7401683835410235,
                0.5201375446164815,
                -0.28542228369217754,
                0.659992828913197,
                2.3157192098906583
            ]
        },
        {
            "positions": [
                -0.2918708759899842,
                -0.7791927412745188,
                0.6636540771110988,
                -0.32724716069522436,
                0.6064274759038271,
                2.3861205229962668
            ]
        },
        {
            "positions": [
                -0.24592663651913949,
                -0.818217099008014,
                0.807170609605717,
                -0.3690720376982713,
                0.552862122894457,
                2.456521836101876
            ]
        },
        {
            "positions": [
                -0.199982397048295,
                -0.8572414567415092,
                0.9506871421003342,
                -0.4108969147013181,
                0.499296769885087,
                2.5269231492074846
            ]
        },
        {
            "positions": [
                -0.15403815757745032,
                -0.8962658144750046,
                1.0942036745949524,
                -0.45272179170436505,
                0.44573141687571693,
                2.597324462313094
            ]
        },
        {
            "positions": [
                -0.10809391810660585,
                -0.9352901722084999,
                1.2377202070895696,
                -0.4945466687074119,
                0.3921660638663469,
                2.6677257754187025
            ]
        },
        {
            "positions": [
                -0.06214967863576115,
                -0.9743145299419951,
                1.3812367395841874,
                -0.5363715457104588,
                0.33860071085697685,
                2.738127088524312
            ]
        },
        {
            "positions": [
                -0.016205439164916458,
                -1.0133388876754905,
                1.524753272078805,
                -0.5781964227135055,
                0.2850353578476068,
                2.8085284016299203
            ]
        },
        {
            "positions": [
                0.029738800305928237,
                -1.0523632454089857,
                1.6682698045734228,
                -0.6200212997165524,
                0.23147000483823676,
                2.8789297147355297
            ]
        },
        {
            "positions": [
                0.07568303977677271,
                -1.091387603142481,
                1.8117863370680405,
                -0.6618461767195993,
                0.17790465182886672,
                2.949331027841138
            ]
        },
        {
            "positions": [
                0.12162727924761736,
                -1.1304119608759764,
                1.9553028695626582,
                -0.7036710537226463,
                0.12433929881949668,
                3.0197323409467476
            ]
        }
    ]
}