{
    "goal": {
        "global_pose": {
            "orientation": {
                "w": 0.7031023502349854,
                "x": -0.7110244035720825,
                "y": 0.007748599164187908,
                "z": 0.005598929710686207
            },
            "position": {
                "x": 0.11585023208521307,
                "y": 0.44412534475326537,
                "z": 0.3711530566215515
            }
        },
        "name": "move_to_auspresseinheit_A"
    },
    "id": "TRRT_move_to_auspresseinheit_A_35",
    "joint_names": [
        "shoulder_pan_joint",
        "shoulder_lift_joint",
        "elbow_joint",
        "wrist_1_joint",
        "wrist_2_joint",
        "wrist_3_joint"
    ],
    "metrics": {
        "cart_traj_len": 0.6869366757470394,
        "distance_elbow_joint": 0.02564916000149653,
        "distance_shoulder_lift_joint": 0.5372540048689238,
        "distance_shoulder_pan_joint": 1.0425202787437688,
        "distance_wrist_1_joint": 0.5530451887854675,
        "distance_wrist_2_joint": 0.5227949059319652,
        "distance_wrist_3_joint": 0.027819251081181662,
        "smoothness": 1.9737298371844314e-16,
        "time": 0.013219295,
        "traj_len": 1.6459291568633214,
        "weighted_distance": 1.959735029613085
    },
    "planner": "TRRT",
    "start": {
        "state": {
            "elbow_joint": 2.422574709923281,
            "shoulder_lift_joint": -1.3736533754116391,
            "shoulder_pan_joint": -0.33786336945926293,
            "wrist_1_joint": -1.0288603412921917,
            "wrist_2_joint": 1.2330224858903978,
            "wrist_3_joint": -3.094022268022082
        }
    },
    "waypoints": [
        {
            "positions": [
                -0.33786336945926293,
                -1.3736533754116391,
                2.422574709923281,
                -1.0288603412921917,
                1.2330224858903978,
                -3.094022268022082
            ]
        },
        {
            "positions": [
                -0.2044579351511262,
                -1.4424027372367056,
                2.4192925317254987,
                -0.9580902708137025,
                1.1661233733244762,
                -3.097582140523636
            ]
        },
        {
            "positions": [
                -0.07105250084298947,
                -1.5111520990617722,
                2.416010353527717,
                -0.8873202003352133,
                1.0992242607585547,
                -3.1011420130251897
            ]
        },
        {
            "positions": [
                0.06235293346514725,
                -1.5799014608868387,
                2.412728175329935,
                -0.8165501298567241,
                1.0323251481926332,
                -3.1047018855267434
            ]
        },
        {
            "positions": [
                0.19575836777328398,
                -1.6486508227119052,
                2.4094459971321527,
                -0.7457800593782349,
                0.9654260356267116,
                -3.108261758028297
            ]
        },
        {
            "positions": [
                0.3229830031510895,
                -1.7142149621040697,
                2.4063158853295605,
                -0.6782888326603572,
                0.9016264217096418,
                -3.111656698297039
            ]
        },
        {
            "positions": [
                0.45020763852889506,
                -1.779779101496234,
                2.4031857735269684,
                -0.6107976059424796,
                0.8378268077925721,
                -3.1150516385657805
            ]
        },
        {
            "positions": [
                0.5774322739067006,
                -1.8453432408883985,
                2.4000556617243767,
                -0.5433063792246019,
                0.7740271938755023,
                -3.118446578834522
            ]
        },
        {
            "positions": [
                0.7046569092845061,
                -1.910907380280563,
                2.3969255499217845,
                -0.47581515250672424,
                0.7102275799584326,
                -3.121841519103264
            ]
        }
    ]
}