{
    "goal": {
        "global_pose": {
            "orientation": {
                "w": 0.5084816217422485,
                "x": -0.49083608388900757,
                "y": 0.5182115435600281,
                "z": -0.4816462993621826
            },
            "position": {
                "x": 0.5540239810943604,
                "y": 0.030875300988554955,
                "z": 0.16403168439865112
            }
        },
        "name": "move_to_storage_A"
    },
    "id": "TRRT_move_to_storage_A_35",
    "joint_names": [
        "shoulder_pan_joint",
        "shoulder_lift_joint",
        "elbow_joint",
        "wrist_1_joint",
        "wrist_2_joint",
        "wrist_3_joint"
    ],
    "metrics": {
        "cart_traj_len": 0.3528764839752503,
        "distance_elbow_joint": 0.4496523712957763,
        "distance_shoulder_lift_joint": 0.23479301936589514,
        "distance_shoulder_pan_joint": 0.46331726514813204,
        "distance_wrist_1_joint": 0.23688144676925027,
        "distance_wrist_2_joint": 1.0908682823318236,
        "distance_wrist_3_joint": 0.0894334855147223,
        "smoothness": 0.0,
        "time": 0.023573764,
        "traj_len": 1.6015448387184168,
        "weighted_distance": 2.017811331754314
    },
    "planner": "TRRT",
    "start": {
        "state": {
            "elbow_joint": 1.9715463870305268,
            "shoulder_lift_joint": -1.1394903361783484,
            "shoulder_pan_joint": 0.12281147578464417,
            "wrist_1_joint": -0.7804599489681411,
            "wrist_2_joint": 0.12958660307563738,
            "wrist_3_joint": -3.1924946282119055
        }
    },
    "waypoints": [
        {
            "positions": [
                0.12281147578464417,
                -1.1394903361783484,
                1.9715463870305268,
                -0.7804599489681411,
                0.12958660307563738,
                -3.1924946282119055
            ]
        },
        {
            "positions": [
                0.05662329504919675,
                -1.1730321960877619,
                2.0357824400727806,
                -0.8143001556494626,
                0.28542492912304074,
                -3.1797184159955165
            ]
        },
        {
            "positions": [
                -0.009564885686250676,
                -1.2065740559971756,
                2.100018493115034,
                -0.848140362330784,
                0.44126325517044407,
                -3.166942203779128
            ]
        },
        {
            "positions": [
                -0.07575306642169811,
                -1.240115915906589,
                2.164254546157288,
                -0.8819805690121054,
                0.5971015812178475,
                -3.154165991562739
            ]
        },
        {
            "positions": [
                -0.1419412471571455,
                -1.2736577758160028,
                2.228490599199542,
                -0.9158207756934269,
                0.7529399072652508,
                -3.14138977934635
            ]
        },
        {
            "positions": [
                -0.20812942789259298,
                -1.3071996357254163,
                2.2927266522417957,
                -0.9496609823747484,
                0.9087782333126543,
                -3.128613567129961
            ]
        },
        {
            "positions": [
                -0.2743176086280404,
                -1.34074149563483,
                2.356962705284049,
                -0.9835011890560699,
                1.0646165593600576,
                -3.1158373549135723
            ]
        },
        {
            "positions": [
                -0.34050578936348785,
                -1.3742833555442435,
                2.421198758326303,
                -1.0173413957373914,
                1.220454885407461,
                -3.1030611426971833
            ]
        }
    ]
}