{
    "goal": {
        "global_pose": {
            "orientation": {
                "w": 0.5084816217422485,
                "x": -0.49083608388900757,
                "y": 0.5182115435600281,
                "z": -0.4816462993621826
            },
            "position": {
                "x": 0.5540239810943604,
                "y": 0.030875300988554955,
                "z": 0.16403168439865112
            }
        },
        "name": "move_to_storage_A"
    },
    "id": "TRRT_move_to_storage_A_115",
    "joint_names": [
        "shoulder_pan_joint",
        "shoulder_lift_joint",
        "elbow_joint",
        "wrist_1_joint",
        "wrist_2_joint",
        "wrist_3_joint"
    ],
    "metrics": {
        "cart_traj_len": 0.3532541610369495,
        "distance_elbow_joint": 0.4487055294337394,
        "distance_shoulder_lift_joint": 0.23554186055826398,
        "distance_shoulder_pan_joint": 0.4622219129430759,
        "distance_wrist_1_joint": 0.23917390246104475,
        "distance_wrist_2_joint": 1.097975591110318,
        "distance_wrist_3_joint": 0.09763424145464672,
        "smoothness": 8.881784213138256e-16,
        "time": 0.027095278,
        "traj_len": 1.60662784675266,
        "weighted_distance": 2.0282186801333197
    },
    "planner": "TRRT",
    "start": {
        "state": {
            "elbow_joint": 1.9715463870305268,
            "shoulder_lift_joint": -1.1394903361783484,
            "shoulder_pan_joint": 0.12281147578464417,
            "wrist_1_joint": -0.7804599489681411,
            "wrist_2_joint": 0.12958660307563738,
            "wrist_3_joint": -3.1924946282119055
        }
    },
    "waypoints": [
        {
            "positions": [
                0.12281147578464417,
                -1.1394903361783484,
                1.9715463870305268,
                -0.7804599489681411,
                0.12958660307563738,
                -3.1924946282119055
            ]
        },
        {
            "positions": [
                0.056779773935633326,
                -1.1731391734009575,
                2.0356471769496323,
                -0.8146276493197189,
                0.28644025894853997,
                -3.17854687943267
            ]
        },
        {
            "positions": [
                -0.00925192791337752,
                -1.2067880106235667,
                2.099747966868738,
                -0.8487953496712968,
                0.44329391482144254,
                -3.164599130653435
            ]
        },
        {
            "positions": [
                -0.07528362976238835,
                -1.2404368478461758,
                2.1638487567878437,
                -0.8829630500228746,
                0.6001475706943451,
                -3.1506513818741997
            ]
        },
        {
            "positions": [
                -0.1413153316113992,
                -1.274085685068785,
                2.2279495467069492,
                -0.9171307503744524,
                0.7570012265672477,
                -3.1367036330949647
            ]
        },
        {
            "positions": [
                -0.20734703346041006,
                -1.307734522291394,
                2.2920503366260547,
                -0.9512984507260303,
                0.9138548824401502,
                -3.1227558843157293
            ]
        },
        {
            "positions": [
                -0.27337873530942086,
                -1.3413833595140032,
                2.3561511265451607,
                -0.9854661510776079,
                1.0707085383130528,
                -3.1088081355364943
            ]
        },
        {
            "positions": [
                -0.3394104371584317,
                -1.3750321967366124,
                2.420251916464266,
                -1.0196338514291858,
                1.2275621941859554,
                -3.094860386757259
            ]
        }
    ]
}