{
    "goal": {
        "global_pose": {
            "orientation": {
                "w": 0.5084816217422485,
                "x": -0.49083608388900757,
                "y": 0.5182115435600281,
                "z": -0.4816462993621826
            },
            "position": {
                "x": 0.5540239810943604,
                "y": 0.030875300988554955,
                "z": 0.16403168439865112
            }
        },
        "name": "move_to_storage_A"
    },
    "id": "TRRT_move_to_storage_A_105",
    "joint_names": [
        "shoulder_pan_joint",
        "shoulder_lift_joint",
        "elbow_joint",
        "wrist_1_joint",
        "wrist_2_joint",
        "wrist_3_joint"
    ],
    "metrics": {
        "cart_traj_len": 0.3524361901646058,
        "distance_elbow_joint": 0.44854810517414645,
        "distance_shoulder_lift_joint": 0.23435272652112116,
        "distance_shoulder_pan_joint": 0.46178188961127487,
        "distance_wrist_1_joint": 0.24204740578099593,
        "distance_wrist_2_joint": 1.092935317277709,
        "distance_wrist_3_joint": 0.09429643056126524,
        "smoothness": 4.440892133664971e-16,
        "time": 0.021230212999999998,
        "traj_len": 1.6043571531696152,
        "weighted_distance": 2.0242375006672875
    },
    "planner": "TRRT",
    "start": {
        "state": {
            "elbow_joint": 1.9715463870305268,
            "shoulder_lift_joint": -1.1394903361783484,
            "shoulder_pan_joint": 0.12281147578464417,
            "wrist_1_joint": -0.7804599489681411,
            "wrist_2_joint": 0.12958660307563738,
            "wrist_3_joint": -3.1924946282119055
        }
    },
    "waypoints": [
        {
            "positions": [
                0.12281147578464417,
                -1.1394903361783484,
                1.9715463870305268,
                -0.7804599489681411,
                0.12958660307563738,
                -3.1924946282119055
            ]
        },
        {
            "positions": [
                0.056842634411604906,
                -1.172969297109937,
                2.0356246877696904,
                -0.8150381497939977,
                0.28572021982959583,
                -3.1790237095602962
            ]
        },
        {
            "positions": [
                -0.00912620696143436,
                -1.206448258041526,
                2.0997029885088545,
                -0.8496163506198542,
                0.44185383658355426,
                -3.165552790908687
            ]
        },
        {
            "positions": [
                -0.07509504833447363,
                -1.2399272189731145,
                2.163781289248018,
                -0.8841945514457108,
                0.5979874533375127,
                -3.1520818722570776
            ]
        },
        {
            "positions": [
                -0.14106388970751288,
                -1.2734061799047034,
                2.227859589987182,
                -0.9187727522715673,
                0.7541210700914711,
                -3.1386109536054683
            ]
        },
        {
            "positions": [
                -0.20703273108055215,
                -1.306885140836292,
                2.291937890726346,
                -0.9533509530974239,
                0.9102546868454295,
                -3.125140034953859
            ]
        },
        {
            "positions": [
                -0.2730015724535914,
                -1.340364101767881,
                2.3560161914655096,
                -0.9879291539232804,
                1.066388303599388,
                -3.1116691163022496
            ]
        },
        {
            "positions": [
                -0.3389704138266307,
                -1.3738430626994695,
                2.420094492204673,
                -1.022507354749137,
                1.2225219203533464,
                -3.0981981976506403
            ]
        }
    ]
}