{
    "goal": {
        "global_pose": {
            "orientation": {
                "w": 0.5084816217422485,
                "x": -0.49083608388900757,
                "y": 0.5182115435600281,
                "z": -0.4816462993621826
            },
            "position": {
                "x": 0.5540239810943604,
                "y": 0.030875300988554955,
                "z": 0.16403168439865112
            }
        },
        "name": "move_to_storage_A"
    },
    "id": "TRRT_move_to_storage_A_121",
    "joint_names": [
        "shoulder_pan_joint",
        "shoulder_lift_joint",
        "elbow_joint",
        "wrist_1_joint",
        "wrist_2_joint",
        "wrist_3_joint"
    ],
    "metrics": {
        "cart_traj_len": 0.3531770310844266,
        "distance_elbow_joint": 0.4472483755776784,
        "distance_shoulder_lift_joint": 0.2330241578754828,
        "distance_shoulder_pan_joint": 0.46061901622968526,
        "distance_wrist_1_joint": 0.2359233096300618,
        "distance_wrist_2_joint": 1.1030275031548191,
        "distance_wrist_3_joint": 0.09442820124480811,
        "smoothness": 0.0,
        "time": 0.027829967,
        "traj_len": 1.6044533535483465,
        "weighted_distance": 2.0253586790953926
    },
    "planner": "TRRT",
    "start": {
        "state": {
            "elbow_joint": 1.9715463870305268,
            "shoulder_lift_joint": -1.1394903361783484,
            "shoulder_pan_joint": 0.12281147578464417,
            "wrist_1_joint": -0.7804599489681411,
            "wrist_2_joint": 0.12958660307563738,
            "wrist_3_joint": -3.1924946282119055
        }
    },
    "waypoints": [
        {
            "positions": [
                0.12281147578464417,
                -1.1394903361783484,
                1.9715463870305268,
                -0.7804599489681411,
                0.12958660307563738,
                -3.1924946282119055
            ]
        },
        {
            "positions": [
                0.05700875918040342,
                -1.1727795015891316,
                2.035439012113052,
                -0.8141632789152927,
                0.287161960669183,
                -3.179004885176933
            ]
        },
        {
            "positions": [
                -0.008793957423837331,
                -1.206068666999915,
                2.099331637195578,
                -0.8478666088624445,
                0.44473731826272855,
                -3.1655151421419605
            ]
        },
        {
            "positions": [
                -0.07459667402807808,
                -1.2393578324106982,
                2.1632242622781033,
                -0.8815699388095961,
                0.6023126758562741,
                -3.152025399106988
            ]
        },
        {
            "positions": [
                -0.14039939063231882,
                -1.2726469978214814,
                2.2271168873606286,
                -0.9152732687567479,
                0.7598880334498197,
                -3.138535656072015
            ]
        },
        {
            "positions": [
                -0.20620210723655957,
                -1.3059361632322646,
                2.2910095124431544,
                -0.9489765987038995,
                0.9174633910433654,
                -3.1250459130370425
            ]
        },
        {
            "positions": [
                -0.2720048238408003,
                -1.339225328643048,
                2.35490213752568,
                -0.9826799286510512,
                1.0750387486369108,
                -3.11155617000207
            ]
        },
        {
            "positions": [
                -0.3378075404450411,
                -1.3725144940538312,
                2.418794762608205,
                -1.0163832585982029,
                1.2326141062304565,
                -3.0980664269670974
            ]
        }
    ]
}