{
    "goal": {
        "global_pose": {
            "orientation": {
                "w": 0.7047431468963623,
                "x": -0.7094548344612122,
                "y": 0.0024358443915843964,
                "z": -0.0022348060738295317
            },
            "position": {
                "x": 0.6094750761985779,
                "y": 0.3671506643295288,
                "z": 0.19426114857196808
            }
        },
        "name": "move_to_magneteinheit_A"
    },
    "id": "TRRT_move_to_magneteinheit_A_90",
    "joint_names": [
        "shoulder_pan_joint",
        "shoulder_lift_joint",
        "elbow_joint",
        "wrist_1_joint",
        "wrist_2_joint",
        "wrist_3_joint"
    ],
    "metrics": {
        "cart_traj_len": 1.8792724574527888,
        "distance_elbow_joint": 3.909421198733049,
        "distance_shoulder_lift_joint": 0.6989851591375262,
        "distance_shoulder_pan_joint": 1.2425793711852466,
        "distance_wrist_1_joint": 1.491776495072359,
        "distance_wrist_2_joint": 1.696067799048377,
        "distance_wrist_3_joint": 1.099544372414278,
        "smoothness": 3.9474596558118316e-16,
        "time": 0.069920644,
        "traj_len": 3.1840814053021376,
        "weighted_distance": 3.9402166735523725
    },
    "planner": "TRRT",
    "start": {
        "state": {
            "elbow_joint": -1.919643507792019,
            "shoulder_lift_joint": -0.07675430207160344,
            "shoulder_pan_joint": -1.1188671864651873,
            "wrist_1_joint": 0.42560062535961957,
            "wrist_2_joint": 1.5706038300724876,
            "wrist_3_joint": 1.1188968870953055
        }
    },
    "waypoints": [
        {
            "positions": [
                -1.1188671864651873,
                -0.07675430207160344,
                -1.919643507792019,
                0.42560062535961957,
                1.5706038300724876,
                1.1188968870953055
            ]
        },
        {
            "positions": [
                -1.0710756721888317,
                -0.103638346653816,
                -1.769281153994594,
                0.48297664440086413,
                1.5053704531860115,
                1.0766067189255257
            ]
        },
        {
            "positions": [
                -1.023284157912476,
                -0.13052239123602855,
                -1.6189188001971693,
                0.5403526634421087,
                1.4401370762995356,
                1.0343165507557457
            ]
        },
        {
            "positions": [
                -0.9754926436361204,
                -0.1574064358182411,
                -1.4685564463997443,
                0.5977286824833533,
                1.3749036994130595,
                0.9920263825859658
            ]
        },
        {
            "positions": [
                -0.9277011293597648,
                -0.18429048040045365,
                -1.3181940926023192,
                0.6551047015245979,
                1.3096703225265833,
                0.9497362144161858
            ]
        },
        {
            "positions": [
                -0.8799096150834091,
                -0.21117452498266617,
                -1.1678317388048942,
                0.7124807205658426,
                1.2444369456401074,
                0.9074460462464059
            ]
        },
        {
            "positions": [
                -0.8321181008070535,
                -0.23805856956487872,
                -1.0174693850074692,
                0.769856739607087,
                1.1792035687536313,
                0.865155878076626
            ]
        },
        {
            "positions": [
                -0.7843265865306979,
                -0.2649426141470913,
                -0.8671070312100444,
                0.8272327586483317,
                1.1139701918671554,
                0.8228657099068462
            ]
        },
        {
            "positions": [
                -0.7365350722543422,
                -0.2918266587293038,
                -0.7167446774126194,
                0.8846087776895762,
                1.0487368149806793,
                0.7805755417370661
            ]
        },
        {
            "positions": [
                -0.6887435579779866,
                -0.31871070331151635,
                -0.5663823236151944,
                0.9419847967308208,
                0.9835034380942033,
                0.7382853735672863
            ]
        },
        {
            "positions": [
                -0.640952043701631,
                -0.3455947478937289,
                -0.41601996981776934,
                0.9993608157720655,
                0.9182700612077271,
                0.6959952053975063
            ]
        },
        {
            "positions": [
                -0.5931605294252753,
                -0.37247879247594146,
                -0.26565761602034454,
                1.05673683481331,
                0.8530366843212512,
                0.6537050372277264
            ]
        },
        {
            "positions": [
                -0.5453690151489197,
                -0.399362837058154,
                -0.1152952622229193,
                1.1141128538545546,
                0.7878033074347751,
                0.6114148690579465
            ]
        },
        {
            "positions": [
                -0.497577500872564,
                -0.42624688164036656,
                0.03506709157450549,
                1.171488872895799,
                0.7225699305482991,
                0.5691247008881666
            ]
        },
        {
            "positions": [
                -0.4497859865962084,
                -0.4531309262225791,
                0.1854294453719303,
                1.2288648919370437,
                0.6573365536618231,
                0.5268345327183866
            ]
        },
        {
            "positions": [
                -0.40199447231985286,
                -0.4800149708047916,
                0.3357917991693553,
                1.2862409109782882,
                0.5921031767753471,
                0.48454436454860683
            ]
        },
        {
            "positions": [
                -0.3542029580434971,
                -0.5068990153870042,
                0.48615415296678033,
                1.3436169300195329,
                0.526869799888871,
                0.4422541963788268
            ]
        },
        {
            "positions": [
                -0.30641144376714147,
                -0.5337830599692168,
                0.6365165067642053,
                1.4009929490607775,
                0.4616364230023948,
                0.39996402820904686
            ]
        },
        {
            "positions": [
                -0.2586199294907858,
                -0.5606671045514293,
                0.7868788605616304,
                1.458368968102022,
                0.3964030461159189,
                0.35767386003926704
            ]
        },
        {
            "positions": [
                -0.2108284152144302,
                -0.5875511491336418,
                0.9372412143590549,
                1.5157449871432667,
                0.331169669229443,
                0.3153836918694871
            ]
        },
        {
            "positions": [
                -0.16303690093807455,
                -0.6144351937158543,
                1.0876035681564804,
                1.5731210061845113,
                0.2659362923429667,
                0.2730935236997071
            ]
        },
        {
            "positions": [
                -0.11524538666171891,
                -0.641319238298067,
                1.2379659219539054,
                1.6304970252257558,
                0.20070291545649077,
                0.23080335552992715
            ]
        },
        {
            "positions": [
                -0.06745387238536327,
                -0.6682032828802795,
                1.38832827575133,
                1.6878730442670005,
                0.13546953857001487,
                0.18851318736014733
            ]
        },
        {
            "positions": [
                -0.019662358109007627,
                -0.695087327462492,
                1.538690629548755,
                1.745249063308245,
                0.07023616168353874,
                0.1462230191903674
            ]
        },
        {
            "positions": [
                0.028129156167348013,
                -0.7219713720447045,
                1.6890529833461805,
                1.8026250823494896,
                0.0050027847970626205,
                0.10393285102058747
            ]
        },
        {
            "positions": [
                0.07592067044370365,
                -0.7488554166269172,
                1.839415337143605,
                1.8600011013907343,
                -0.060230592089413504,
                0.06164268285080743
            ]
        },
        {
            "positions": [
                0.12371218472005924,
                -0.7757394612091297,
                1.98977769094103,
                1.9173771204319787,
                -0.12546396897588952,
                0.019352514681027545
            ]
        }
    ]
}