{
    "goal": {
        "global_pose": {
            "orientation": {
                "w": 0.7047431468963623,
                "x": -0.7094548344612122,
                "y": 0.0024358443915843964,
                "z": -0.0022348060738295317
            },
            "position": {
                "x": 0.6094750761985779,
                "y": 0.3671506643295288,
                "z": 0.19426114857196808
            }
        },
        "name": "move_to_magneteinheit_A"
    },
    "id": "TRRT_move_to_magneteinheit_A_132",
    "joint_names": [
        "shoulder_pan_joint",
        "shoulder_lift_joint",
        "elbow_joint",
        "wrist_1_joint",
        "wrist_2_joint",
        "wrist_3_joint"
    ],
    "metrics": {
        "cart_traj_len": 2.214265777422421,
        "distance_elbow_joint": 3.872669576062616,
        "distance_shoulder_lift_joint": 1.0516289453564363,
        "distance_shoulder_pan_joint": 1.2403643209748452,
        "distance_wrist_1_joint": 1.1202849674496056,
        "distance_wrist_2_joint": 1.4481628815620824,
        "distance_wrist_3_joint": 4.381979473372334,
        "smoothness": 7.612957875321802e-16,
        "time": 0.161098003,
        "traj_len": 3.6214762410898014,
        "weighted_distance": 4.944441015982927
    },
    "planner": "TRRT",
    "start": {
        "state": {
            "elbow_joint": -1.919643507792019,
            "shoulder_lift_joint": -0.07675430207160344,
            "shoulder_pan_joint": -1.1188671864651873,
            "wrist_1_joint": 0.42560062535961957,
            "wrist_2_joint": 1.5706038300724876,
            "wrist_3_joint": 1.1188968870953055
        }
    },
    "waypoints": [
        {
            "positions": [
                -1.1188671864651873,
                -0.07675430207160344,
                -1.919643507792019,
                0.42560062535961957,
                1.5706038300724876,
                1.1188968870953055
            ]
        },
        {
            "positions": [
                -1.0766333048506962,
                -0.10122579844457498,
                -1.8031863413489864,
                0.3845177301602004,
                1.5198534871498062,
                1.005166387959562
            ]
        },
        {
            "positions": [
                -1.034399423236205,
                -0.12569729481754652,
                -1.6867291749059539,
                0.34343483496078125,
                1.4691031442271245,
                0.8914358888238185
            ]
        },
        {
            "positions": [
                -0.9921655416217138,
                -0.15016879119051807,
                -1.5702720084629211,
                0.3023519397613621,
                1.418352801304443,
                0.7777053896880751
            ]
        },
        {
            "positions": [
                -0.9499316600072225,
                -0.1746402875634896,
                -1.4538148420198884,
                0.26126904456194294,
                1.3676024583817614,
                0.6639748905523316
            ]
        },
        {
            "positions": [
                -0.9076977783927314,
                -0.19911178393646112,
                -1.337357675576856,
                0.2201861493625238,
                1.31685211545908,
                0.5502443914165881
            ]
        },
        {
            "positions": [
                -0.8654638967782402,
                -0.22358328030943267,
                -1.2209005091338234,
                0.17910325416310463,
                1.2661017725363986,
                0.4365138922808447
            ]
        },
        {
            "positions": [
                -0.8232300151637489,
                -0.24805477668240422,
                -1.1044433426907907,
                0.13802035896368547,
                1.215351429613717,
                0.3227833931451012
            ]
        },
        {
            "positions": [
                -0.7809961335492577,
                -0.27252627305537575,
                -0.987986176247758,
                0.09693746376426632,
                1.1646010866910355,
                0.20905289400935767
            ]
        },
        {
            "positions": [
                -0.7387622519347665,
                -0.2969977694283473,
                -0.8715290098047255,
                0.05585456856484716,
                1.1138507437683538,
                0.09532239487361416
            ]
        },
        {
            "positions": [
                -0.6965283703202754,
                -0.32146926580131885,
                -0.7550718433616928,
                0.014771673365428006,
                1.0631004008456724,
                -0.018408104262129354
            ]
        },
        {
            "positions": [
                -0.6542944887057842,
                -0.3459407621742904,
                -0.63861467691866,
                -0.02631122183399115,
                1.012350057922991,
                -0.13213860339787264
            ]
        },
        {
            "positions": [
                -0.612060607091293,
                -0.3704122585472619,
                -0.5221575104756275,
                -0.0673941170334103,
                0.9615997150003094,
                -0.24586910253361616
            ]
        },
        {
            "positions": [
                -0.5698267254768017,
                -0.3948837549202335,
                -0.4057003440325948,
                -0.1084770122328294,
                0.9108493720776278,
                -0.35959960166935967
            ]
        },
        {
            "positions": [
                -0.5275928438623105,
                -0.419355251293205,
                -0.2892431775895623,
                -0.14955990743224862,
                0.8600990291549463,
                -0.4733301008051032
            ]
        },
        {
            "positions": [
                -0.48535896224781927,
                -0.4438267476661766,
                -0.17278601114652936,
                -0.19064280263166783,
                0.8093486862322646,
                -0.5870605999408469
            ]
        },
        {
            "positions": [
                -0.4431250806333281,
                -0.46829824403914805,
                -0.05632884470349686,
                -0.23172569783108693,
                0.7585983433095832,
                -0.7007910990765902
            ]
        },
        {
            "positions": [
                -0.40089119901883685,
                -0.49276974041211963,
                0.06012832173953586,
                -0.27280859303050614,
                0.7078480003869017,
                -0.8145215982123337
            ]
        },
        {
            "positions": [
                -0.3586573174043457,
                -0.5172412367850912,
                0.17658548818256814,
                -0.31389148822992524,
                0.6570976574642202,
                -0.9282520973480772
            ]
        },
        {
            "positions": [
                -0.31642343578985443,
                -0.5417127331580627,
                0.2930426546256013,
                -0.35497438342934445,
                0.6063473145415386,
                -1.041982596483821
            ]
        },
        {
            "positions": [
                -0.2741895541753634,
                -0.5661842295310342,
                0.4094998210686336,
                -0.39605727862876355,
                0.5555969716188571,
                -1.1557130956195643
            ]
        },
        {
            "positions": [
                -0.23195567256087213,
                -0.5906557259040057,
                0.5259569875116663,
                -0.43714017382818277,
                0.5048466286961755,
                -1.2694435947553075
            ]
        },
        {
            "positions": [
                -0.18972179094638097,
                -0.6151272222769772,
                0.642414153954699,
                -0.47822306902760187,
                0.45409628577349403,
                -1.3831740938910508
            ]
        },
        {
            "positions": [
                -0.1474879093318897,
                -0.6395987186499488,
                0.7588713203977318,
                -0.519305964227021,
                0.4033459428508126,
                -1.4969045930267946
            ]
        },
        {
            "positions": [
                -0.10525402771739856,
                -0.6640702150229203,
                0.875328486840764,
                -0.5603888594264401,
                0.35259559992813116,
                -1.6106350921625379
            ]
        },
        {
            "positions": [
                -0.06302014610290718,
                -0.688541711395892,
                0.9917856532837968,
                -0.6014717546258594,
                0.3018452570054495,
                -1.7243655912982816
            ]
        },
        {
            "positions": [
                -0.02078626448841603,
                -0.7130132077688636,
                1.1082428197268295,
                -0.6425546498252783,
                0.2510949140827681,
                -1.8380960904340249
            ]
        },
        {
            "positions": [
                0.021447617126075177,
                -0.7374847041418351,
                1.2246999861698624,
                -0.6836375450246976,
                0.2003445711600864,
                -1.9518265895697686
            ]
        },
        {
            "positions": [
                0.03574040532372991,
                -0.7933273531827215,
                1.3287465693271103,
                -0.6852156588911674,
                0.18921548221013187,
                -2.139148874813663
            ]
        },
        {
            "positions": [
                0.050033193521384633,
                -0.8491700022236078,
                1.432793152484358,
                -0.6867937727576371,
                0.1780863932601774,
                -2.326471160057557
            ]
        },
        {
            "positions": [
                0.06432598171903936,
                -0.9050126512644943,
                1.536839735641606,
                -0.6883718866241069,
                0.16695730431022288,
                -2.5137934453014514
            ]
        },
        {
            "positions": [
                0.0786187699166941,
                -0.9608553003053806,
                1.6408863187988536,
                -0.6899500004905766,
                0.15582821536026836,
                -2.7011157305453453
            ]
        },
        {
            "positions": [
                0.09291155811434884,
                -1.0166979493462671,
                1.7449329019561015,
                -0.6915281143570464,
                0.14469912641031385,
                -2.8884380157892395
            ]
        },
        {
            "positions": [
                0.10720434631200355,
                -1.0725405983871534,
                1.8489794851133494,
                -0.6931062282235161,
                0.13357003746035936,
                -3.075760301033134
            ]
        },
        {
            "positions": [
                0.1214971345096583,
                -1.1283832474280397,
                1.953026068270597,
                -0.6946843420899859,
                0.12244094851040485,
                -3.263082586277028
            ]
        }
    ]
}