{
    "goal": {
        "global_pose": {
            "orientation": {
                "w": -0.00223480608172531,
                "x": 0.0024358444001904467,
                "y": 0.7094548369677653,
                "z": -0.704743149386269
            },
            "position": {
                "x": 0.6205249238014221,
                "y": -0.6371506643295288,
                "z": 0.19426114857196808
            }
        },
        "name": "move_to_magneteinheit_B"
    },
    "id": "TRRT_move_to_magneteinheit_B_139",
    "joint_names": [
        "shoulder_pan_joint",
        "shoulder_lift_joint",
        "elbow_joint",
        "wrist_1_joint",
        "wrist_2_joint",
        "wrist_3_joint"
    ],
    "metrics": {
        "cart_traj_len": 3.8986206428922165,
        "distance_elbow_joint": 4.154614728075073,
        "distance_shoulder_lift_joint": 0.6443801178563748,
        "distance_shoulder_pan_joint": 2.3191299835776884,
        "distance_wrist_1_joint": 3.1282858509991143,
        "distance_wrist_2_joint": 1.8520006125581994,
        "distance_wrist_3_joint": 1.4134091094818868,
        "smoothness": 0.548705745381438,
        "time": 4.634433272,
        "traj_len": 3.67584281526677,
        "weighted_distance": 4.617242151443806
    },
    "planner": "TRRT",
    "start": {
        "state": {
            "elbow_joint": 2.39358713078474,
            "shoulder_lift_joint": -1.908514104345545,
            "shoulder_pan_joint": 0.7066247066606129,
            "wrist_1_joint": -0.4678290933515497,
            "wrist_2_joint": 0.7096259083745334,
            "wrist_3_joint": -3.1358149277392293
        }
    },
    "waypoints": [
        {
            "positions": [
                0.7066247066606129,
                -1.908514104345545,
                2.39358713078474,
                -0.4678290933515497,
                0.7096259083745334,
                -3.1358149277392293
            ]
        },
        {
            "positions": [
                0.6458003207028912,
                -1.8697510395376866,
                2.3772335143805177,
                -0.4093650618791345,
                0.7272924967325852,
                -3.060820214177424
            ]
        },
        {
            "positions": [
                0.5849759347451695,
                -1.830987974729828,
                2.360879897976295,
                -0.35090103040671927,
                0.7449590850906371,
                -2.985825500615619
            ]
        },
        {
            "positions": [
                0.5241515487874477,
                -1.7922249099219698,
                2.3445262815720724,
                -0.2924369989343041,
                0.7626256734486889,
                -2.9108307870538135
            ]
        },
        {
            "positions": [
                0.5534991187587848,
                -1.8236778594628735,
                2.1854008509161424,
                -0.2495857299655921,
                0.8095427379761855,
                -2.828751978322818
            ]
        },
        {
            "positions": [
                0.5828466887301219,
                -1.8551308090037775,
                2.0262754202602125,
                -0.20673446099688014,
                0.8564598025036819,
                -2.7466731695918227
            ]
        },
        {
            "positions": [
                0.612194258701459,
                -1.8865837585446812,
                1.8671499896042822,
                -0.16388319202816815,
                0.9033768670311785,
                -2.6645943608608276
            ]
        },
        {
            "positions": [
                0.6415418286727961,
                -1.918036708085585,
                1.7080245589483523,
                -0.12103192305945618,
                0.9502939315586749,
                -2.582515552129832
            ]
        },
        {
            "positions": [
                0.6708893986441331,
                -1.9494896576264888,
                1.548899128292422,
                -0.07818065409074418,
                0.9972109960861715,
                -2.5004367433988364
            ]
        },
        {
            "positions": [
                0.7002369686154702,
                -1.9809426071673926,
                1.389773697636492,
                -0.03532938512203221,
                1.044128060613668,
                -2.418357934667841
            ]
        },
        {
            "positions": [
                0.787447974439837,
                -1.9774472708787696,
                1.2480109094167584,
                -0.14225601961585016,
                0.9921993196939232,
                -2.419852090031635
            ]
        },
        {
            "positions": [
                0.874658980264204,
                -1.9739519345901464,
                1.1062481211970248,
                -0.2491826541096681,
                0.9402705787741783,
                -2.4213462453954295
            ]
        },
        {
            "positions": [
                0.9618699860885707,
                -1.9704565983015234,
                0.9644853329772913,
                -0.35610928860348606,
                0.8883418378544335,
                -2.4228404007592235
            ]
        },
        {
            "positions": [
                1.0490809919129376,
                -1.9669612620129004,
                0.8227225447575577,
                -0.463035923097304,
                0.8364130969346887,
                -2.4243345561230174
            ]
        },
        {
            "positions": [
                1.1362919977373043,
                -1.9634659257242775,
                0.6809597565378241,
                -0.569962557591122,
                0.7844843560149438,
                -2.425828711486812
            ]
        },
        {
            "positions": [
                1.2235030035616712,
                -1.9599705894356543,
                0.5391969683180906,
                -0.6768891920849399,
                0.7325556150951991,
                -2.4273228668506057
            ]
        },
        {
            "positions": [
                1.310714009386038,
                -1.9564752531470313,
                0.39743418009835696,
                -0.7838158265787579,
                0.6806268741754542,
                -2.4288170222144
            ]
        },
        {
            "positions": [
                1.3979250152104048,
                -1.9529799168584083,
                0.2556713918786233,
                -0.8907424610725758,
                0.6286981332557093,
                -2.430311177578194
            ]
        },
        {
            "positions": [
                1.4851360210347717,
                -1.9494845805697854,
                0.11390860365888988,
                -0.9976690955663938,
                0.5767693923359645,
                -2.431805332941988
            ]
        },
        {
            "positions": [
                1.5723470268591386,
                -1.9459892442811622,
                -0.027854184560843764,
                -1.1045957300602118,
                0.5248406514162196,
                -2.4332994883057824
            ]
        },
        {
            "positions": [
                1.6595580326835053,
                -1.9424939079925392,
                -0.1696169727805774,
                -1.2115223645540298,
                0.47291191049647474,
                -2.4347936436695763
            ]
        },
        {
            "positions": [
                1.746769038507872,
                -1.9389985717039162,
                -0.31137976100031084,
                -1.3184489990478476,
                0.42098316957673,
                -2.4362877990333702
            ]
        },
        {
            "positions": [
                1.8339800443322392,
                -1.9355032354152932,
                -0.4531425492200447,
                -1.4253756335416656,
                0.3690544286569851,
                -2.4377819543971646
            ]
        },
        {
            "positions": [
                1.9211910501566059,
                -1.93200789912667,
                -0.5949053374397781,
                -1.5323022680354836,
                0.31712568773724026,
                -2.4392761097609585
            ]
        },
        {
            "positions": [
                2.008402055980973,
                -1.928512562838047,
                -0.736668125659512,
                -1.6392289025293016,
                0.2651969468174954,
                -2.440770265124753
            ]
        },
        {
            "positions": [
                2.0956130618053397,
                -1.925017226549424,
                -0.8784309138792454,
                -1.7461555370231194,
                0.21326820589775064,
                -2.442264420488547
            ]
        },
        {
            "positions": [
                2.1828240676297064,
                -1.9215218902608011,
                -1.0201937020989789,
                -1.8530821715169374,
                0.16133946497800578,
                -2.443758575852341
            ]
        },
        {
            "positions": [
                2.270035073454073,
                -1.918026553972178,
                -1.1619564903187123,
                -1.9600088060107554,
                0.10941072405826091,
                -2.445252731216135
            ]
        },
        {
            "positions": [
                2.35724607927844,
                -1.914531217683555,
                -1.303719278538446,
                -2.0669354405045737,
                0.0574819831385161,
                -2.446746886579929
            ]
        },
        {
            "positions": [
                2.4113119911607273,
                -1.959573272132013,
                -1.3837177666294118,
                -2.174523578675566,
                0.0016072269557955224,
                -2.469241857616466
            ]
        },
        {
            "positions": [
                2.4653779030430147,
                -2.004615326580471,
                -1.4637162547203777,
                -2.282111716846558,
                -0.05426752922692506,
                -2.4917368286530035
            ]
        },
        {
            "positions": [
                2.519443814925302,
                -2.0496573810289287,
                -1.5437147428113436,
                -2.3896998550175508,
                -0.11014228540964563,
                -2.5142317996895405
            ]
        },
        {
            "positions": [
                2.5735097268075893,
                -2.094699435477387,
                -1.6237132309023095,
                -2.497287993188543,
                -0.16601704159236622,
                -2.536726770726078
            ]
        },
        {
            "positions": [
                2.6275756386898763,
                -2.1397414899258447,
                -1.7037117189932753,
                -2.604876131359535,
                -0.22189179777508675,
                -2.559221741762615
            ]
        },
        {
            "positions": [
                2.6386532172905746,
                -2.1556586780795945,
                -1.6846064262275895,
                -2.562796332515504,
                -0.30571799841852326,
                -2.74425117820119
            ]
        },
        {
            "positions": [
                2.649730795891273,
                -2.1715758662333444,
                -1.6655011334619036,
                -2.5207165336714725,
                -0.3895441990619598,
                -2.9292806146397647
            ]
        },
        {
            "positions": [
                2.660808374491971,
                -2.1874930543870943,
                -1.6463958406962178,
                -2.4786367348274414,
                -0.47337039970539635,
                -3.11431005107834
            ]
        }
    ]
}