{
    "goal": {
        "global_pose": {
            "orientation": {
                "w": 0.7047431468963623,
                "x": -0.7094548344612122,
                "y": 0.0024358443915843964,
                "z": -0.0022348060738295317
            },
            "position": {
                "x": 0.6094750761985779,
                "y": 0.3671506643295288,
                "z": 0.19426114857196808
            }
        },
        "name": "move_to_magneteinheit_A"
    },
    "id": "TRRT_move_to_magneteinheit_A_142",
    "joint_names": [
        "shoulder_pan_joint",
        "shoulder_lift_joint",
        "elbow_joint",
        "wrist_1_joint",
        "wrist_2_joint",
        "wrist_3_joint"
    ],
    "metrics": {
        "cart_traj_len": 1.8797057040838534,
        "distance_elbow_joint": 3.9119816899974182,
        "distance_shoulder_lift_joint": 0.7000350837762922,
        "distance_shoulder_pan_joint": 1.2415037219376766,
        "distance_wrist_1_joint": 1.4805051546450887,
        "distance_wrist_2_joint": 1.7086668359072408,
        "distance_wrist_3_joint": 1.100401440712895,
        "smoothness": 4.934324565125532e-16,
        "time": 0.172523047,
        "traj_len": 3.1848224325661567,
        "weighted_distance": 3.941201441052554
    },
    "planner": "TRRT",
    "start": {
        "state": {
            "elbow_joint": -1.919643507792019,
            "shoulder_lift_joint": -0.07675430207160344,
            "shoulder_pan_joint": -1.1188671864651873,
            "wrist_1_joint": 0.42560062535961957,
            "wrist_2_joint": 1.5706038300724876,
            "wrist_3_joint": 1.1188968870953055
        }
    },
    "waypoints": [
        {
            "positions": [
                -1.1188671864651873,
                -0.07675430207160344,
                -1.919643507792019,
                0.42560062535961957,
                1.5706038300724876,
                1.1188968870953055
            ]
        },
        {
            "positions": [
                -1.0711170433137382,
                -0.10367872837069161,
                -1.7691826735613492,
                0.4825431313075076,
                1.504885874845286,
                1.0765737547601941
            ]
        },
        {
            "positions": [
                -1.0233669001622892,
                -0.1306031546697798,
                -1.6187218393306793,
                0.5394856372553957,
                1.4391679196180844,
                1.034250622425083
            ]
        },
        {
            "positions": [
                -0.97561675701084,
                -0.15752758096886793,
                -1.4682610051000093,
                0.5964281432032836,
                1.3734499643908828,
                0.9919274900899715
            ]
        },
        {
            "positions": [
                -0.927866613859391,
                -0.18445200726795613,
                -1.3178001708693392,
                0.6533706491511717,
                1.3077320091636813,
                0.9496043577548602
            ]
        },
        {
            "positions": [
                -0.8801164707079419,
                -0.21137643356704428,
                -1.1673393366386695,
                0.7103131550990598,
                1.2420140539364797,
                0.9072812254197488
            ]
        },
        {
            "positions": [
                -0.8323663275564928,
                -0.23830085986613245,
                -1.0168785024079994,
                0.7672556610469478,
                1.176296098709278,
                0.8649580930846374
            ]
        },
        {
            "positions": [
                -0.7846161844050437,
                -0.26522528616522056,
                -0.8664176681773297,
                0.8241981669948357,
                1.1105781434820767,
                0.8226349607495261
            ]
        },
        {
            "positions": [
                -0.7368660412535946,
                -0.29214971246430876,
                -0.7159568339466595,
                0.8811406729427238,
                1.0448601882548751,
                0.7803118284144148
            ]
        },
        {
            "positions": [
                -0.6891158981021455,
                -0.31907413876339696,
                -0.5654959997159896,
                0.9380831788906119,
                0.9791422330276736,
                0.7379886960793034
            ]
        },
        {
            "positions": [
                -0.6413657549506964,
                -0.3459985650624851,
                -0.4150351654853197,
                0.9950256848385,
                0.9134242778004719,
                0.695665563744192
            ]
        },
        {
            "positions": [
                -0.5936156117992473,
                -0.37292299136157325,
                -0.2645743312546498,
                1.0519681907863878,
                0.8477063225732704,
                0.6533424314090808
            ]
        },
        {
            "positions": [
                -0.5458654686477982,
                -0.39984741766066145,
                -0.11411349702397988,
                1.108910696734276,
                0.7819883673460687,
                0.6110192990739693
            ]
        },
        {
            "positions": [
                -0.49811532549634907,
                -0.4267718439597496,
                0.036347337206690034,
                1.165853202682164,
                0.7162704121188672,
                0.568696166738858
            ]
        },
        {
            "positions": [
                -0.4503651823449,
                -0.45369627025883774,
                0.18680817143735973,
                1.2227957086300518,
                0.6505524568916657,
                0.5263730344037467
            ]
        },
        {
            "positions": [
                -0.402615039193451,
                -0.4806206965579259,
                0.33726900566802986,
                1.27973821457794,
                0.5848345016644642,
                0.4840499020686354
            ]
        },
        {
            "positions": [
                -0.3548648960420018,
                -0.5075451228570141,
                0.4877298398987,
                1.336680720525828,
                0.5191165464372625,
                0.441726769733524
            ]
        },
        {
            "positions": [
                -0.3071147528905527,
                -0.5344695491561022,
                0.6381906741293697,
                1.393623226473716,
                0.4533985912100609,
                0.39940363739841267
            ]
        },
        {
            "positions": [
                -0.2593646097391036,
                -0.5613939754551904,
                0.7886515083600398,
                1.4505657324216041,
                0.3876806359828595,
                0.35708050506330136
            ]
        },
        {
            "positions": [
                -0.21161446658765448,
                -0.5883184017542786,
                0.9391123425907095,
                1.507508238369492,
                0.3219626807556579,
                0.31475737272819004
            ]
        },
        {
            "positions": [
                -0.16386432343620538,
                -0.6152428280533668,
                1.0895731768213797,
                1.5644507443173803,
                0.2562447255284561,
                0.2724342403930785
            ]
        },
        {
            "positions": [
                -0.11611418028475629,
                -0.642167254352455,
                1.2400340110520494,
                1.6213932502652681,
                0.19052677030125453,
                0.2301111080579672
            ]
        },
        {
            "positions": [
                -0.06836403713330719,
                -0.669091680651543,
                1.3904948452827195,
                1.6783357562131562,
                0.12480881507405317,
                0.18778797572285588
            ]
        },
        {
            "positions": [
                -0.02061389398185809,
                -0.6960161069506312,
                1.5409556795133892,
                1.735278262161044,
                0.059090859846851584,
                0.14546484338774457
            ]
        },
        {
            "positions": [
                0.02713624916959101,
                -0.7229405332497194,
                1.6914165137440593,
                1.7922207681089324,
                -0.006627095380350223,
                0.10314171105263314
            ]
        },
        {
            "positions": [
                0.07488639232104011,
                -0.7498649595488076,
                1.8418773479747295,
                1.8491632740568202,
                -0.07234505060755159,
                0.06081857871752194
            ]
        },
        {
            "positions": [
                0.1226365354724891,
                -0.7767893858478957,
                1.992338182205399,
                1.9061057800047083,
                -0.13806300583475306,
                0.018495446382410467
            ]
        }
    ]
}