{
    "goal": {
        "global_pose": {
            "orientation": {
                "w": 0.7031023502349854,
                "x": -0.7110244035720825,
                "y": 0.007748599164187908,
                "z": 0.005598929710686207
            },
            "position": {
                "x": 0.11585023208521307,
                "y": 0.44412534475326537,
                "z": 0.3711530566215515
            }
        },
        "name": "move_to_auspresseinheit_A"
    },
    "id": "TRRT_move_to_auspresseinheit_A_147",
    "joint_names": [
        "shoulder_pan_joint",
        "shoulder_lift_joint",
        "elbow_joint",
        "wrist_1_joint",
        "wrist_2_joint",
        "wrist_3_joint"
    ],
    "metrics": {
        "cart_traj_len": 0.6890695218361866,
        "distance_elbow_joint": 0.027670618320991824,
        "distance_shoulder_lift_joint": 0.5358482298210567,
        "distance_shoulder_pan_joint": 1.046342802436602,
        "distance_wrist_1_joint": 0.5494103531582291,
        "distance_wrist_2_joint": 0.5252757847271492,
        "distance_wrist_3_joint": 0.028031634931092952,
        "smoothness": 2.9605947279411004e-16,
        "time": 0.017343286,
        "traj_len": 1.6469910210426533,
        "weighted_distance": 1.9604409787450081
    },
    "planner": "TRRT",
    "start": {
        "state": {
            "elbow_joint": 2.422574709923281,
            "shoulder_lift_joint": -1.3736533754116391,
            "shoulder_pan_joint": -0.33786336945926293,
            "wrist_1_joint": -1.0288603412921917,
            "wrist_2_joint": 1.2330224858903978,
            "wrist_3_joint": -3.094022268022082
        }
    },
    "waypoints": [
        {
            "positions": [
                -0.33786336945926293,
                -1.3736533754116391,
                2.422574709923281,
                -1.0288603412921917,
                1.2330224858903978,
                -3.094022268022082
            ]
        },
        {
            "positions": [
                -0.20640116842382752,
                -1.4408493458657228,
                2.419036296825401,
                -0.9593739424760808,
                1.1673131925216278,
                -3.098233619825045
            ]
        },
        {
            "positions": [
                -0.07493896738839212,
                -1.5080453163198064,
                2.4154978837275203,
                -0.8898875436599698,
                1.1016038991528576,
                -3.1024449716280085
            ]
        },
        {
            "positions": [
                0.056523233647043314,
                -1.57524128677389,
                2.41195947062964,
                -0.8204011448438588,
                1.0358946057840877,
                -3.1066563234309714
            ]
        },
        {
            "positions": [
                0.1879854346824787,
                -1.6424372572279737,
                2.40842105753176,
                -0.750914746027748,
                0.9701853124153176,
                -3.1108676752339344
            ]
        },
        {
            "positions": [
                0.3194476357179142,
                -1.7096332276820574,
                2.4048826444338793,
                -0.6814283472116369,
                0.9044760190465475,
                -3.1150790270368978
            ]
        },
        {
            "positions": [
                0.45090983675334956,
                -1.776829198136141,
                2.401344231335999,
                -0.6119419483955261,
                0.8387667256777774,
                -3.1192903788398607
            ]
        },
        {
            "positions": [
                0.5796946348653442,
                -1.8431654016844186,
                2.398124161469144,
                -0.5456959682647443,
                0.773256713420513,
                -3.120672140896518
            ]
        },
        {
            "positions": [
                0.708479432977339,
                -1.9095016052326959,
                2.3949040916022892,
                -0.4794499881339626,
                0.7077467011632486,
                -3.122053902953175
            ]
        }
    ]
}