{
    "goal": {
        "global_pose": {
            "orientation": {
                "w": 0.7047431468963623,
                "x": -0.7094548344612122,
                "y": 0.0024358443915843964,
                "z": -0.0022348060738295317
            },
            "position": {
                "x": 0.6094750761985779,
                "y": 0.3671506643295288,
                "z": 0.19426114857196808
            }
        },
        "name": "move_to_magneteinheit_A"
    },
    "id": "TRRT_move_to_magneteinheit_A_28",
    "joint_names": [
        "shoulder_pan_joint",
        "shoulder_lift_joint",
        "elbow_joint",
        "wrist_1_joint",
        "wrist_2_joint",
        "wrist_3_joint"
    ],
    "metrics": {
        "cart_traj_len": 2.0529651498939883,
        "distance_elbow_joint": 4.316852545379154,
        "distance_shoulder_lift_joint": 1.6632673203061734,
        "distance_shoulder_pan_joint": 1.2410477106253939,
        "distance_wrist_1_joint": 1.4197282746356754,
        "distance_wrist_2_joint": 1.44385447558408,
        "distance_wrist_3_joint": 4.259662179811777,
        "smoothness": 0.36163043443380527,
        "time": 1.230338013,
        "traj_len": 3.787401814746126,
        "weighted_distance": 5.0722105256175585
    },
    "planner": "TRRT",
    "start": {
        "state": {
            "elbow_joint": -1.919643507792019,
            "shoulder_lift_joint": -0.07675430207160344,
            "shoulder_pan_joint": -1.1188671864651873,
            "wrist_1_joint": 0.42560062535961957,
            "wrist_2_joint": 1.5706038300724876,
            "wrist_3_joint": 1.1188968870953055
        }
    },
    "waypoints": [
        {
            "positions": [
                -1.1188671864651873,
                -0.07675430207160344,
                -1.919643507792019,
                0.42560062535961957,
                1.5706038300724876,
                1.1188968870953055
            ]
        },
        {
            "positions": [
                -1.0891229164916243,
                -0.11581755830353614,
                -1.8021763655461724,
                0.3870764034823887,
                1.5313266479365462,
                0.9972548940584673
            ]
        },
        {
            "positions": [
                -1.0593786465180612,
                -0.15488081453546884,
                -1.6847092233003258,
                0.3485521816051579,
                1.492049465800605,
                0.8756129010216293
            ]
        },
        {
            "positions": [
                -1.0296343765444984,
                -0.19394407076740156,
                -1.5672420810544792,
                0.31002795972792696,
                1.4527722836646635,
                0.753970907984791
            ]
        },
        {
            "positions": [
                -0.9998901065709354,
                -0.23300732699933424,
                -1.4497749388086327,
                0.27150373785069615,
                1.413495101528722,
                0.632328914947953
            ]
        },
        {
            "positions": [
                -0.9701458365973723,
                -0.2720705832312669,
                -1.332307796562786,
                0.23297951597346528,
                1.3742179193927808,
                0.5106869219111148
            ]
        },
        {
            "positions": [
                -0.9404015666238094,
                -0.3111338394631996,
                -1.2148406543169394,
                0.1944552940962344,
                1.3349407372568394,
                0.38904492887427655
            ]
        },
        {
            "positions": [
                -0.9106572966502463,
                -0.35019709569513235,
                -1.0973735120710928,
                0.15593107221900354,
                1.295663555120898,
                0.26740293583743835
            ]
        },
        {
            "positions": [
                -0.8809130266766834,
                -0.38926035192706504,
                -0.9799063698252461,
                0.11740685034177273,
                1.2563863729849567,
                0.14576094280060026
            ]
        },
        {
            "positions": [
                -0.8511687567031203,
                -0.4283236081589977,
                -0.8624392275793995,
                0.07888262846454186,
                1.2171091908490153,
                0.024118949763762165
            ]
        },
        {
            "positions": [
                -0.8214244867295573,
                -0.4673868643909304,
                -0.7449720853335529,
                0.04035840658731099,
                1.1778320087130738,
                -0.09752304327307604
            ]
        },
        {
            "positions": [
                -0.7916802167559943,
                -0.5064501206228631,
                -0.6275049430877062,
                0.0018341847100801223,
                1.1385548265771326,
                -0.21916503630991424
            ]
        },
        {
            "positions": [
                -0.7619359467824314,
                -0.5455133768547958,
                -0.5100378008418596,
                -0.036690037167150746,
                1.0992776444411911,
                -0.34080702934675244
            ]
        },
        {
            "positions": [
                -0.7321916768088683,
                -0.5845766330867286,
                -0.3925706585960129,
                -0.07521425904438156,
                1.0600004623052497,
                -0.46244902238359065
            ]
        },
        {
            "positions": [
                -0.7024474068353053,
                -0.6236398893186612,
                -0.2751035163501663,
                -0.11373848092161248,
                1.0207232801693085,
                -0.5840910154204288
            ]
        },
        {
            "positions": [
                -0.6727031368617423,
                -0.6627031455505938,
                -0.15763637410431985,
                -0.1522627027988433,
                0.981446098033367,
                -0.7057330084572668
            ]
        },
        {
            "positions": [
                -0.6429588668881794,
                -0.7017664017825267,
                -0.04016923185847321,
                -0.1907869246760741,
                0.9421689158974256,
                -0.827375001494105
            ]
        },
        {
            "positions": [
                -0.6132145969146163,
                -0.7408296580144593,
                0.07729791038737344,
                -0.22931114655330503,
                0.9028917337614842,
                -0.9490169945309432
            ]
        },
        {
            "positions": [
                -0.5834703269410534,
                -0.779892914246392,
                0.19476505263322008,
                -0.26783536843053585,
                0.8636145516255429,
                -1.0706589875677812
            ]
        },
        {
            "positions": [
                -0.5537260569674903,
                -0.8189561704783246,
                0.3122321948790667,
                -0.30635959030776666,
                0.8243373694896015,
                -1.1923009806046192
            ]
        },
        {
            "positions": [
                -0.5239817869939273,
                -0.8580194267102574,
                0.42969933712491337,
                -0.3448838121849976,
                0.7850601873536601,
                -1.3139429736414576
            ]
        },
        {
            "positions": [
                -0.49423751702036434,
                -0.8970826829421901,
                0.54716647937076,
                -0.3834080340622284,
                0.7457830052177187,
                -1.4355849666782956
            ]
        },
        {
            "positions": [
                -0.4644932470468013,
                -0.9361459391741229,
                0.6646336216166067,
                -0.4219322559394593,
                0.7065058230817773,
                -1.557226959715134
            ]
        },
        {
            "positions": [
                -0.43474897707323834,
                -0.9752091954060556,
                0.7821007638624533,
                -0.46045647781669014,
                0.6672286409458359,
                -1.678868952751972
            ]
        },
        {
            "positions": [
                -0.4050047070996753,
                -1.0142724516379882,
                0.8995679061083,
                -0.49898069969392106,
                0.6279514588098946,
                -1.8005109457888104
            ]
        },
        {
            "positions": [
                -0.37526043712611223,
                -1.053335707869921,
                1.0170350483541466,
                -0.5375049215711518,
                0.5886742766739532,
                -1.9221529388256484
            ]
        },
        {
            "positions": [
                -0.3455161671525493,
                -1.0923989641018537,
                1.1345021905999932,
                -0.5760291434483826,
                0.5493970945380118,
                -2.043794931862487
            ]
        },
        {
            "positions": [
                -0.31577189717898624,
                -1.1314622203337865,
                1.2519693328458399,
                -0.6145533653256137,
                0.5101199124020703,
                -2.165436924899325
            ]
        },
        {
            "positions": [
                -0.2860276272054232,
                -1.1705254765657191,
                1.3694364750916865,
                -0.6530775872028445,
                0.4708427302661291,
                -2.2870789179361632
            ]
        },
        {
            "positions": [
                -0.25628335723186024,
                -1.2095887327976518,
                1.4869036173375332,
                -0.6916018090800753,
                0.43156554813018766,
                -2.4087209109730012
            ]
        },
        {
            "positions": [
                -0.2265390872582973,
                -1.2486519890295844,
                1.6043707595833794,
                -0.7301260309573061,
                0.39228836599424644,
                -2.530362904009839
            ]
        },
        {
            "positions": [
                -0.19679481728473436,
                -1.2877152452615173,
                1.721837901829226,
                -0.7686502528345369,
                0.353011183858305,
                -2.652004897046677
            ]
        },
        {
            "positions": [
                -0.1670505473111713,
                -1.32677850149345,
                1.8393050440750727,
                -0.8071744747117677,
                0.31373400172236354,
                -2.7736468900835156
            ]
        },
        {
            "positions": [
                -0.13730627733760825,
                -1.3658417577253825,
                1.9567721863209193,
                -0.8456986965889985,
                0.2744568195864221,
                -2.895288883120354
            ]
        },
        {
            "positions": [
                -0.10756200736404531,
                -1.4049050139573154,
                2.074239328566766,
                -0.8842229184662296,
                0.23517963745048087,
                -3.016930876157192
            ]
        },
        {
            "positions": [
                -0.0778177373904823,
                -1.443968270189248,
                2.191706470812613,
                -0.9227471403434604,
                0.19590245531453931,
                -3.1385728691940296
            ]
        },
        {
            "positions": [
                -0.011151650206919314,
                -1.3452838194597383,
                2.1232056152211056,
                -0.8989536373659286,
                0.17285142170582873,
                -3.137842061353216
            ]
        },
        {
            "positions": [
                0.05551443697664367,
                -1.2465993687302288,
                2.054704759629598,
                -0.8751601343883969,
                0.14980038809711818,
                -3.1371112535124026
            ]
        },
        {
            "positions": [
                0.12218052416020664,
                -1.147914918000719,
                1.9862039040380908,
                -0.8513666314108651,
                0.1267493544884076,
                -3.136380445671589
            ]
        }
    ]
}