{
    "goal": {
        "global_pose": {
            "orientation": {
                "w": 0.7047431468963623,
                "x": -0.7094548344612122,
                "y": 0.0024358443915843964,
                "z": -0.0022348060738295317
            },
            "position": {
                "x": 0.6094750761985779,
                "y": 0.3671506643295288,
                "z": 0.19426114857196808
            }
        },
        "name": "move_to_magneteinheit_A"
    },
    "id": "TRRT_move_to_magneteinheit_A_77",
    "joint_names": [
        "shoulder_pan_joint",
        "shoulder_lift_joint",
        "elbow_joint",
        "wrist_1_joint",
        "wrist_2_joint",
        "wrist_3_joint"
    ],
    "metrics": {
        "cart_traj_len": 1.876806238718672,
        "distance_elbow_joint": 3.9196037921979725,
        "distance_shoulder_lift_joint": 0.7029762890297865,
        "distance_shoulder_pan_joint": 1.2411026572842052,
        "distance_wrist_1_joint": 1.5108571224262872,
        "distance_wrist_2_joint": 1.700414019497761,
        "distance_wrist_3_joint": 1.141922309787431,
        "smoothness": 7.565964348038105e-16,
        "time": 0.064233788,
        "traj_len": 3.1963848626570996,
        "weighted_distance": 3.9638355101747544
    },
    "planner": "TRRT",
    "start": {
        "state": {
            "elbow_joint": -1.919643507792019,
            "shoulder_lift_joint": -0.07675430207160344,
            "shoulder_pan_joint": -1.1188671864651873,
            "wrist_1_joint": 0.42560062535961957,
            "wrist_2_joint": 1.5706038300724876,
            "wrist_3_joint": 1.1188968870953055
        }
    },
    "waypoints": [
        {
            "positions": [
                -1.1188671864651873,
                -0.07675430207160344,
                -1.919643507792019,
                0.42560062535961957,
                1.5706038300724876,
                1.1188968870953055
            ]
        },
        {
            "positions": [
                -1.0711324688773334,
                -0.10379185164967215,
                -1.7688895157844047,
                0.4837105146837075,
                1.5052032908610353,
                1.0749767982573275
            ]
        },
        {
            "positions": [
                -1.0233977512894792,
                -0.13082940122774087,
                -1.6181355237767905,
                0.5418204040077955,
                1.4398027516495828,
                1.0310567094193492
            ]
        },
        {
            "positions": [
                -0.9756630337016252,
                -0.1578669508058096,
                -1.467381531769176,
                0.5999302933318835,
                1.3744022124381305,
                0.9871366205813712
            ]
        },
        {
            "positions": [
                -0.9279283161137711,
                -0.1849045003838783,
                -1.3166275397615617,
                0.6580401826559714,
                1.3090016732266783,
                0.9432165317433931
            ]
        },
        {
            "positions": [
                -0.880193598525917,
                -0.21194204996194702,
                -1.1658735477539475,
                0.7161500719800594,
                1.243601134015226,
                0.899296442905415
            ]
        },
        {
            "positions": [
                -0.8324588809380631,
                -0.23897959954001574,
                -1.015119555746333,
                0.7742599613041474,
                1.1782005948037735,
                0.8553763540674368
            ]
        },
        {
            "positions": [
                -0.7847241633502091,
                -0.26601714911808444,
                -0.8643655637387189,
                0.8323698506282353,
                1.1128000555923212,
                0.8114562652294588
            ]
        },
        {
            "positions": [
                -0.7369894457623549,
                -0.2930546986961532,
                -0.7136115717311045,
                0.8904797399523234,
                1.0473995163808687,
                0.7675361763914806
            ]
        },
        {
            "positions": [
                -0.689254728174501,
                -0.3200922482742219,
                -0.5628575797234903,
                0.9485896292764113,
                0.9819989771694165,
                0.7236160875535025
            ]
        },
        {
            "positions": [
                -0.6415200105866469,
                -0.3471297978522906,
                -0.41210358771587563,
                1.0066995186004992,
                0.9165984379579641,
                0.6796959987155244
            ]
        },
        {
            "positions": [
                -0.5937852929987928,
                -0.3741673474303593,
                -0.26134959570826144,
                1.0648094079245873,
                0.8511978987465117,
                0.6357759098775464
            ]
        },
        {
            "positions": [
                -0.5460505754109387,
                -0.40120489700842804,
                -0.11059560370064703,
                1.1229192972486752,
                0.7857973595350594,
                0.5918558210395681
            ]
        },
        {
            "positions": [
                -0.49831585782308474,
                -0.42824244658649674,
                0.04015838830696716,
                1.1810291865727631,
                0.7203968203236071,
                0.5479357322015901
            ]
        },
        {
            "positions": [
                -0.45058114023523077,
                -0.45527999616456544,
                0.19091238031458135,
                1.239139075896851,
                0.6549962811121548,
                0.504015643363612
            ]
        },
        {
            "positions": [
                -0.4028464226473767,
                -0.48231754574263414,
                0.34166637232219554,
                1.2972489652209391,
                0.5895957419007025,
                0.4600955545256339
            ]
        },
        {
            "positions": [
                -0.3551117050595226,
                -0.5093550953207029,
                0.4924203643298102,
                1.3553588545450272,
                0.52419520268925,
                0.41617546568765573
            ]
        },
        {
            "positions": [
                -0.30737698747166853,
                -0.5363926448987716,
                0.6431743563374244,
                1.4134687438691151,
                0.45879466347779774,
                0.3722553768496776
            ]
        },
        {
            "positions": [
                -0.25964226988381456,
                -0.5634301944768403,
                0.7939283483450386,
                1.471578633193203,
                0.39339412426634546,
                0.32833528801169953
            ]
        },
        {
            "positions": [
                -0.21190755229596048,
                -0.5904677440549091,
                0.9446823403526527,
                1.529688522517291,
                0.32799358505489296,
                0.2844151991737215
            ]
        },
        {
            "positions": [
                -0.1641728347081064,
                -0.6175052936329777,
                1.0954363323602678,
                1.587798411841379,
                0.2625930458434407,
                0.24049511033574322
            ]
        },
        {
            "positions": [
                -0.11643811712025243,
                -0.6445428432110465,
                1.246190324367882,
                1.645908301165467,
                0.19719250663198817,
                0.19657502149776518
            ]
        },
        {
            "positions": [
                -0.06870339953239823,
                -0.6715803927891151,
                1.3969443163754962,
                1.704018190489555,
                0.1317919674205359,
                0.15265493265978713
            ]
        },
        {
            "positions": [
                -0.020968681944544265,
                -0.6986179423671839,
                1.5476983083831104,
                1.762128079813643,
                0.06639142820908361,
                0.10873484382180898
            ]
        },
        {
            "positions": [
                0.026766035643309927,
                -0.7256554919452527,
                1.698452300390725,
                1.820237969137731,
                0.000990888997631112,
                0.06481475498383071
            ]
        },
        {
            "positions": [
                0.0745007532311639,
                -0.7526930415233213,
                1.8492062923983392,
                1.878347858461819,
                -0.06440965021382117,
                0.02089466614585267
            ]
        },
        {
            "positions": [
                0.1222354708190179,
                -0.77973059110139,
                1.9999602844059536,
                1.9364577477859068,
                -0.1298101894252734,
                -0.023025422692125444
            ]
        }
    ]
}