{
    "goal": {
        "global_pose": {
            "orientation": {
                "w": 0.7047431468963623,
                "x": -0.7094548344612122,
                "y": 0.0024358443915843964,
                "z": -0.0022348060738295317
            },
            "position": {
                "x": 0.6094750761985779,
                "y": 0.3671506643295288,
                "z": 0.19426114857196808
            }
        },
        "name": "move_to_magneteinheit_A"
    },
    "id": "TRRT_move_to_magneteinheit_A_26",
    "joint_names": [
        "shoulder_pan_joint",
        "shoulder_lift_joint",
        "elbow_joint",
        "wrist_1_joint",
        "wrist_2_joint",
        "wrist_3_joint"
    ],
    "metrics": {
        "cart_traj_len": 2.0656410208546685,
        "distance_elbow_joint": 3.8867272837495173,
        "distance_shoulder_lift_joint": 1.061731837506955,
        "distance_shoulder_pan_joint": 1.2421688484311346,
        "distance_wrist_1_joint": 1.1734072902373622,
        "distance_wrist_2_joint": 1.430989124081566,
        "distance_wrist_3_joint": 1.9455944430385936,
        "smoothness": 3.981489473232051e-16,
        "time": 0.207709176,
        "traj_len": 3.2772883344382633,
        "weighted_distance": 4.151650771372906
    },
    "planner": "TRRT",
    "start": {
        "state": {
            "elbow_joint": -1.919643507792019,
            "shoulder_lift_joint": -0.07675430207160344,
            "shoulder_pan_joint": -1.1188671864651873,
            "wrist_1_joint": 0.42560062535961957,
            "wrist_2_joint": 1.5706038300724876,
            "wrist_3_joint": 1.1188968870953055
        }
    },
    "waypoints": [
        {
            "positions": [
                -1.1188671864651873,
                -0.07675430207160344,
                -1.919643507792019,
                0.42560062535961957,
                1.5706038300724876,
                1.1188968870953055
            ]
        },
        {
            "positions": [
                -1.0745040133069326,
                -0.1146732962682804,
                -1.7808318190866792,
                0.38369322213685664,
                1.5194970756410031,
                1.1883824029181125
            ]
        },
        {
            "positions": [
                -1.0301408401486778,
                -0.15259229046495737,
                -1.6420201303813393,
                0.3417858189140937,
                1.4683903212095186,
                1.2578679187409194
            ]
        },
        {
            "positions": [
                -0.9857776669904229,
                -0.19051128466163433,
                -1.5032084416759994,
                0.2998784156913308,
                1.4172835667780341,
                1.3273534345637263
            ]
        },
        {
            "positions": [
                -0.9414144938321681,
                -0.2284302788583113,
                -1.3643967529706595,
                0.2579710124685678,
                1.3661768123465496,
                1.3968389503865333
            ]
        },
        {
            "positions": [
                -0.8970513206739132,
                -0.2663492730549883,
                -1.2255850642653194,
                0.21606360924580487,
                1.3150700579150651,
                1.4663244662093402
            ]
        },
        {
            "positions": [
                -0.8526881475156585,
                -0.3042682672516652,
                -1.0867733755599798,
                0.17415620602304194,
                1.2639633034835807,
                1.5358099820321471
            ]
        },
        {
            "positions": [
                -0.8083249743574037,
                -0.3421872614483422,
                -0.9479616868546398,
                0.132248802800279,
                1.2128565490520962,
                1.605295497854954
            ]
        },
        {
            "positions": [
                -0.7639618011991489,
                -0.38010625564501915,
                -0.8091499981493,
                0.09034139957751608,
                1.1617497946206117,
                1.674781013677761
            ]
        },
        {
            "positions": [
                -0.719598628040894,
                -0.4180252498416962,
                -0.6703383094439599,
                0.048433996354753095,
                1.1106430401891272,
                1.744266529500568
            ]
        },
        {
            "positions": [
                -0.6752354548826393,
                -0.45594424403837314,
                -0.53152662073862,
                0.006526593131990166,
                1.0595362857576425,
                1.8137520453233749
            ]
        },
        {
            "positions": [
                -0.6308722817243845,
                -0.4938632382350501,
                -0.3927149320332801,
                -0.03538081009077271,
                1.0084295313261582,
                1.8832375611461816
            ]
        },
        {
            "positions": [
                -0.5865091085661297,
                -0.531782232431727,
                -0.25390324332794045,
                -0.07728821331353569,
                0.9573227768946736,
                1.9527230769689885
            ]
        },
        {
            "positions": [
                -0.5421459354078748,
                -0.5697012266284041,
                -0.11509155462260034,
                -0.11919561653629868,
                0.9062160224631891,
                2.022208592791795
            ]
        },
        {
            "positions": [
                -0.49778276224962004,
                -0.6076202208250809,
                0.02372013408273954,
                -0.16110301975906155,
                0.8551092680317046,
                2.091694108614602
            ]
        },
        {
            "positions": [
                -0.45341958909136526,
                -0.645539215021758,
                0.1625318227880792,
                -0.20301042298182442,
                0.8040025136002201,
                2.161179624437409
            ]
        },
        {
            "positions": [
                -0.4090564159331105,
                -0.6834582092184349,
                0.3013435114934191,
                -0.2449178262045874,
                0.7528957591687356,
                2.230665140260216
            ]
        },
        {
            "positions": [
                -0.3646932427748557,
                -0.7213772034151118,
                0.440155200198759,
                -0.2868252294273503,
                0.7017890047372511,
                2.300150656083023
            ]
        },
        {
            "positions": [
                -0.3203300696166007,
                -0.7592961976117889,
                0.5789668889040993,
                -0.3287326326501134,
                0.6506822503057665,
                2.36963617190583
            ]
        },
        {
            "positions": [
                -0.27596689645834593,
                -0.7972151918084658,
                0.7177785776094392,
                -0.37064003587287625,
                0.599575495874282,
                2.439121687728637
            ]
        },
        {
            "positions": [
                -0.23160372330009116,
                -0.8351341860051429,
                0.8565902663147791,
                -0.41254743909563923,
                0.5484687414427976,
                2.5086072035514437
            ]
        },
        {
            "positions": [
                -0.18724055014183638,
                -0.8730531802018198,
                0.995401955020119,
                -0.4544548423184021,
                0.49736198701131307,
                2.5780927193742507
            ]
        },
        {
            "positions": [
                -0.1428773769835816,
                -0.9109721743984966,
                1.1342136437254589,
                -0.496362245541165,
                0.4462552325798286,
                2.6475782351970576
            ]
        },
        {
            "positions": [
                -0.09851420382532683,
                -0.9488911685951738,
                1.2730253324307987,
                -0.538269648763928,
                0.3951484781483441,
                2.7170637510198645
            ]
        },
        {
            "positions": [
                -0.05415103066707205,
                -0.9868101627918506,
                1.4118370211361382,
                -0.5801770519866909,
                0.3440417237168596,
                2.7865492668426715
            ]
        },
        {
            "positions": [
                -0.009787857508817055,
                -1.0247291569885277,
                1.5506487098414785,
                -0.6220844552094538,
                0.2929349692853751,
                2.8560347826654784
            ]
        },
        {
            "positions": [
                0.03457531564943772,
                -1.0626481511852046,
                1.6894603985468184,
                -0.6639918584322169,
                0.2418282148538906,
                2.9255202984882853
            ]
        },
        {
            "positions": [
                0.0789384888076925,
                -1.1005671453818817,
                1.8282720872521583,
                -0.7058992616549797,
                0.19072146042240612,
                2.9950058143110923
            ]
        },
        {
            "positions": [
                0.1233016619659473,
                -1.1384861395785586,
                1.9670837759574982,
                -0.7478066648777427,
                0.13961470599092157,
                3.064491330133899
            ]
        }
    ]
}