{
    "goal": {
        "global_pose": {
            "orientation": {
                "w": 0.7047431468963623,
                "x": -0.7094548344612122,
                "y": 0.0024358443915843964,
                "z": -0.0022348060738295317
            },
            "position": {
                "x": 0.6094750761985779,
                "y": 0.3671506643295288,
                "z": 0.19426114857196808
            }
        },
        "name": "move_to_magneteinheit_A"
    },
    "id": "TRRT_move_to_magneteinheit_A_108",
    "joint_names": [
        "shoulder_pan_joint",
        "shoulder_lift_joint",
        "elbow_joint",
        "wrist_1_joint",
        "wrist_2_joint",
        "wrist_3_joint"
    ],
    "metrics": {
        "cart_traj_len": 2.0635299462010415,
        "distance_elbow_joint": 3.8750447496368716,
        "distance_shoulder_lift_joint": 1.053592009911464,
        "distance_shoulder_pan_joint": 1.2418620595897545,
        "distance_wrist_1_joint": 1.1418174531851735,
        "distance_wrist_2_joint": 1.4453671229244929,
        "distance_wrist_3_joint": 1.9095745596750162,
        "smoothness": 4.75809868779962e-16,
        "time": 0.092929738,
        "traj_len": 3.2660768446138513,
        "weighted_distance": 4.132020286782541
    },
    "planner": "TRRT",
    "start": {
        "state": {
            "elbow_joint": -1.919643507792019,
            "shoulder_lift_joint": -0.07675430207160344,
            "shoulder_pan_joint": -1.1188671864651873,
            "wrist_1_joint": 0.42560062535961957,
            "wrist_2_joint": 1.5706038300724876,
            "wrist_3_joint": 1.1188968870953055
        }
    },
    "waypoints": [
        {
            "positions": [
                -1.1188671864651873,
                -0.07675430207160344,
                -1.919643507792019,
                0.42560062535961957,
                1.5706038300724876,
                1.1188968870953055
            ]
        },
        {
            "positions": [
                -1.0728722953692704,
                -0.11577622836462062,
                -1.7761233318795424,
                0.383311090056465,
                1.5170717144086174,
                1.1896218707869728
            ]
        },
        {
            "positions": [
                -1.0268774042733537,
                -0.1547981546576378,
                -1.6326031559670657,
                0.3410215547533104,
                1.4635395987447475,
                1.26034685447864
            ]
        },
        {
            "positions": [
                -0.9808825131774368,
                -0.193820080950655,
                -1.4890829800545888,
                0.2987320194501558,
                1.4100074830808773,
                1.3310718381703073
            ]
        },
        {
            "positions": [
                -0.93488762208152,
                -0.23284200724367216,
                -1.3455628041421122,
                0.25644248414700127,
                1.3564753674170071,
                1.4017968218619745
            ]
        },
        {
            "positions": [
                -0.8888927309856032,
                -0.27186393353668936,
                -1.2020426282296355,
                0.21415294884384672,
                1.302943251753137,
                1.472521805553642
            ]
        },
        {
            "positions": [
                -0.8428978398896864,
                -0.3108858598297065,
                -1.0585224523171588,
                0.17186341354069212,
                1.249411136089267,
                1.543246789245309
            ]
        },
        {
            "positions": [
                -0.7969029487937695,
                -0.3499077861227237,
                -0.9150022764046821,
                0.12957387823753758,
                1.1958790204253968,
                1.6139717729369765
            ]
        },
        {
            "positions": [
                -0.7509080576978526,
                -0.38892971241574087,
                -0.7714821004922054,
                0.08728434293438297,
                1.142346904761527,
                1.6846967566286435
            ]
        },
        {
            "positions": [
                -0.7049131666019359,
                -0.4279516387087581,
                -0.6279619245797285,
                0.04499480763122843,
                1.0888147890976567,
                1.755421740320311
            ]
        },
        {
            "positions": [
                -0.658918275506019,
                -0.4669735650017753,
                -0.48444174866725187,
                0.002705272328073882,
                1.0352826734337865,
                1.8261467240119782
            ]
        },
        {
            "positions": [
                -0.6129233844101022,
                -0.5059954912947924,
                -0.3409215727547752,
                -0.03958426297508072,
                0.9817505577699165,
                1.8968717077036454
            ]
        },
        {
            "positions": [
                -0.5669284933141854,
                -0.5450174175878096,
                -0.19740139684229852,
                -0.08187379827823532,
                0.9282184421060463,
                1.9675966913953127
            ]
        },
        {
            "positions": [
                -0.5209336022182686,
                -0.5840393438808269,
                -0.05388122092982184,
                -0.12416333358138981,
                0.8746863264421763,
                2.03832167508698
            ]
        },
        {
            "positions": [
                -0.47493871112235175,
                -0.623061270173844,
                0.08963895498265484,
                -0.1664528688845444,
                0.8211542107783062,
                2.1090466587786474
            ]
        },
        {
            "positions": [
                -0.42894382002643483,
                -0.6620831964668612,
                0.23315913089513196,
                -0.20874240418769902,
                0.767622095114436,
                2.179771642470315
            ]
        },
        {
            "positions": [
                -0.382948928930518,
                -0.7011051227598784,
                0.3766793068076082,
                -0.2510319394908536,
                0.714089979450566,
                2.250496626161982
            ]
        },
        {
            "positions": [
                -0.3369540378346012,
                -0.7401270490528955,
                0.5201994827200853,
                -0.2933214747940082,
                0.6605578637866958,
                2.321221609853649
            ]
        },
        {
            "positions": [
                -0.2909591467386844,
                -0.7791489753459127,
                0.663719658632562,
                -0.3356110100971627,
                0.6070257481228257,
                2.3919465935453164
            ]
        },
        {
            "positions": [
                -0.24496425564276747,
                -0.81817090163893,
                0.8072398345450387,
                -0.3779005454003173,
                0.5534936324589557,
                2.462671577236984
            ]
        },
        {
            "positions": [
                -0.19896936454685077,
                -0.8571928279319472,
                0.9507600104575153,
                -0.4201900807034718,
                0.4999615167950855,
                2.533396560928651
            ]
        },
        {
            "positions": [
                -0.15297447345093385,
                -0.8962147542249643,
                1.094280186369992,
                -0.4624796160066265,
                0.4464294011312153,
                2.604121544620318
            ]
        },
        {
            "positions": [
                -0.10697958235501703,
                -0.9352366805179815,
                1.2378003622824687,
                -0.504769151309781,
                0.39289728546734537,
                2.6748465283119853
            ]
        },
        {
            "positions": [
                -0.06098469125910011,
                -0.9742586068109986,
                1.3813205381949458,
                -0.5470586866129357,
                0.3393651698034752,
                2.745571512003653
            ]
        },
        {
            "positions": [
                -0.014989800163183409,
                -1.0132805331040158,
                1.524840714107422,
                -0.5893482219160902,
                0.285833054139605,
                2.81629649569532
            ]
        },
        {
            "positions": [
                0.031005090932733514,
                -1.052302459397033,
                1.6683608900198992,
                -0.6316377572192446,
                0.23230093847573485,
                2.8870214793869873
            ]
        },
        {
            "positions": [
                0.07699998202865022,
                -1.0913243856900503,
                1.8118810659323754,
                -0.6739272925223991,
                0.1787688228118649,
                2.9577464630786543
            ]
        },
        {
            "positions": [
                0.12299487312456717,
                -1.1303463119830675,
                1.9554012418448525,
                -0.7162168278255538,
                0.12523670714799462,
                3.0284714467703218
            ]
        }
    ]
}