{
    "goal": {
        "global_pose": {
            "orientation": {
                "w": 0.5084816217422485,
                "x": -0.49083608388900757,
                "y": 0.5182115435600281,
                "z": -0.4816462993621826
            },
            "position": {
                "x": 0.5540239810943604,
                "y": 0.030875300988554955,
                "z": 0.16403168439865112
            }
        },
        "name": "move_to_storage_A"
    },
    "id": "TRRT_move_to_storage_A_119",
    "joint_names": [
        "shoulder_pan_joint",
        "shoulder_lift_joint",
        "elbow_joint",
        "wrist_1_joint",
        "wrist_2_joint",
        "wrist_3_joint"
    ],
    "metrics": {
        "cart_traj_len": 0.3531106389670664,
        "distance_elbow_joint": 0.451718098061781,
        "distance_shoulder_lift_joint": 0.2345802112531561,
        "distance_shoulder_pan_joint": 0.46136008595471045,
        "distance_wrist_1_joint": 0.24875667725608774,
        "distance_wrist_2_joint": 1.100916164539727,
        "distance_wrist_3_joint": 0.10617174873666446,
        "smoothness": 4.440892098500626e-16,
        "time": 0.030617498,
        "traj_len": 1.6135374138216092,
        "weighted_distance": 2.0409603928227686
    },
    "planner": "TRRT",
    "start": {
        "state": {
            "elbow_joint": 1.9715463870305268,
            "shoulder_lift_joint": -1.1394903361783484,
            "shoulder_pan_joint": 0.12281147578464417,
            "wrist_1_joint": -0.7804599489681411,
            "wrist_2_joint": 0.12958660307563738,
            "wrist_3_joint": -3.1924946282119055
        }
    },
    "waypoints": [
        {
            "positions": [
                0.12281147578464417,
                -1.1394903361783484,
                1.9715463870305268,
                -0.7804599489681411,
                0.12958660307563738,
                -3.1924946282119055
            ]
        },
        {
            "positions": [
                0.0569028920768284,
                -1.1730017949287992,
                2.0360775438964955,
                -0.8159966171475822,
                0.28686034086702694,
                -3.1773272355352393
            ]
        },
        {
            "positions": [
                -0.00900569163098737,
                -1.2065132536792502,
                2.1006087007624643,
                -0.8515332853270233,
                0.4441340786584165,
                -3.1621598428585727
            ]
        },
        {
            "positions": [
                -0.07491427533880314,
                -1.240024712429701,
                2.165139857628433,
                -0.8870699535064643,
                0.601407816449806,
                -3.1469924501819064
            ]
        },
        {
            "positions": [
                -0.1408228590466189,
                -1.2735361711801518,
                2.2296710144944014,
                -0.9226066216859055,
                0.7586815542411957,
                -3.13182505750524
            ]
        },
        {
            "positions": [
                -0.20673144275443472,
                -1.3070476299306026,
                2.29420217136037,
                -0.9581432898653466,
                0.9159552920325853,
                -3.116657664828574
            ]
        },
        {
            "positions": [
                -0.27264002646225044,
                -1.3405590886810537,
                2.358733328226339,
                -0.9936799580447877,
                1.0732290298239746,
                -3.1014902721519073
            ]
        },
        {
            "positions": [
                -0.33854861017006627,
                -1.3740705474315045,
                2.4232644850923077,
                -1.0292166262242288,
                1.2305027676153644,
                -3.086322879475241
            ]
        }
    ]
}