{
    "goal": {
        "global_pose": {
            "orientation": {
                "w": 0.7031023502349854,
                "x": -0.7110244035720825,
                "y": 0.007748599164187908,
                "z": 0.005598929710686207
            },
            "position": {
                "x": 0.11585023208521307,
                "y": 0.44412534475326537,
                "z": 0.3711530566215515
            }
        },
        "name": "move_to_auspresseinheit_A"
    },
    "id": "TRRT_move_to_auspresseinheit_A_10",
    "joint_names": [
        "shoulder_pan_joint",
        "shoulder_lift_joint",
        "elbow_joint",
        "wrist_1_joint",
        "wrist_2_joint",
        "wrist_3_joint"
    ],
    "metrics": {
        "cart_traj_len": 2.0552373926677983,
        "distance_elbow_joint": 0.9966475525974641,
        "distance_shoulder_lift_joint": 0.8139460539769121,
        "distance_shoulder_pan_joint": 3.3672608103839003,
        "distance_wrist_1_joint": 7.106048035216549,
        "distance_wrist_2_joint": 5.111452175209111,
        "distance_wrist_3_joint": 6.691213476514493,
        "smoothness": 0.5438576106624773,
        "time": 0.124331739,
        "traj_len": 4.9078068527498555,
        "weighted_distance": 7.048864821185965
    },
    "planner": "TRRT",
    "start": {
        "state": {
            "elbow_joint": 2.422574709923281,
            "shoulder_lift_joint": -1.3736533754116391,
            "shoulder_pan_joint": -0.33786336945926293,
            "wrist_1_joint": -1.0288603412921917,
            "wrist_2_joint": 1.2330224858903978,
            "wrist_3_joint": -3.094022268022082
        }
    },
    "waypoints": [
        {
            "positions": [
                -0.33786336945926293,
                -1.3736533754116391,
                2.422574709923281,
                -1.0288603412921917,
                1.2330224858903978,
                -3.094022268022082
            ]
        },
        {
            "positions": [
                -0.3741388205385244,
                -1.3948036011507616,
                2.4066159770142113,
                -0.909246398066373,
                1.1450752846841494,
                -2.989887658289164
            ]
        },
        {
            "positions": [
                -0.4104142716177858,
                -1.4159538268898841,
                2.3906572441051415,
                -0.7896324548405542,
                1.057128083477901,
                -2.885753048556246
            ]
        },
        {
            "positions": [
                -0.4466897226970472,
                -1.4371040526290064,
                2.3746985111960717,
                -0.6700185116147355,
                0.9691808822716527,
                -2.781618438823328
            ]
        },
        {
            "positions": [
                -0.48296517377630865,
                -1.458254278368129,
                2.358739778287002,
                -0.5504045683889167,
                0.8812336810654043,
                -2.6774838290904097
            ]
        },
        {
            "positions": [
                -0.5192406248555701,
                -1.4794045041072514,
                2.342781045377932,
                -0.43079062516309785,
                0.793286479859156,
                -2.5733492193574916
            ]
        },
        {
            "positions": [
                -0.5555160759348315,
                -1.500554729846374,
                2.3268223124688623,
                -0.3111766819372791,
                0.7053392786529076,
                -2.4692146096245735
            ]
        },
        {
            "positions": [
                -0.591791527014093,
                -1.5217049555854965,
                2.3108635795597925,
                -0.19156273871146035,
                0.6173920774466592,
                -2.3650799998916554
            ]
        },
        {
            "positions": [
                -0.6280669780933544,
                -1.5428551813246187,
                2.2949048466507227,
                -0.07194879548564159,
                0.5294448762404109,
                -2.2609453901587373
            ]
        },
        {
            "positions": [
                -0.6643424291726159,
                -1.5640054070637412,
                2.2789461137416525,
                0.04766514774017727,
                0.4414976750341626,
                -2.156810780425819
            ]
        },
        {
            "positions": [
                -0.7006178802518773,
                -1.5851556328028638,
                2.2629873808325827,
                0.16727909096599602,
                0.35355047382791427,
                -2.0526761706929006
            ]
        },
        {
            "positions": [
                -0.7368933313311388,
                -1.6063058585419863,
                2.247028647923513,
                0.2868930341918148,
                0.26560327262166583,
                -1.9485415609599828
            ]
        },
        {
            "positions": [
                -0.7731687824104001,
                -1.6274560842811088,
                2.231069915014443,
                0.40650697741763353,
                0.1776560714154174,
                -1.8444069512270647
            ]
        },
        {
            "positions": [
                -0.8094442334896617,
                -1.6486063100202313,
                2.2151111821053733,
                0.5261209206434523,
                0.08970887020916907,
                -1.7402723414941466
            ]
        },
        {
            "positions": [
                -0.845719684568923,
                -1.6697565357593538,
                2.1991524491963035,
                0.645734863869271,
                0.0017616690029207405,
                -1.6361377317612285
            ]
        },
        {
            "positions": [
                -0.8819951356481845,
                -1.690906761498476,
                2.1831937162872337,
                0.7653488070950898,
                -0.08618553220332759,
                -1.5320031220283103
            ]
        },
        {
            "positions": [
                -0.9182705867274459,
                -1.7120569872375986,
                2.167234983378164,
                0.8849627503209085,
                -0.1741327334095759,
                -1.4278685122953922
            ]
        },
        {
            "positions": [
                -0.9545460378067074,
                -1.733207212976721,
                2.151276250469094,
                1.0045766935467273,
                -0.26207993461582424,
                -1.3237339025624741
            ]
        },
        {
            "positions": [
                -0.9908214888859688,
                -1.7543574387158434,
                2.1353175175600243,
                1.1241906367725463,
                -0.35002713582207257,
                -1.219599292829556
            ]
        },
        {
            "positions": [
                -1.0270969399652303,
                -1.7755076644549659,
                2.1193587846509545,
                1.2438045799983648,
                -0.4379743370283209,
                -1.115464683096638
            ]
        },
        {
            "positions": [
                -1.0633723910444917,
                -1.7966578901940884,
                2.1034000517418847,
                1.3634185232241838,
                -0.5259215382345692,
                -1.0113300733637196
            ]
        },
        {
            "positions": [
                -1.0996478421237532,
                -1.817808115933211,
                2.087441318832815,
                1.4830324664500023,
                -0.6138687394408178,
                -0.9071954636308015
            ]
        },
        {
            "positions": [
                -1.1359232932030146,
                -1.8389583416723334,
                2.071482585923745,
                1.6026464096758213,
                -0.7018159406470661,
                -0.8030608538978834
            ]
        },
        {
            "positions": [
                -1.172198744282276,
                -1.860108567411456,
                2.055523853014675,
                1.7222603529016398,
                -0.7897631418533142,
                -0.6989262441649653
            ]
        },
        {
            "positions": [
                -1.2084741953615374,
                -1.8812587931505784,
                2.039565120105605,
                1.8418742961274588,
                -0.877710343059563,
                -0.5947916344320472
            ]
        },
        {
            "positions": [
                -1.2447496464407988,
                -1.902409018889701,
                2.0236063871965353,
                1.9614882393532773,
                -0.9656575442658113,
                -0.4906570246991291
            ]
        },
        {
            "positions": [
                -1.2810250975200603,
                -1.9235592446288232,
                2.0076476542874655,
                2.0811021825790963,
                -1.0536047454720596,
                -0.386522414966211
            ]
        },
        {
            "positions": [
                -1.3173005485993217,
                -1.9447094703679457,
                1.9916889213783957,
                2.200716125804915,
                -1.141551946678308,
                -0.2823878052332929
            ]
        },
        {
            "positions": [
                -1.3535759996785832,
                -1.9658596961070682,
                1.975730188469326,
                2.320330069030734,
                -1.2294991478845563,
                -0.17825319550037477
            ]
        },
        {
            "positions": [
                -1.3898514507578448,
                -1.9870099218461905,
                1.9597714555602561,
                2.4399440122565523,
                -1.3174463490908046,
                -0.07411858576745667
            ]
        },
        {
            "positions": [
                -1.426126901837106,
                -2.008160147585313,
                1.9438127226511863,
                2.5595579554823713,
                -1.405393550297053,
                0.030016023965461436
            ]
        },
        {
            "positions": [
                -1.4624023529163677,
                -2.0293103733244355,
                1.9278539897421165,
                2.67917189870819,
                -1.4933407515033013,
                0.13415063369837954
            ]
        },
        {
            "positions": [
                -1.498677803995629,
                -2.050460599063558,
                1.9118952568330467,
                2.798785841934009,
                -1.5812879527095498,
                0.23828524343129764
            ]
        },
        {
            "positions": [
                -1.4251295914673778,
                -2.045889304719392,
                1.9280941934832878,
                2.6895057802009976,
                -1.5047165614892444,
                0.1263217112625939
            ]
        },
        {
            "positions": [
                -1.3515813789391267,
                -2.041318010375225,
                1.9442931301335287,
                2.580225718467986,
                -1.428145170268939,
                0.014358179093890117
            ]
        },
        {
            "positions": [
                -1.2780331664108755,
                -2.036746716031059,
                1.9604920667837697,
                2.470945656734975,
                -1.3515737790486333,
                -0.09760535307481366
            ]
        },
        {
            "positions": [
                -1.2044849538826243,
                -2.032175421686892,
                1.9766910034340106,
                2.361665595001963,
                -1.2750023878283279,
                -0.2095688852435174
            ]
        },
        {
            "positions": [
                -1.1309367413543734,
                -2.027604127342726,
                1.9928899400842517,
                2.252385533268952,
                -1.1984309966080224,
                -0.32153241741222116
            ]
        },
        {
            "positions": [
                -1.0573885288261222,
                -2.0230328329985596,
                2.0090888767344928,
                2.1431054715359403,
                -1.121859605387717,
                -0.43349594958092497
            ]
        },
        {
            "positions": [
                -0.983840316297871,
                -2.018461538654393,
                2.025287813384734,
                2.033825409802929,
                -1.0452882141674116,
                -0.5454594817496287
            ]
        },
        {
            "positions": [
                -0.9102921037696199,
                -2.0138902443102267,
                2.0414867500349745,
                1.9245453480699177,
                -0.9687168229471061,
                -0.6574230139183325
            ]
        },
        {
            "positions": [
                -0.8367438912413688,
                -2.00931894996606,
                2.0576856866852156,
                1.8152652863369063,
                -0.8921454317268007,
                -0.7693865460870362
            ]
        },
        {
            "positions": [
                -0.7631956787131177,
                -2.0047476556218937,
                2.0738846233354566,
                1.7059852246038951,
                -0.8155740405064953,
                -0.88135007825574
            ]
        },
        {
            "positions": [
                -0.6896474661848665,
                -2.000176361277727,
                2.0900835599856977,
                1.5967051628708837,
                -0.7390026492861899,
                -0.9933136104244435
            ]
        },
        {
            "positions": [
                -0.6160992536566153,
                -1.9956050669335608,
                2.106282496635939,
                1.487425101137872,
                -0.6624312580658842,
                -1.1052771425931476
            ]
        },
        {
            "positions": [
                -0.5425510411283642,
                -1.9910337725893943,
                2.1224814332861794,
                1.3781450394048609,
                -0.5858598668455788,
                -1.2172406747618514
            ]
        },
        {
            "positions": [
                -0.4690028286001131,
                -1.9864624782452278,
                2.1386803699364205,
                1.2688649776718495,
                -0.5092884756252734,
                -1.329204206930555
            ]
        },
        {
            "positions": [
                -0.39545461607186194,
                -1.9818911839010616,
                2.1548793065866616,
                1.159584915938838,
                -0.4327170844049679,
                -1.4411677390992588
            ]
        },
        {
            "positions": [
                -0.3219064035436108,
                -1.977319889556895,
                2.1710782432369027,
                1.0503048542058266,
                -0.3561456931846625,
                -1.5531312712679626
            ]
        },
        {
            "positions": [
                -0.2483581910153596,
                -1.9727485952127286,
                2.1872771798871438,
                0.9410247924728152,
                -0.27957430196435706,
                -1.6650948034366662
            ]
        },
        {
            "positions": [
                -0.17480997848710866,
                -1.9681773008685621,
                2.2034761165373844,
                0.831744730739804,
                -0.20300291074405163,
                -1.77705833560537
            ]
        },
        {
            "positions": [
                -0.1012617659588575,
                -1.9636060065243957,
                2.2196750531876255,
                0.7224646690067926,
                -0.1264315195237462,
                -1.8890218677740735
            ]
        },
        {
            "positions": [
                -0.02771355343060633,
                -1.9590347121802292,
                2.2358739898378666,
                0.6131846072737814,
                -0.049860128303440776,
                -2.0009853999427776
            ]
        },
        {
            "positions": [
                0.045834659097644836,
                -1.9544634178360627,
                2.2520729264881076,
                0.5039045455407698,
                0.026711262916864653,
                -2.112948932111481
            ]
        },
        {
            "positions": [
                0.119382871625896,
                -1.9498921234918964,
                2.2682718631383487,
                0.3946244838077586,
                0.10328265413717008,
                -2.2249124642801847
            ]
        },
        {
            "positions": [
                0.19293108415414717,
                -1.94532082914773,
                2.28447079978859,
                0.285344422074747,
                0.17985404535747596,
                -2.336875996448889
            ]
        },
        {
            "positions": [
                0.26647929668239834,
                -1.9407495348035635,
                2.3006697364388304,
                0.17606436034173534,
                0.2564254365777814,
                -2.448839528617593
            ]
        },
        {
            "positions": [
                0.3400275092106495,
                -1.936178240459397,
                2.3168686730890715,
                0.06678429860872415,
                0.3329968277980868,
                -2.5608030607862964
            ]
        },
        {
            "positions": [
                0.41357572173890067,
                -1.9316069461152305,
                2.3330676097393126,
                -0.042495763124287045,
                0.40956821901839224,
                -2.6727665929550004
            ]
        },
        {
            "positions": [
                0.48712393426715184,
                -1.9270356517710643,
                2.3492665463895537,
                -0.15177582485729868,
                0.4861396102386977,
                -2.784730125123704
            ]
        },
        {
            "positions": [
                0.5606721467954028,
                -1.9224643574268978,
                2.3654654830397943,
                -0.26105588659030987,
                0.5627110014590031,
                -2.8966936572924076
            ]
        },
        {
            "positions": [
                0.634220359323654,
                -1.9178930630827313,
                2.3816644196900354,
                -0.3703359483233215,
                0.6392823926793085,
                -3.0086571894611116
            ]
        },
        {
            "positions": [
                0.7077685718519051,
                -1.9133217687385649,
                2.3978633563402765,
                -0.47961601005633275,
                0.7158537838996137,
                -3.120620721629815
            ]
        }
    ]
}