{
    "goal": {
        "global_pose": {
            "orientation": {
                "w": 0.5084816217422485,
                "x": -0.49083608388900757,
                "y": 0.5182115435600281,
                "z": -0.4816462993621826
            },
            "position": {
                "x": 0.5540239810943604,
                "y": 0.030875300988554955,
                "z": 0.16403168439865112
            }
        },
        "name": "move_to_storage_A"
    },
    "id": "TRRT_move_to_storage_A_63",
    "joint_names": [
        "shoulder_pan_joint",
        "shoulder_lift_joint",
        "elbow_joint",
        "wrist_1_joint",
        "wrist_2_joint",
        "wrist_3_joint"
    ],
    "metrics": {
        "cart_traj_len": 0.35350999380371434,
        "distance_elbow_joint": 0.45109487852059704,
        "distance_shoulder_lift_joint": 0.2346230545543695,
        "distance_shoulder_pan_joint": 0.4615456928096166,
        "distance_wrist_1_joint": 0.24859250564026703,
        "distance_wrist_2_joint": 1.1028239058177656,
        "distance_wrist_3_joint": 0.10725568586932033,
        "smoothness": 0.0,
        "time": 0.028324365,
        "traj_len": 1.614291089987161,
        "weighted_distance": 2.0425140162086057
    },
    "planner": "TRRT",
    "start": {
        "state": {
            "elbow_joint": 1.9715463870305268,
            "shoulder_lift_joint": -1.1394903361783484,
            "shoulder_pan_joint": 0.12281147578464417,
            "wrist_1_joint": -0.7804599489681411,
            "wrist_2_joint": 0.12958660307563738,
            "wrist_3_joint": -3.1924946282119055
        }
    },
    "waypoints": [
        {
            "positions": [
                0.12281147578464417,
                -1.1394903361783484,
                1.9715463870305268,
                -0.7804599489681411,
                0.12958660307563738,
                -3.1924946282119055
            ]
        },
        {
            "positions": [
                0.05687637681184181,
                -1.1730079154004012,
                2.035988512533469,
                -0.8159731640596078,
                0.28713287533531817,
                -3.177172387373431
            ]
        },
        {
            "positions": [
                -0.009058722160960556,
                -1.206525494622454,
                2.1004306380364115,
                -0.8514863791510745,
                0.44467914759499894,
                -3.161850146534957
            ]
        },
        {
            "positions": [
                -0.07499382113376292,
                -1.2400430738445067,
                2.164872763539354,
                -0.8869995942425413,
                0.6022254198546797,
                -3.1465279056964826
            ]
        },
        {
            "positions": [
                -0.14092892010656527,
                -1.2735606530665595,
                2.2293148890422962,
                -0.9225128093340079,
                0.7597716921143606,
                -3.131205664858008
            ]
        },
        {
            "positions": [
                -0.2068640190793677,
                -1.3070782322886123,
                2.293757014545239,
                -0.9580260244254747,
                0.9173179643740415,
                -3.115883424019534
            ]
        },
        {
            "positions": [
                -0.27279911805217,
                -1.340595811510665,
                2.3581991400481814,
                -0.9935392395169413,
                1.074864236633722,
                -3.1005611831810596
            ]
        },
        {
            "positions": [
                -0.3387342170249724,
                -1.3741133907327179,
                2.422641265551124,
                -1.029052454608408,
                1.232410508893403,
                -3.0852389423425852
            ]
        }
    ]
}