{
    "goal": {
        "global_pose": {
            "orientation": {
                "w": 0.7047431468963623,
                "x": -0.7094548344612122,
                "y": 0.0024358443915843964,
                "z": -0.0022348060738295317
            },
            "position": {
                "x": 0.6094750761985779,
                "y": 0.3671506643295288,
                "z": 0.19426114857196808
            }
        },
        "name": "move_to_magneteinheit_A"
    },
    "id": "TRRT_move_to_magneteinheit_A_19",
    "joint_names": [
        "shoulder_pan_joint",
        "shoulder_lift_joint",
        "elbow_joint",
        "wrist_1_joint",
        "wrist_2_joint",
        "wrist_3_joint"
    ],
    "metrics": {
        "cart_traj_len": 1.8798966736070724,
        "distance_elbow_joint": 3.9109359167997093,
        "distance_shoulder_lift_joint": 0.7002043140290857,
        "distance_shoulder_pan_joint": 1.2413790122122912,
        "distance_wrist_1_joint": 1.4775904212754962,
        "distance_wrist_2_joint": 1.706128952943287,
        "distance_wrist_3_joint": 1.1046361702966707,
        "smoothness": 5.592234492296644e-16,
        "time": 1.59652992,
        "traj_len": 3.1844740205497892,
        "weighted_distance": 3.94130264029149
    },
    "planner": "TRRT",
    "start": {
        "state": {
            "elbow_joint": -1.919643507792019,
            "shoulder_lift_joint": -0.07675430207160344,
            "shoulder_pan_joint": -1.1188671864651873,
            "wrist_1_joint": 0.42560062535961957,
            "wrist_2_joint": 1.5706038300724876,
            "wrist_3_joint": 1.1188968870953055
        }
    },
    "waypoints": [
        {
            "positions": [
                -1.1188671864651873,
                -0.07675430207160344,
                -1.919643507792019,
                0.42560062535961957,
                1.5706038300724876,
                1.1188968870953055
            ]
        },
        {
            "positions": [
                -1.0711218398416378,
                -0.10368523722656828,
                -1.769222895607415,
                0.4824310261779079,
                1.504983485728515,
                1.0764108805454335
            ]
        },
        {
            "positions": [
                -1.023376493218088,
                -0.1306161723815331,
                -1.6188022834228106,
                0.5392614269961962,
                1.4393631413845425,
                1.0339248739955615
            ]
        },
        {
            "positions": [
                -0.9756311465945384,
                -0.15754710753649795,
                -1.4683816712382065,
                0.5960918278144846,
                1.3737427970405698,
                0.9914388674456897
            ]
        },
        {
            "positions": [
                -0.9278857999709886,
                -0.18447804269146278,
                -1.3179610590536024,
                0.6529222286327728,
                1.3081224526965973,
                0.9489528608958178
            ]
        },
        {
            "positions": [
                -0.8801404533474391,
                -0.21140897784642762,
                -1.167540446868998,
                0.7097526294510612,
                1.2425021083526246,
                0.9064668543459458
            ]
        },
        {
            "positions": [
                -0.8323951067238894,
                -0.23833991300139246,
                -1.0171198346843937,
                0.7665830302693495,
                1.1768817640086522,
                0.8639808477960738
            ]
        },
        {
            "positions": [
                -0.7846497601003397,
                -0.26527084815635726,
                -0.8666992224997898,
                0.8234134310876378,
                1.1112614196646795,
                0.821494841246202
            ]
        },
        {
            "positions": [
                -0.73690441347679,
                -0.2922017833113221,
                -0.7162786103151855,
                0.8802438319059261,
                1.0456410753207068,
                0.77900883469633
            ]
        },
        {
            "positions": [
                -0.6891590668532404,
                -0.31913271846628694,
                -0.5658579981305814,
                0.9370742327242143,
                0.9800207309767344,
                0.736522828146458
            ]
        },
        {
            "positions": [
                -0.6414137202296908,
                -0.3460636536212518,
                -0.415437385945977,
                0.9939046335425028,
                0.9144003866327618,
                0.694036821596586
            ]
        },
        {
            "positions": [
                -0.5936683736061411,
                -0.3729945887762166,
                -0.2650167737613729,
                1.050735034360791,
                0.8487800422887892,
                0.6515508150467141
            ]
        },
        {
            "positions": [
                -0.5459230269825914,
                -0.39992552393118147,
                -0.11459616157676855,
                1.1075654351790793,
                0.7831596979448167,
                0.6090648084968421
            ]
        },
        {
            "positions": [
                -0.49817768035904175,
                -0.4268564590861463,
                0.03582445060783557,
                1.1643958359973676,
                0.7175393536008441,
                0.5665788019469702
            ]
        },
        {
            "positions": [
                -0.4504323337354921,
                -0.4537873942411111,
                0.18624506279243946,
                1.221226236815656,
                0.6519190092568715,
                0.5240927953970983
            ]
        },
        {
            "positions": [
                -0.4026869871119425,
                -0.4807183293960759,
                0.3366656749770438,
                1.2780566376339442,
                0.5862986649128991,
                0.4816067888472263
            ]
        },
        {
            "positions": [
                -0.3549416404883927,
                -0.5076492645510409,
                0.48708628716164815,
                1.3348870384522327,
                0.5206783205689263,
                0.4391207822973543
            ]
        },
        {
            "positions": [
                -0.30719629386484315,
                -0.5345801997060056,
                0.6375068993462525,
                1.391717439270521,
                0.4550579762249538,
                0.3966347757474824
            ]
        },
        {
            "positions": [
                -0.2594509472412935,
                -0.5615111348609705,
                0.7879275115308564,
                1.4485478400888092,
                0.3894376318809811,
                0.3541487691976104
            ]
        },
        {
            "positions": [
                -0.2117056006177438,
                -0.5884420700159352,
                0.9383481237154607,
                1.5053782409070975,
                0.32381728753700867,
                0.3116627626477385
            ]
        },
        {
            "positions": [
                -0.16396025399419412,
                -0.6153730051709001,
                1.088768735900065,
                1.562208641725386,
                0.258196943193036,
                0.2691767560978665
            ]
        },
        {
            "positions": [
                -0.11621490737064444,
                -0.642303940325865,
                1.2391893480846694,
                1.6190390425436743,
                0.19257659884906353,
                0.22669074954799462
            ]
        },
        {
            "positions": [
                -0.06846956074709487,
                -0.6692348754808297,
                1.3896099602692733,
                1.6758694433619625,
                0.12695625450509085,
                0.18420474299812262
            ]
        },
        {
            "positions": [
                -0.02072421412354508,
                -0.6961658106357946,
                1.5400305724538776,
                1.7326998441802508,
                0.06133591016111839,
                0.14171873644825073
            ]
        },
        {
            "positions": [
                0.027021132500004486,
                -0.7230967457907596,
                1.690451184638482,
                1.7895302449985393,
                -0.004284434182854291,
                0.09923272989837861
            ]
        },
        {
            "positions": [
                0.07476647912355427,
                -0.7500276809457243,
                1.8408717968230863,
                1.8463606458168276,
                -0.06990477852682697,
                0.05674672334850683
            ]
        },
        {
            "positions": [
                0.1225118257471038,
                -0.7769586161006892,
                1.9912924090076904,
                1.9031910466351158,
                -0.13552512287079932,
                0.014260716798634738
            ]
        }
    ]
}