{
    "goal": {
        "global_pose": {
            "orientation": {
                "w": 0.7031023502349854,
                "x": -0.7110244035720825,
                "y": 0.007748599164187908,
                "z": 0.005598929710686207
            },
            "position": {
                "x": 0.11585023208521307,
                "y": 0.44412534475326537,
                "z": 0.3711530566215515
            }
        },
        "name": "move_to_auspresseinheit_A"
    },
    "id": "TRRT_move_to_auspresseinheit_A_145",
    "joint_names": [
        "shoulder_pan_joint",
        "shoulder_lift_joint",
        "elbow_joint",
        "wrist_1_joint",
        "wrist_2_joint",
        "wrist_3_joint"
    ],
    "metrics": {
        "cart_traj_len": 2.1012855254015474,
        "distance_elbow_joint": 1.4347873180703923,
        "distance_shoulder_lift_joint": 1.1250206145379142,
        "distance_shoulder_pan_joint": 1.4223070230777575,
        "distance_wrist_1_joint": 5.885760204118514,
        "distance_wrist_2_joint": 2.809620954258794,
        "distance_wrist_3_joint": 0.2681102052233335,
        "smoothness": 0.9154132369112543,
        "time": 0.063960006,
        "traj_len": 3.5980003223021955,
        "weighted_distance": 4.709268296467157
    },
    "planner": "TRRT",
    "start": {
        "state": {
            "elbow_joint": 2.422574709923281,
            "shoulder_lift_joint": -1.3736533754116391,
            "shoulder_pan_joint": -0.33786336945926293,
            "wrist_1_joint": -1.0288603412921917,
            "wrist_2_joint": 1.2330224858903978,
            "wrist_3_joint": -3.094022268022082
        }
    },
    "waypoints": [
        {
            "positions": [
                -0.33786336945926293,
                -1.3736533754116391,
                2.422574709923281,
                -1.0288603412921917,
                1.2330224858903978,
                -3.094022268022082
            ]
        },
        {
            "positions": [
                -0.2762166928151575,
                -1.4151913163427416,
                2.3860440516861927,
                -0.8679890074605587,
                1.1496892859730257,
                -3.0879363252648986
            ]
        },
        {
            "positions": [
                -0.21457001617105198,
                -1.4567292572738444,
                2.3495133934491044,
                -0.7071176736289259,
                1.0663560860556536,
                -3.081850382507715
            ]
        },
        {
            "positions": [
                -0.15292333952694653,
                -1.498267198204947,
                2.312982735212016,
                -0.546246339797293,
                0.9830228861382816,
                -3.0757644397505315
            ]
        },
        {
            "positions": [
                -0.09127666288284103,
                -1.5398051391360497,
                2.2764520769749277,
                -0.38537500596566,
                0.8996896862209096,
                -3.069678496993348
            ]
        },
        {
            "positions": [
                -0.029629986238735584,
                -1.5813430800671522,
                2.239921418737839,
                -0.2245036721340271,
                0.8163564863035375,
                -3.0635925542361644
            ]
        },
        {
            "positions": [
                0.03201669040536986,
                -1.6228810209982547,
                2.2033907605007506,
                -0.06363233830239423,
                0.7330232863861654,
                -3.057506611478981
            ]
        },
        {
            "positions": [
                0.09366336704947531,
                -1.6644189619293575,
                2.166860102263662,
                0.09723899552923876,
                0.6496900864687934,
                -3.0514206687217973
            ]
        },
        {
            "positions": [
                0.15531004369358087,
                -1.70595690286046,
                2.130329444026574,
                0.25811032936087175,
                0.5663568865514214,
                -3.0453347259646137
            ]
        },
        {
            "positions": [
                0.21695672033768626,
                -1.7474948437915627,
                2.0937987857894855,
                0.4189816631925045,
                0.48302368663404927,
                -3.03924878320743
            ]
        },
        {
            "positions": [
                0.27860339698179176,
                -1.7890327847226652,
                2.057268127552397,
                0.5798529970241375,
                0.3996904867166773,
                -3.0331628404502466
            ]
        },
        {
            "positions": [
                0.34025007362589726,
                -1.830570725653768,
                2.020737469315309,
                0.7407243308557705,
                0.3163572867993052,
                -3.027076897693063
            ]
        },
        {
            "positions": [
                0.40189675027000266,
                -1.8721086665848705,
                1.9842068110782205,
                0.9015956646874033,
                0.2330240868819332,
                -3.0209909549358795
            ]
        },
        {
            "positions": [
                0.46354342691410816,
                -1.913646607515973,
                1.947676152841132,
                1.0624669985190365,
                0.149690886964561,
                -3.014905012178696
            ]
        },
        {
            "positions": [
                0.5251901035582136,
                -1.9551845484470758,
                1.9111454946040438,
                1.2233383323506692,
                0.06635768704718914,
                -3.0088190694215124
            ]
        },
        {
            "positions": [
                0.5868367802023191,
                -1.9967224893781783,
                1.8746148363669553,
                1.384209666182302,
                -0.01697551287018295,
                -3.002733126664329
            ]
        },
        {
            "positions": [
                0.6484834568464246,
                -2.038260430309281,
                1.8380841781298667,
                1.5450810000139352,
                -0.10030871278755504,
                -2.9966471839071454
            ]
        },
        {
            "positions": [
                0.7101301334905299,
                -2.0797983712403836,
                1.8015535198927783,
                1.705952333845568,
                -0.1836419127049269,
                -2.990561241149962
            ]
        },
        {
            "positions": [
                0.7717768101346354,
                -2.1213363121714863,
                1.76502286165569,
                1.8668236676772008,
                -0.2669751126222992,
                -2.9844752983927783
            ]
        },
        {
            "positions": [
                0.8334234867787409,
                -2.1628742531025886,
                1.7284922034186017,
                2.0276950015088335,
                -0.3503083125396711,
                -2.9783893556355947
            ]
        },
        {
            "positions": [
                0.8950701634228464,
                -2.2044121940336914,
                1.6919615451815133,
                2.1885663353404667,
                -0.4336415124570432,
                -2.972303412878411
            ]
        },
        {
            "positions": [
                0.880502971869335,
                -2.1817766712709328,
                1.7461287877452536,
                1.9833099101492468,
                -0.3457217466177083,
                -2.983564285961462
            ]
        },
        {
            "positions": [
                0.8659357803158236,
                -2.159141148508174,
                1.800296030308994,
                1.778053484958027,
                -0.25780198077837346,
                -2.994825159044513
            ]
        },
        {
            "positions": [
                0.8513685887623121,
                -2.1365056257454156,
                1.8544632728727344,
                1.572797059766807,
                -0.1698822149390386,
                -3.006086032127564
            ]
        },
        {
            "positions": [
                0.8368013972088008,
                -2.113870102982657,
                1.9086305154364747,
                1.3675406345755872,
                -0.0819624490997038,
                -3.017346905210615
            ]
        },
        {
            "positions": [
                0.8222342056552894,
                -2.0912345802198984,
                1.9627977580002152,
                1.1622842093843675,
                0.005957316739631069,
                -3.028607778293666
            ]
        },
        {
            "positions": [
                0.807667014101778,
                -2.06859905745714,
                2.0169650005639554,
                0.9570277841931476,
                0.09387708257896599,
                -3.039868651376717
            ]
        },
        {
            "positions": [
                0.7930998225482665,
                -2.045963534694381,
                2.0711322431276957,
                0.7517713590019277,
                0.18179684841830068,
                -3.051129524459768
            ]
        },
        {
            "positions": [
                0.7785326309947551,
                -2.0233280119316226,
                2.125299485691436,
                0.5465149338107078,
                0.2697166142576356,
                -3.062390397542819
            ]
        },
        {
            "positions": [
                0.7639654394412437,
                -2.000692489168864,
                2.1794667282551763,
                0.34125850861948814,
                0.3576363800969704,
                -3.0736512706258696
            ]
        },
        {
            "positions": [
                0.7493982478877323,
                -1.9780569664061052,
                2.233633970818917,
                0.13600208342826825,
                0.4455561459363053,
                -3.084912143708921
            ]
        },
        {
            "positions": [
                0.7348310563342209,
                -1.9554214436433466,
                2.2878012133826573,
                -0.06925434176295164,
                0.5334759117756401,
                -3.0961730167919717
            ]
        },
        {
            "positions": [
                0.7202638647807095,
                -1.932785920880588,
                2.3419684559463976,
                -0.27451076695417154,
                0.6213956776149752,
                -3.107433889875023
            ]
        },
        {
            "positions": [
                0.7056966732271981,
                -1.9101503981178294,
                2.396135698510138,
                -0.4797671921453916,
                0.7093154434543097,
                -3.1186947629580737
            ]
        }
    ]
}