{
    "goal": {
        "global_pose": {
            "orientation": {
                "w": 0.7031023502349854,
                "x": -0.7110244035720825,
                "y": 0.007748599164187908,
                "z": 0.005598929710686207
            },
            "position": {
                "x": 0.11585023208521307,
                "y": 0.44412534475326537,
                "z": 0.3711530566215515
            }
        },
        "name": "move_to_auspresseinheit_A"
    },
    "id": "TRRT_move_to_auspresseinheit_A_132",
    "joint_names": [
        "shoulder_pan_joint",
        "shoulder_lift_joint",
        "elbow_joint",
        "wrist_1_joint",
        "wrist_2_joint",
        "wrist_3_joint"
    ],
    "metrics": {
        "cart_traj_len": 0.6791556868054917,
        "distance_elbow_joint": 0.18099780460258996,
        "distance_shoulder_lift_joint": 0.5348354596580576,
        "distance_shoulder_pan_joint": 1.0481023947826416,
        "distance_wrist_1_joint": 0.7859829180415154,
        "distance_wrist_2_joint": 0.5110381312611602,
        "distance_wrist_3_joint": 0.06398359150691002,
        "smoothness": 0.5581450405571399,
        "time": 0.117534163,
        "traj_len": 1.7677500671341735,
        "weighted_distance": 2.1330561483864816
    },
    "planner": "TRRT",
    "start": {
        "state": {
            "elbow_joint": 2.422574709923281,
            "shoulder_lift_joint": -1.3736533754116391,
            "shoulder_pan_joint": -0.33786336945926293,
            "wrist_1_joint": -1.0288603412921917,
            "wrist_2_joint": 1.2330224858903978,
            "wrist_3_joint": -3.094022268022082
        }
    },
    "waypoints": [
        {
            "positions": [
                -0.33786336945926293,
                -1.3736533754116391,
                2.422574709923281,
                -1.0288603412921917,
                1.2330224858903978,
                -3.094022268022082
            ]
        },
        {
            "positions": [
                -0.2519502605113633,
                -1.4360579173087973,
                2.4480889463661497,
                -1.0665080827722588,
                1.1638060376534156,
                -3.1132290157552456
            ]
        },
        {
            "positions": [
                -0.16603715156346371,
                -1.4984624592059557,
                2.473603182809019,
                -1.1041558242523262,
                1.0945895894164333,
                -3.1324357634884086
            ]
        },
        {
            "positions": [
                -0.08012404261556413,
                -1.5608670011031138,
                2.4991174192518875,
                -1.1418035657323933,
                1.025373141179451,
                -3.151642511221572
            ]
        },
        {
            "positions": [
                0.051603135374259645,
                -1.6188039734308777,
                2.4817082367062238,
                -1.0296302834655076,
                0.9748083434210821,
                -3.1505819531703354
            ]
        },
        {
            "positions": [
                0.18333031336408342,
                -1.6767409457586415,
                2.4642990541605596,
                -0.9174570011986221,
                0.9242435456627133,
                -3.149521395119099
            ]
        },
        {
            "positions": [
                0.31505749135390726,
                -1.7346779180864051,
                2.4468898716148955,
                -0.8052837189317363,
                0.8736787479043444,
                -3.148460837067862
            ]
        },
        {
            "positions": [
                0.44678466934373096,
                -1.792614890414169,
                2.4294806890692318,
                -0.6931104366648507,
                0.8231139501459754,
                -3.147400279016625
            ]
        },
        {
            "positions": [
                0.5785118473335548,
                -1.8505518627419328,
                2.412071506523568,
                -0.580937154397965,
                0.7725491523876065,
                -3.1463397209653885
            ]
        },
        {
            "positions": [
                0.7102390253233786,
                -1.9084888350696967,
                2.394662323977904,
                -0.46876387213107934,
                0.7219843546292376,
                -3.145279162914152
            ]
        }
    ]
}