{
    "goal": {
        "global_pose": {
            "orientation": {
                "w": 0.7047431468963623,
                "x": -0.7094548344612122,
                "y": 0.0024358443915843964,
                "z": -0.0022348060738295317
            },
            "position": {
                "x": 0.6094750761985779,
                "y": 0.3671506643295288,
                "z": 0.19426114857196808
            }
        },
        "name": "move_to_magneteinheit_A"
    },
    "id": "TRRT_move_to_magneteinheit_A_52",
    "joint_names": [
        "shoulder_pan_joint",
        "shoulder_lift_joint",
        "elbow_joint",
        "wrist_1_joint",
        "wrist_2_joint",
        "wrist_3_joint"
    ],
    "metrics": {
        "cart_traj_len": 3.0294898148528895,
        "distance_elbow_joint": 3.901375931192897,
        "distance_shoulder_lift_joint": 2.0895226009901506,
        "distance_shoulder_pan_joint": 4.609680563794039,
        "distance_wrist_1_joint": 6.837548758105484,
        "distance_wrist_2_joint": 1.443089740381489,
        "distance_wrist_3_joint": 4.770326703204891,
        "smoothness": 0.2681327909616266,
        "time": 0.30015917799999997,
        "traj_len": 4.8632853399393445,
        "weighted_distance": 6.439940698683935
    },
    "planner": "TRRT",
    "start": {
        "state": {
            "elbow_joint": -1.919643507792019,
            "shoulder_lift_joint": -0.07675430207160344,
            "shoulder_pan_joint": -1.1188671864651873,
            "wrist_1_joint": 0.42560062535961957,
            "wrist_2_joint": 1.5706038300724876,
            "wrist_3_joint": 1.1188968870953055
        }
    },
    "waypoints": [
        {
            "positions": [
                -1.1188671864651873,
                -0.07675430207160344,
                -1.919643507792019,
                0.42560062535961957,
                1.5706038300724876,
                1.1188968870953055
            ]
        },
        {
            "positions": [
                -1.1790050641831742,
                -0.1331495130580859,
                -1.7810192902606676,
                0.5253466976401379,
                1.5502903002307358,
                1.1279841004449012
            ]
        },
        {
            "positions": [
                -1.239142941901161,
                -0.18954472404456835,
                -1.6423950727293162,
                0.6250927699206561,
                1.5299767703889842,
                1.1370713137944966
            ]
        },
        {
            "positions": [
                -1.2992808196191477,
                -0.24593993503105083,
                -1.5037708551979647,
                0.7248388422011743,
                1.5096632405472323,
                1.1461585271440922
            ]
        },
        {
            "positions": [
                -1.3594186973371345,
                -0.3023351460175333,
                -1.3651466376666133,
                0.8245849144816926,
                1.4893497107054807,
                1.1552457404936876
            ]
        },
        {
            "positions": [
                -1.4195565750551213,
                -0.3587303570040158,
                -1.2265224201352618,
                0.9243309867622109,
                1.469036180863729,
                1.1643329538432832
            ]
        },
        {
            "positions": [
                -1.4796944527731082,
                -0.4151255679904982,
                -1.0878982026039103,
                1.024077059042729,
                1.4487226510219773,
                1.1734201671928786
            ]
        },
        {
            "positions": [
                -1.539832330491095,
                -0.4715207789769807,
                -0.9492739850725589,
                1.1238231313232474,
                1.4284091211802254,
                1.1825073805424742
            ]
        },
        {
            "positions": [
                -1.5999702082090819,
                -0.5279159899634631,
                -0.8106497675412074,
                1.2235692036037658,
                1.4080955913384738,
                1.1915945938920698
            ]
        },
        {
            "positions": [
                -1.6601080859270687,
                -0.5843112009499456,
                -0.672025550009856,
                1.323315275884284,
                1.387782061496722,
                1.2006818072416652
            ]
        },
        {
            "positions": [
                -1.7202459636450556,
                -0.6407064119364281,
                -0.5334013324785045,
                1.4230613481648022,
                1.3674685316549704,
                1.2097690205912608
            ]
        },
        {
            "positions": [
                -1.7803838413630422,
                -0.6971016229229106,
                -0.39477711494715306,
                1.5228074204453206,
                1.3471550018132186,
                1.2188562339408562
            ]
        },
        {
            "positions": [
                -1.8405217190810288,
                -0.753496833909393,
                -0.2561528974158016,
                1.6225534927258387,
                1.326841471971467,
                1.2279434472904518
            ]
        },
        {
            "positions": [
                -1.9006595967990159,
                -0.8098920448958755,
                -0.11752867988445015,
                1.7222995650063573,
                1.3065279421297151,
                1.2370306606400472
            ]
        },
        {
            "positions": [
                -1.9607974745170025,
                -0.866287255882358,
                0.021095537646901308,
                1.8220456372868754,
                1.2862144122879635,
                1.2461178739896428
            ]
        },
        {
            "positions": [
                -2.0209353522349893,
                -0.9226824668688405,
                0.15971975517825254,
                1.9217917095673935,
                1.2659008824462117,
                1.2552050873392382
            ]
        },
        {
            "positions": [
                -2.081073229952976,
                -0.9790776778553227,
                0.2983439727096042,
                2.0215377818479117,
                1.2455873526044599,
                1.2642923006888338
            ]
        },
        {
            "positions": [
                -2.141211107670963,
                -1.0354728888418052,
                0.43696819024095546,
                2.12128385412843,
                1.2252738227627082,
                1.2733795140384294
            ]
        },
        {
            "positions": [
                -2.20134898538895,
                -1.091868099828288,
                0.5755924077723071,
                2.2210299264089484,
                1.2049602929209564,
                1.2824667273880248
            ]
        },
        {
            "positions": [
                -2.2614868631069367,
                -1.1482633108147704,
                0.7142166253036588,
                2.320775998689467,
                1.1846467630792048,
                1.2915539407376204
            ]
        },
        {
            "positions": [
                -2.3216247408249235,
                -1.2046585218012529,
                0.85284084283501,
                2.420522070969985,
                1.164333233237453,
                1.300641154087216
            ]
        },
        {
            "positions": [
                -2.3817626185429104,
                -1.2610537327877354,
                0.9914650603663613,
                2.520268143250503,
                1.1440197033957014,
                1.3097283674368114
            ]
        },
        {
            "positions": [
                -2.441900496260897,
                -1.3174489437742176,
                1.130089277897713,
                2.6200142155310213,
                1.1237061735539495,
                1.3188155807864068
            ]
        },
        {
            "positions": [
                -2.502038373978884,
                -1.3738441547607,
                1.2687134954290642,
                2.7197602878115394,
                1.103392643712198,
                1.3279027941360024
            ]
        },
        {
            "positions": [
                -2.5621762516968705,
                -1.4302393657471826,
                1.4073377129604159,
                2.8195063600920576,
                1.083079113870446,
                1.336990007485598
            ]
        },
        {
            "positions": [
                -2.6223141294148578,
                -1.4866345767336653,
                1.5459619304917676,
                2.919252432372576,
                1.0627655840286945,
                1.3460772208351934
            ]
        },
        {
            "positions": [
                -2.682452007132844,
                -1.5430297877201475,
                1.6845861480231188,
                3.0189985046530947,
                1.0424520541869426,
                1.355164434184789
            ]
        },
        {
            "positions": [
                -2.742589884850831,
                -1.59942499870663,
                1.8232103655544705,
                3.118744576933613,
                1.0221385243451908,
                1.3642516475343847
            ]
        },
        {
            "positions": [
                -2.802727762568818,
                -1.6558202096931125,
                1.961834583085822,
                3.218490649214131,
                1.0018249945034392,
                1.37333886088398
            ]
        },
        {
            "positions": [
                -2.7140665508206236,
                -1.640351825045578,
                1.962437547943854,
                3.0959252330247073,
                0.975330724660638,
                1.2364938690834886
            ]
        },
        {
            "positions": [
                -2.6254053390724295,
                -1.6248834403980432,
                1.963040512801886,
                2.973359816835284,
                0.9488364548178367,
                1.0996488772829973
            ]
        },
        {
            "positions": [
                -2.5367441273242353,
                -1.6094150557505087,
                1.963643477659918,
                2.8507944006458605,
                0.9223421849750355,
                0.9628038854825058
            ]
        },
        {
            "positions": [
                -2.448082915576041,
                -1.5939466711029742,
                1.96424644251795,
                2.728228984456437,
                0.8958479151322343,
                0.8259588936820145
            ]
        },
        {
            "positions": [
                -2.359421703827847,
                -1.5784782864554394,
                1.9648494073759821,
                2.6056635682670137,
                0.869353645289433,
                0.689113901881523
            ]
        },
        {
            "positions": [
                -2.2707604920796527,
                -1.5630099018079049,
                1.9654523722340143,
                2.48309815207759,
                0.8428593754466318,
                0.5522689100810316
            ]
        },
        {
            "positions": [
                -2.1820992803314585,
                -1.5475415171603701,
                1.9660553370920462,
                2.3605327358881665,
                0.8163651056038306,
                0.41542391828054026
            ]
        },
        {
            "positions": [
                -2.0934380685832643,
                -1.5320731325128356,
                1.9666583019500783,
                2.2379673196987433,
                0.7898708357610293,
                0.2785789264800489
            ]
        },
        {
            "positions": [
                -2.00477685683507,
                -1.516604747865301,
                1.9672612668081102,
                2.1154019035093197,
                0.7633765659182281,
                0.14173393467955764
            ]
        },
        {
            "positions": [
                -1.916115645086876,
                -1.5011363632177663,
                1.9678642316661423,
                1.9928364873198963,
                0.7368822960754269,
                0.004888942879065938
            ]
        },
        {
            "positions": [
                -1.8274544333386817,
                -1.4856679785702318,
                1.9684671965241745,
                1.8702710711304729,
                0.7103880262326256,
                -0.13195604892142532
            ]
        },
        {
            "positions": [
                -1.7387932215904875,
                -1.4701995939226973,
                1.9690701613822064,
                1.7477056549410492,
                0.6838937563898244,
                -0.2688010407219168
            ]
        },
        {
            "positions": [
                -1.6501320098422934,
                -1.4547312092751625,
                1.9696731262402385,
                1.6251402387516258,
                0.6573994865470232,
                -0.40564603252240805
            ]
        },
        {
            "positions": [
                -1.5614707980940992,
                -1.439262824627628,
                1.9702760910982704,
                1.5025748225622022,
                0.630905216704222,
                -0.5424910243228995
            ]
        },
        {
            "positions": [
                -1.472809586345905,
                -1.4237944399800935,
                1.9708790559563025,
                1.3800094063727788,
                0.6044109468614207,
                -0.6793360161233908
            ]
        },
        {
            "positions": [
                -1.3841483745977108,
                -1.4083260553325587,
                1.9714820208143347,
                1.2574439901833552,
                0.5779166770186195,
                -0.8161810079238823
            ]
        },
        {
            "positions": [
                -1.2954871628495166,
                -1.3928576706850242,
                1.9720849856723666,
                1.134878573993932,
                0.5514224071758183,
                -0.9530259997243737
            ]
        },
        {
            "positions": [
                -1.2068259511013226,
                -1.3773892860374897,
                1.9726879505303987,
                1.0123131578045084,
                0.524928137333017,
                -1.0898709915248648
            ]
        },
        {
            "positions": [
                -1.118164739353128,
                -1.361920901389955,
                1.9732909153884308,
                0.8897477416150847,
                0.4984338674902157,
                -1.2267159833253567
            ]
        },
        {
            "positions": [
                -1.029503527604934,
                -1.3464525167424204,
                1.9738938802464627,
                0.7671823254256616,
                0.47193959764741444,
                -1.3635609751258482
            ]
        },
        {
            "positions": [
                -0.9408423158567398,
                -1.3309841320948856,
                1.9744968451044949,
                0.6446169092362379,
                0.4454453278046132,
                -1.5004059669263392
            ]
        },
        {
            "positions": [
                -0.8521811041085456,
                -1.3155157474473511,
                1.9750998099625268,
                0.5220514930468148,
                0.4189510579618121,
                -1.6372509587268307
            ]
        },
        {
            "positions": [
                -0.7635198923603514,
                -1.3000473627998166,
                1.975702774820559,
                0.3994860768573907,
                0.39245678811901075,
                -1.7740959505273222
            ]
        },
        {
            "positions": [
                -0.6748586806121573,
                -1.2845789781522818,
                1.976305739678591,
                0.2769206606679675,
                0.3659625182762095,
                -1.9109409423278136
            ]
        },
        {
            "positions": [
                -0.5861974688639631,
                -1.2691105935047473,
                1.976908704536623,
                0.15435524447854387,
                0.3394682484334083,
                -2.0477859341283047
            ]
        },
        {
            "positions": [
                -0.4975362571157689,
                -1.2536422088572126,
                1.977511669394655,
                0.03178982828912069,
                0.31297397859060705,
                -2.184630925928796
            ]
        },
        {
            "positions": [
                -0.4088750453675747,
                -1.238173824209678,
                1.978114634252687,
                -0.09077558790030293,
                0.2864797087478058,
                -2.321475917729288
            ]
        },
        {
            "positions": [
                -0.3202138336193805,
                -1.2227054395621435,
                1.978717599110719,
                -0.21334100408972656,
                0.2599854389050046,
                -2.458320909529779
            ]
        },
        {
            "positions": [
                -0.2315526218711863,
                -1.207237054914609,
                1.9793205639687512,
                -0.33590642027914974,
                0.23349116906220335,
                -2.5951659013302706
            ]
        },
        {
            "positions": [
                -0.1428914101229921,
                -1.1917686702670742,
                1.9799235288267831,
                -0.45847183646857337,
                0.20699689921940212,
                -2.7320108931307616
            ]
        },
        {
            "positions": [
                -0.05423019837479792,
                -1.1763002856195395,
                1.9805264936848153,
                -0.581037252657997,
                0.1805026293766009,
                -2.868855884931253
            ]
        },
        {
            "positions": [
                0.03443101337339627,
                -1.160831900972005,
                1.9811294585428472,
                -0.7036026688474206,
                0.15400835953379965,
                -3.0057008767317446
            ]
        },
        {
            "positions": [
                0.12309222512159032,
                -1.1453635163244704,
                1.9817324234008793,
                -0.8261680850368434,
                0.12751408969099842,
                -3.1425458685322356
            ]
        }
    ]
}