{
    "goal": {
        "global_pose": {
            "orientation": {
                "w": 0.5084816217422485,
                "x": -0.49083608388900757,
                "y": 0.5182115435600281,
                "z": -0.4816462993621826
            },
            "position": {
                "x": 0.5540239810943604,
                "y": 0.030875300988554955,
                "z": 0.16403168439865112
            }
        },
        "name": "move_to_storage_A"
    },
    "id": "TRRT_move_to_storage_A_136",
    "joint_names": [
        "shoulder_pan_joint",
        "shoulder_lift_joint",
        "elbow_joint",
        "wrist_1_joint",
        "wrist_2_joint",
        "wrist_3_joint"
    ],
    "metrics": {
        "cart_traj_len": 0.3531708183774841,
        "distance_elbow_joint": 0.45218492147773626,
        "distance_shoulder_lift_joint": 0.23393967175565122,
        "distance_shoulder_pan_joint": 0.46107289348896835,
        "distance_wrist_1_joint": 0.2590391099357118,
        "distance_wrist_2_joint": 1.1016011017077632,
        "distance_wrist_3_joint": 0.09988067763187702,
        "smoothness": 2.2204460540154633e-15,
        "time": 0.020160154,
        "traj_len": 1.6148431428462975,
        "weighted_distance": 2.0415973998085266
    },
    "planner": "TRRT",
    "start": {
        "state": {
            "elbow_joint": 1.9715463870305268,
            "shoulder_lift_joint": -1.1394903361783484,
            "shoulder_pan_joint": 0.12281147578464417,
            "wrist_1_joint": -0.7804599489681411,
            "wrist_2_joint": 0.12958660307563738,
            "wrist_3_joint": -3.1924946282119055
        }
    },
    "waypoints": [
        {
            "positions": [
                0.12281147578464417,
                -1.1394903361783484,
                1.9715463870305268,
                -0.7804599489681411,
                0.12958660307563738,
                -3.1924946282119055
            ]
        },
        {
            "positions": [
                0.05694391957193441,
                -1.1729102892862986,
                2.036144232955918,
                -0.8174655361018142,
                0.28695818903388925,
                -3.1782259599787803
            ]
        },
        {
            "positions": [
                -0.008923636640775348,
                -1.2063302423942488,
                2.1007420788813085,
                -0.8544711232354874,
                0.4443297749921411,
                -3.163957291745655
            ]
        },
        {
            "positions": [
                -0.07479119285348511,
                -1.239750195502199,
                2.1653399248066996,
                -0.8914767103691604,
                0.601701360950393,
                -3.14968862351253
            ]
        },
        {
            "positions": [
                -0.14065874906619485,
                -1.273170148610149,
                2.22993777073209,
                -0.9284822975028335,
                0.7590729469086449,
                -3.135419955279404
            ]
        },
        {
            "positions": [
                -0.20652630527890464,
                -1.3065901017180992,
                2.2945356166574813,
                -0.9654878846365067,
                0.9164445328668969,
                -3.121151287046279
            ]
        },
        {
            "positions": [
                -0.2723938614916144,
                -1.3400100548260494,
                2.359133462582872,
                -1.0024934717701797,
                1.0738161188251485,
                -3.1068826188131538
            ]
        },
        {
            "positions": [
                -0.33826141770432416,
                -1.3734300079339996,
                2.423731308508263,
                -1.0394990589038529,
                1.2311877047834006,
                -3.0926139505800285
            ]
        }
    ]
}