{
    "goal": {
        "global_pose": {
            "orientation": {
                "w": -0.00223480608172531,
                "x": 0.0024358444001904467,
                "y": 0.7094548369677653,
                "z": -0.704743149386269
            },
            "position": {
                "x": 0.6205249238014221,
                "y": -0.6371506643295288,
                "z": 0.19426114857196808
            }
        },
        "name": "move_to_magneteinheit_B"
    },
    "id": "TRRT_move_to_magneteinheit_B_119",
    "joint_names": [
        "shoulder_pan_joint",
        "shoulder_lift_joint",
        "elbow_joint",
        "wrist_1_joint",
        "wrist_2_joint",
        "wrist_3_joint"
    ],
    "metrics": {
        "cart_traj_len": 1.4522954427205983,
        "distance_elbow_joint": 0.7233601299922556,
        "distance_shoulder_lift_joint": 1.2442490607540266,
        "distance_shoulder_pan_joint": 1.6212049958469414,
        "distance_wrist_1_joint": 2.619174630401593,
        "distance_wrist_2_joint": 2.934142945737305,
        "distance_wrist_3_joint": 3.1439345488550257,
        "smoothness": 1.076579911191508e-16,
        "time": 2.339288298,
        "traj_len": 3.5051485434410834,
        "weighted_distance": 4.9119500186215355
    },
    "planner": "TRRT",
    "start": {
        "state": {
            "elbow_joint": 2.39358713078474,
            "shoulder_lift_joint": -1.908514104345545,
            "shoulder_pan_joint": 0.7066247066606129,
            "wrist_1_joint": -0.4678290933515497,
            "wrist_2_joint": 0.7096259083745334,
            "wrist_3_joint": -3.1358149277392293
        }
    },
    "waypoints": [
        {
            "positions": [
                0.7066247066606129,
                -1.908514104345545,
                2.39358713078474,
                -0.4678290933515497,
                0.7096259083745334,
                -3.1358149277392293
            ]
        },
        {
            "positions": [
                0.655962050540396,
                -1.8696313211969815,
                2.370982126722482,
                -0.3859798861514999,
                0.6179339413202427,
                -3.0375669730875097
            ]
        },
        {
            "positions": [
                0.6052993944201791,
                -1.8307485380484183,
                2.348377122660224,
                -0.3041306789514502,
                0.5262419742659519,
                -2.93931901843579
            ]
        },
        {
            "positions": [
                0.5546367382999622,
                -1.791865754899855,
                2.3257721185979663,
                -0.2222814717514004,
                0.4345500072116611,
                -2.841071063784071
            ]
        },
        {
            "positions": [
                0.5039740821797453,
                -1.7529829717512917,
                2.303167114535708,
                -0.1404322645513506,
                0.3428580401573703,
                -2.742823109132351
            ]
        },
        {
            "positions": [
                0.45331142605952834,
                -1.7141001886027283,
                2.28056211047345,
                -0.058583057351300816,
                0.25116607310307953,
                -2.6445751544806315
            ]
        },
        {
            "positions": [
                0.4026487699393114,
                -1.6752174054541649,
                2.257957106411192,
                0.023266149848748918,
                0.15947410604878876,
                -2.546327199828912
            ]
        },
        {
            "positions": [
                0.3519861138190945,
                -1.6363346223056014,
                2.235352102348934,
                0.10511535704879876,
                0.06778213899449803,
                -2.448079245177192
            ]
        },
        {
            "positions": [
                0.3013234576988776,
                -1.5974518391570383,
                2.212747098286676,
                0.1869645642488485,
                -0.023909828059792804,
                -2.349831290525473
            ]
        },
        {
            "positions": [
                0.25066080157866066,
                -1.558569056008475,
                2.1901420942244183,
                0.26881377144889823,
                -0.11560179511408364,
                -2.2515833358737534
            ]
        },
        {
            "positions": [
                0.19999814545844374,
                -1.5196862728599116,
                2.1675370901621602,
                0.3506629786489481,
                -0.20729376216837436,
                -2.1533353812220337
            ]
        },
        {
            "positions": [
                0.14933548933822682,
                -1.4808034897113482,
                2.144932086099902,
                0.4325121858489978,
                -0.2989857292226651,
                -2.0550874265703145
            ]
        },
        {
            "positions": [
                0.0986728332180099,
                -1.4419207065627848,
                2.122327082037644,
                0.5143613930490476,
                -0.3906776962769559,
                -1.9568394719185946
            ]
        },
        {
            "positions": [
                0.04801017709779298,
                -1.4030379234142216,
                2.099722077975386,
                0.5962106002490974,
                -0.48236966333124676,
                -1.8585915172668752
            ]
        },
        {
            "positions": [
                -0.002652479022423937,
                -1.3641551402656582,
                2.0771170739131284,
                0.6780598074491473,
                -0.5740616303855374,
                -1.7603435626151556
            ]
        },
        {
            "positions": [
                -0.05331513514264086,
                -1.325272357117095,
                2.0545120698508703,
                0.7599090146491969,
                -0.6657535974398282,
                -1.6620956079634361
            ]
        },
        {
            "positions": [
                -0.10397779126285778,
                -1.2863895739685316,
                2.0319070657886122,
                0.8417582218492468,
                -0.757445564494119,
                -1.5638476533117165
            ]
        },
        {
            "positions": [
                -0.1546404473830747,
                -1.2475067908199682,
                2.009302061726354,
                0.9236074290492966,
                -0.8491375315484099,
                -1.4655996986599968
            ]
        },
        {
            "positions": [
                -0.20530310350329162,
                -1.208624007671405,
                1.9866970576640963,
                1.0054566362493462,
                -0.9408294986027007,
                -1.3673517440082774
            ]
        },
        {
            "positions": [
                -0.25596575962350854,
                -1.1697412245228416,
                1.9640920536018383,
                1.087305843449396,
                -1.0325214656569912,
                -1.2691037893565578
            ]
        },
        {
            "positions": [
                -0.30662841574372546,
                -1.1308584413742784,
                1.9414870495395804,
                1.169155050649446,
                -1.124213432711282,
                -1.1708558347048383
            ]
        },
        {
            "positions": [
                -0.35729107186394227,
                -1.091975658225715,
                1.9188820454773223,
                1.2510042578494955,
                -1.2159053997655729,
                -1.072607880053119
            ]
        },
        {
            "positions": [
                -0.4079537279841593,
                -1.0530928750771515,
                1.8962770414150643,
                1.3328534650495454,
                -1.3075973668198637,
                -0.9743599254013993
            ]
        },
        {
            "positions": [
                -0.45861638410437633,
                -1.0142100919285881,
                1.8736720373528062,
                1.4147026722495952,
                -1.3992893338741546,
                -0.8761119707496796
            ]
        },
        {
            "positions": [
                -0.5092790402245931,
                -0.9753273087800249,
                1.8510670332905483,
                1.4965518794496449,
                -1.4909813009284454,
                -0.77786401609796
            ]
        },
        {
            "positions": [
                -0.55994169634481,
                -0.9364445256314616,
                1.8284620292282905,
                1.578401086649695,
                -1.5826732679827362,
                -0.6796160614462403
            ]
        },
        {
            "positions": [
                -0.610604352465027,
                -0.8975617424828983,
                1.8058570251660324,
                1.6602502938497445,
                -1.674365235037027,
                -0.5813681067945211
            ]
        },
        {
            "positions": [
                -0.661267008585244,
                -0.8586789593343349,
                1.7832520211037743,
                1.7420995010497942,
                -1.766057202091318,
                -0.48312015214280146
            ]
        },
        {
            "positions": [
                -0.7119296647054608,
                -0.8197961761857715,
                1.7606470170415163,
                1.8239487082498442,
                -1.8577491691456083,
                -0.3848721974910818
            ]
        },
        {
            "positions": [
                -0.7625923208256776,
                -0.7809133930372083,
                1.7380420129792584,
                1.9057979154498939,
                -1.9494411361998991,
                -0.28662424283936216
            ]
        },
        {
            "positions": [
                -0.8132549769458947,
                -0.7420306098886449,
                1.7154370089170003,
                1.9876471226499435,
                -2.04113310325419,
                -0.18837628818764296
            ]
        },
        {
            "positions": [
                -0.8639176330661117,
                -0.7031478267400817,
                1.6928320048547425,
                2.0694963298499935,
                -2.132825070308481,
                -0.09012833353592331
            ]
        },
        {
            "positions": [
                -0.9145802891863284,
                -0.6642650435915184,
                1.6702270007924844,
                2.151345537050043,
                -2.2245170373627716,
                0.008119621115796309
            ]
        }
    ]
}