{
    "goal": {
        "global_pose": {
            "orientation": {
                "w": 0.7031023502349854,
                "x": -0.7110244035720825,
                "y": 0.007748599164187908,
                "z": 0.005598929710686207
            },
            "position": {
                "x": 0.11585023208521307,
                "y": 0.44412534475326537,
                "z": 0.3711530566215515
            }
        },
        "name": "move_to_auspresseinheit_A"
    },
    "id": "TRRT_move_to_auspresseinheit_A_77",
    "joint_names": [
        "shoulder_pan_joint",
        "shoulder_lift_joint",
        "elbow_joint",
        "wrist_1_joint",
        "wrist_2_joint",
        "wrist_3_joint"
    ],
    "metrics": {
        "cart_traj_len": 0.6716586789622595,
        "distance_elbow_joint": 0.5142623730056215,
        "distance_shoulder_lift_joint": 1.2412493837795127,
        "distance_shoulder_pan_joint": 1.0479333737723873,
        "distance_wrist_1_joint": 0.5527307808499058,
        "distance_wrist_2_joint": 0.5135600868177898,
        "distance_wrist_3_joint": 1.7902160242324068,
        "smoothness": 1.1106944545386608,
        "time": 0.025541297,
        "traj_len": 2.3790653674200763,
        "weighted_distance": 3.210401055723433
    },
    "planner": "TRRT",
    "start": {
        "state": {
            "elbow_joint": 2.422574709923281,
            "shoulder_lift_joint": -1.3736533754116391,
            "shoulder_pan_joint": -0.33786336945926293,
            "wrist_1_joint": -1.0288603412921917,
            "wrist_2_joint": 1.2330224858903978,
            "wrist_3_joint": -3.094022268022082
        }
    },
    "waypoints": [
        {
            "positions": [
                -0.33786336945926293,
                -1.3736533754116391,
                2.422574709923281,
                -1.0288603412921917,
                1.2330224858903978,
                -3.094022268022082
            ]
        },
        {
            "positions": [
                -0.30475103989411156,
                -1.4847836753965953,
                2.453045775008929,
                -0.9896635389714484,
                1.1768821411360542,
                -2.9840642725524225
            ]
        },
        {
            "positions": [
                -0.27163871032896025,
                -1.5959139753815512,
                2.4835168400945773,
                -0.9504667366507051,
                1.1207417963817106,
                -2.8741062770827623
            ]
        },
        {
            "positions": [
                -0.2385263807638089,
                -1.7070442753665072,
                2.513987905180225,
                -0.9112699343299618,
                1.064601451627367,
                -2.7641482816131027
            ]
        },
        {
            "positions": [
                -0.20541405119865752,
                -1.8181745753514633,
                2.5444589702658735,
                -0.8720731320092185,
                1.0084611068730234,
                -2.654190286143443
            ]
        },
        {
            "positions": [
                -0.17230172163350616,
                -1.9293048753364195,
                2.5749300353515214,
                -0.8328763296884751,
                0.9523207621186798,
                -2.5442322906737833
            ]
        },
        {
            "positions": [
                -0.13918939206835482,
                -2.0404351753213756,
                2.6054011004371693,
                -0.7936795273677318,
                0.8961804173643361,
                -2.4342742952041236
            ]
        },
        {
            "positions": [
                -0.10607706250320348,
                -2.1515654753063314,
                2.6358721655228177,
                -0.7544827250469885,
                0.8400400726099925,
                -2.3243162997344635
            ]
        },
        {
            "positions": [
                -0.07296473293805211,
                -2.2626957752912875,
                2.6663432306084656,
                -0.7152859227262452,
                0.7838997278556489,
                -2.214358304264804
            ]
        },
        {
            "positions": [
                0.0388973723835445,
                -2.2123804918770213,
                2.627701251705546,
                -0.6811207281142511,
                0.7746943951723573,
                -2.344437170046965
            ]
        },
        {
            "positions": [
                0.15075947770514112,
                -2.1620652084627547,
                2.5890592728026265,
                -0.6469555335022569,
                0.7654890624890658,
                -2.4745160358291263
            ]
        },
        {
            "positions": [
                0.2626215830267377,
                -2.1117499250484886,
                2.5504172938997067,
                -0.6127903388902627,
                0.7562837298057742,
                -2.6045949016112875
            ]
        },
        {
            "positions": [
                0.37448368834833434,
                -2.0614346416342224,
                2.5117753149967874,
                -0.5786251442782685,
                0.7470783971224827,
                -2.7346737673934487
            ]
        },
        {
            "positions": [
                0.48634579366993097,
                -2.011119358219956,
                2.4731333360938677,
                -0.5444599496662743,
                0.7378730644391911,
                -2.86475263317561
            ]
        },
        {
            "positions": [
                0.5982078989915276,
                -1.9608040748056896,
                2.4344913571909483,
                -0.5102947550542801,
                0.7286677317558996,
                -2.994831498957771
            ]
        },
        {
            "positions": [
                0.7100700043131242,
                -1.9104887913914232,
                2.3958493782880286,
                -0.47612956044228594,
                0.719462399072608,
                -3.1249103647399323
            ]
        }
    ]
}