{
    "goal": {
        "global_pose": {
            "orientation": {
                "w": 0.5084816217422485,
                "x": -0.49083608388900757,
                "y": 0.5182115435600281,
                "z": -0.4816462993621826
            },
            "position": {
                "x": 0.5540239810943604,
                "y": 0.030875300988554955,
                "z": 0.16403168439865112
            }
        },
        "name": "move_to_storage_A"
    },
    "id": "TRRT_move_to_storage_A_104",
    "joint_names": [
        "shoulder_pan_joint",
        "shoulder_lift_joint",
        "elbow_joint",
        "wrist_1_joint",
        "wrist_2_joint",
        "wrist_3_joint"
    ],
    "metrics": {
        "cart_traj_len": 0.35344031268601367,
        "distance_elbow_joint": 0.4502678033891834,
        "distance_shoulder_lift_joint": 0.2344800400895759,
        "distance_shoulder_pan_joint": 0.46175347129770716,
        "distance_wrist_1_joint": 0.23888908578839596,
        "distance_wrist_2_joint": 1.1018884010700678,
        "distance_wrist_3_joint": 0.09187118818802542,
        "smoothness": 0.0,
        "time": 0.018749661,
        "traj_len": 1.6059732220130434,
        "weighted_distance": 2.0257516760594005
    },
    "planner": "TRRT",
    "start": {
        "state": {
            "elbow_joint": 1.9715463870305268,
            "shoulder_lift_joint": -1.1394903361783484,
            "shoulder_pan_joint": 0.12281147578464417,
            "wrist_1_joint": -0.7804599489681411,
            "wrist_2_joint": 0.12958660307563738,
            "wrist_3_joint": -3.1924946282119055
        }
    },
    "waypoints": [
        {
            "positions": [
                0.12281147578464417,
                -1.1394903361783484,
                1.9715463870305268,
                -0.7804599489681411,
                0.12958660307563738,
                -3.1924946282119055
            ]
        },
        {
            "positions": [
                0.05684669417068601,
                -1.1729874847625734,
                2.035870358943267,
                -0.8145869612236262,
                0.2869992317999328,
                -3.179370172756473
            ]
        },
        {
            "positions": [
                -0.009118087443272152,
                -1.2064846333467987,
                2.1001943308560076,
                -0.8487139734791114,
                0.4444118605242282,
                -3.166245717301041
            ]
        },
        {
            "positions": [
                -0.07508286905723031,
                -1.2399817819310237,
                2.164518302768748,
                -0.8828409857345965,
                0.6018244892485236,
                -3.153121261845609
            ]
        },
        {
            "positions": [
                -0.14104765067118846,
                -1.273478930515249,
                2.2288422746814884,
                -0.9169679979900817,
                0.759237117972819,
                -3.139996806390177
            ]
        },
        {
            "positions": [
                -0.20701243228514665,
                -1.306976079099474,
                2.2931662465942293,
                -0.9510950102455668,
                0.9166497466971144,
                -3.1268723509347445
            ]
        },
        {
            "positions": [
                -0.2729772138991048,
                -1.3404732276836993,
                2.3574902185069697,
                -0.985222022501052,
                1.0740623754214098,
                -3.1137478954793125
            ]
        },
        {
            "positions": [
                -0.338941995513063,
                -1.3739703762679243,
                2.42181419041971,
                -1.019349034756537,
                1.2314750041457052,
                -3.10062344002388
            ]
        }
    ]
}