{
    "goal": {
        "global_pose": {
            "orientation": {
                "w": 0.7047431468963623,
                "x": -0.7094548344612122,
                "y": 0.0024358443915843964,
                "z": -0.0022348060738295317
            },
            "position": {
                "x": 0.6094750761985779,
                "y": 0.3671506643295288,
                "z": 0.19426114857196808
            }
        },
        "name": "move_to_magneteinheit_A"
    },
    "id": "TRRT_move_to_magneteinheit_A_144",
    "joint_names": [
        "shoulder_pan_joint",
        "shoulder_lift_joint",
        "elbow_joint",
        "wrist_1_joint",
        "wrist_2_joint",
        "wrist_3_joint"
    ],
    "metrics": {
        "cart_traj_len": 2.0638254032214816,
        "distance_elbow_joint": 3.87737078928851,
        "distance_shoulder_lift_joint": 1.0546767186504382,
        "distance_shoulder_pan_joint": 1.2412146629334884,
        "distance_wrist_1_joint": 1.13396523397262,
        "distance_wrist_2_joint": 1.4320682348945164,
        "distance_wrist_3_joint": 1.8985527114925413,
        "smoothness": 5.392511849751758e-16,
        "time": 0.046351700999999995,
        "traj_len": 3.2615714542582253,
        "weighted_distance": 4.123225344688832
    },
    "planner": "TRRT",
    "start": {
        "state": {
            "elbow_joint": -1.919643507792019,
            "shoulder_lift_joint": -0.07675430207160344,
            "shoulder_pan_joint": -1.1188671864651873,
            "wrist_1_joint": 0.42560062535961957,
            "wrist_2_joint": 1.5706038300724876,
            "wrist_3_joint": 1.1188968870953055
        }
    },
    "waypoints": [
        {
            "positions": [
                -1.1188671864651873,
                -0.07675430207160344,
                -1.919643507792019,
                0.42560062535961957,
                1.5706038300724876,
                1.1188968870953055
            ]
        },
        {
            "positions": [
                -1.0728962730232063,
                -0.11581640276236041,
                -1.776037182262815,
                0.38360191299026325,
                1.517564265817135,
                1.189213654187622
            ]
        },
        {
            "positions": [
                -1.0269253595812253,
                -0.15487850345311738,
                -1.632430856733611,
                0.341603200620907,
                1.4645247015617826,
                1.2595304212799383
            ]
        },
        {
            "positions": [
                -0.9809544461392442,
                -0.19394060414387435,
                -1.4888245312044068,
                0.29960448825155067,
                1.4114851373064303,
                1.3298471883722547
            ]
        },
        {
            "positions": [
                -0.9349835326972631,
                -0.2330027048346313,
                -1.3452182056752027,
                0.25760577588219435,
                1.3584455730510778,
                1.4001639554645708
            ]
        },
        {
            "positions": [
                -0.8890126192552821,
                -0.27206480552538825,
                -1.2016118801459987,
                0.2156070635128381,
                1.3054060087957253,
                1.4704807225568872
            ]
        },
        {
            "positions": [
                -0.8430417058133011,
                -0.31112690621614525,
                -1.0580055546167948,
                0.17360835114348178,
                1.2523664445403728,
                1.5407974896492036
            ]
        },
        {
            "positions": [
                -0.7970707923713201,
                -0.35018900690690224,
                -0.9143992290875906,
                0.13160963877412551,
                1.1993268802850205,
                1.61111425674152
            ]
        },
        {
            "positions": [
                -0.7510998789293389,
                -0.3892511075976592,
                -0.7707929035583865,
                0.0896109264047692,
                1.1462873160296678,
                1.6814310238338361
            ]
        },
        {
            "positions": [
                -0.7051289654873579,
                -0.4283132082884162,
                -0.6271865780291825,
                0.04761221403541288,
                1.0932477517743155,
                1.7517477909261525
            ]
        },
        {
            "positions": [
                -0.6591580520453768,
                -0.4673753089791731,
                -0.4835802524999784,
                0.0056135016660566195,
                1.040208187518963,
                1.822064558018469
            ]
        },
        {
            "positions": [
                -0.6131871386033958,
                -0.5064374096699301,
                -0.3399739269707742,
                -0.0363852107032997,
                0.9871686232636105,
                1.8923813251107853
            ]
        },
        {
            "positions": [
                -0.5672162251614148,
                -0.545499510360687,
                -0.19636760144157028,
                -0.07838392307265601,
                0.9341290590082582,
                1.9626980922031017
            ]
        },
        {
            "positions": [
                -0.5212453117194337,
                -0.584561611051444,
                -0.052761275912366123,
                -0.12038263544201228,
                0.8810894947529057,
                2.033014859295418
            ]
        },
        {
            "positions": [
                -0.47527439827745266,
                -0.623623711742201,
                0.09084504961683781,
                -0.16238134781136854,
                0.8280499304975533,
                2.1033316263877344
            ]
        },
        {
            "positions": [
                -0.42930348483547154,
                -0.662685812432958,
                0.23445137514604197,
                -0.2043800601807249,
                0.7750103662422007,
                2.173648393480051
            ]
        },
        {
            "positions": [
                -0.38333257139349053,
                -0.701747913123715,
                0.37805770067524613,
                -0.24637877255008117,
                0.7219708019868483,
                2.243965160572367
            ]
        },
        {
            "positions": [
                -0.3373616579515094,
                -0.740810013814472,
                0.5216640262044503,
                -0.28837748491943754,
                0.6689312377314958,
                2.3142819276646835
            ]
        },
        {
            "positions": [
                -0.2913907445095285,
                -0.779872114505229,
                0.665270351733654,
                -0.3303761972887938,
                0.6158916734761434,
                2.384598694757
            ]
        },
        {
            "positions": [
                -0.2454198310675474,
                -0.818934215195986,
                0.8088766772628586,
                -0.3723749096581502,
                0.5628521092207908,
                2.454915461849316
            ]
        },
        {
            "positions": [
                -0.19944891762556638,
                -0.8579963158867427,
                0.9524830027920623,
                -0.4143736220275063,
                0.5098125449654385,
                2.5252322289416327
            ]
        },
        {
            "positions": [
                -0.15347800418358526,
                -0.8970584165774997,
                1.0960893283212665,
                -0.4563723343968627,
                0.456772980710086,
                2.5955489960339486
            ]
        },
        {
            "positions": [
                -0.10750709074160425,
                -0.9361205172682567,
                1.2396956538504706,
                -0.49837104676621896,
                0.4037334164547335,
                2.665865763126265
            ]
        },
        {
            "positions": [
                -0.06153617729962324,
                -0.9751826179590137,
                1.3833019793796748,
                -0.5403697591355754,
                0.350693852199381,
                2.7361825302185814
            ]
        },
        {
            "positions": [
                -0.01556526385764223,
                -1.0142447186497707,
                1.5269083049088785,
                -0.5823684715049315,
                0.2976542879440287,
                2.8064992973108978
            ]
        },
        {
            "positions": [
                0.030405649584339,
                -1.0533068193405277,
                1.6705146304380827,
                -0.6243671838742879,
                0.2446147236886762,
                2.876816064403214
            ]
        },
        {
            "positions": [
                0.07637656302632001,
                -1.0923689200312847,
                1.8141209559672868,
                -0.6663658962436441,
                0.1915751594333237,
                2.9471328314955305
            ]
        },
        {
            "positions": [
                0.12234747646830092,
                -1.1314310207220417,
                1.957727281496491,
                -0.7083646086130004,
                0.13853559517797123,
                3.017449598587847
            ]
        }
    ]
}