{
    "goal": {
        "global_pose": {
            "orientation": {
                "w": 0.5084816217422485,
                "x": -0.49083608388900757,
                "y": 0.5182115435600281,
                "z": -0.4816462993621826
            },
            "position": {
                "x": 0.5540239810943604,
                "y": 0.030875300988554955,
                "z": 0.16403168439865112
            }
        },
        "name": "move_to_storage_A"
    },
    "id": "TRRT_move_to_storage_A_55",
    "joint_names": [
        "shoulder_pan_joint",
        "shoulder_lift_joint",
        "elbow_joint",
        "wrist_1_joint",
        "wrist_2_joint",
        "wrist_3_joint"
    ],
    "metrics": {
        "cart_traj_len": 0.3526794613510927,
        "distance_elbow_joint": 0.4500674975696506,
        "distance_shoulder_lift_joint": 0.2349448609791378,
        "distance_shoulder_pan_joint": 0.46182780658421585,
        "distance_wrist_1_joint": 0.24743684245643383,
        "distance_wrist_2_joint": 1.0950308359483083,
        "distance_wrist_3_joint": 0.09170247261442821,
        "smoothness": 4.440892098500626e-16,
        "time": 0.021596925,
        "traj_len": 1.6065523073190535,
        "weighted_distance": 2.026544581248035
    },
    "planner": "TRRT",
    "start": {
        "state": {
            "elbow_joint": 1.9715463870305268,
            "shoulder_lift_joint": -1.1394903361783484,
            "shoulder_pan_joint": 0.12281147578464417,
            "wrist_1_joint": -0.7804599489681411,
            "wrist_2_joint": 0.12958660307563738,
            "wrist_3_joint": -3.1924946282119055
        }
    },
    "waypoints": [
        {
            "positions": [
                0.12281147578464417,
                -1.1394903361783484,
                1.9715463870305268,
                -0.7804599489681411,
                0.12958660307563738,
                -3.1924946282119055
            ]
        },
        {
            "positions": [
                0.056836074844041906,
                -1.1730538877467966,
                2.0358417438261913,
                -0.8158080693190602,
                0.2860195796396814,
                -3.179394274981273
            ]
        },
        {
            "positions": [
                -0.00913932609656036,
                -1.206617439315245,
                2.1001371006218554,
                -0.8511561896699793,
                0.4424525562037255,
                -3.1662939217506403
            ]
        },
        {
            "positions": [
                -0.07511472703716261,
                -1.2401809908836932,
                2.16443245741752,
                -0.8865043100208985,
                0.5988855327677695,
                -3.153193568520008
            ]
        },
        {
            "positions": [
                -0.14109012797776488,
                -1.2737445424521414,
                2.228727814213184,
                -0.9218524303718175,
                0.7553185093318135,
                -3.140093215289375
            ]
        },
        {
            "positions": [
                -0.20706552891836716,
                -1.3073080940205897,
                2.2930231710088487,
                -0.9572005507227367,
                0.9117514858958576,
                -3.1269928620587426
            ]
        },
        {
            "positions": [
                -0.2730409298589694,
                -1.340871645589038,
                2.357318527804513,
                -0.9925486710736557,
                1.0681844624599015,
                -3.1138925088281098
            ]
        },
        {
            "positions": [
                -0.33901633079957166,
                -1.3744351971574862,
                2.4216138846001773,
                -1.027896791424575,
                1.2246174390239457,
                -3.1007921555974773
            ]
        }
    ]
}