{
    "goal": {
        "global_pose": {
            "orientation": {
                "w": 0.7031023502349854,
                "x": -0.7110244035720825,
                "y": 0.007748599164187908,
                "z": 0.005598929710686207
            },
            "position": {
                "x": 0.11585023208521307,
                "y": 0.44412534475326537,
                "z": 0.3711530566215515
            }
        },
        "name": "move_to_auspresseinheit_A"
    },
    "id": "TRRT_move_to_auspresseinheit_A_150",
    "joint_names": [
        "shoulder_pan_joint",
        "shoulder_lift_joint",
        "elbow_joint",
        "wrist_1_joint",
        "wrist_2_joint",
        "wrist_3_joint"
    ],
    "metrics": {
        "cart_traj_len": 0.687901924049167,
        "distance_elbow_joint": 0.023949901277468655,
        "distance_shoulder_lift_joint": 0.5392431922391274,
        "distance_shoulder_pan_joint": 1.043034930699601,
        "distance_wrist_1_joint": 0.5466667031011936,
        "distance_wrist_2_joint": 0.525476241683378,
        "distance_wrist_3_joint": 0.0250883646371598,
        "smoothness": 5.921189495924697e-16,
        "time": 0.033761941000000004,
        "traj_len": 1.644219977265186,
        "weighted_distance": 1.9559598686314654
    },
    "planner": "TRRT",
    "start": {
        "state": {
            "elbow_joint": 2.422574709923281,
            "shoulder_lift_joint": -1.3736533754116391,
            "shoulder_pan_joint": -0.33786336945926293,
            "wrist_1_joint": -1.0288603412921917,
            "wrist_2_joint": 1.2330224858903978,
            "wrist_3_joint": -3.094022268022082
        }
    },
    "waypoints": [
        {
            "positions": [
                -0.33786336945926293,
                -1.3736533754116391,
                2.422574709923281,
                -1.0288603412921917,
                1.2330224858903978,
                -3.094022268022082
            ]
        },
        {
            "positions": [
                -0.20507825175151417,
                -1.4420218040708404,
                2.4192962773715565,
                -0.9588436378416353,
                1.166111071724101,
                -3.098157472320257
            ]
        },
        {
            "positions": [
                -0.07229313404376542,
                -1.5103902327300414,
                2.416017844819832,
                -0.8888269343910788,
                1.0991996575578042,
                -3.1022926766184327
            ]
        },
        {
            "positions": [
                0.060491983663983395,
                -1.5787586613892426,
                2.4127394122681074,
                -0.8188102309405223,
                1.0322882433915077,
                -3.106427880916608
            ]
        },
        {
            "positions": [
                0.1932771013717321,
                -1.6471270900484436,
                2.409460979716383,
                -0.7487935274899659,
                0.965376829225211,
                -3.110563085214783
            ]
        },
        {
            "positions": [
                0.326062219079481,
                -1.715495518707645,
                2.4061825471646583,
                -0.6787768240394093,
                0.8984654150589142,
                -3.1146982895129582
            ]
        },
        {
            "positions": [
                0.45884733678722966,
                -1.783863947366846,
                2.4029041146129337,
                -0.6087601205888529,
                0.8315540008926176,
                -3.1188334938111337
            ]
        },
        {
            "positions": [
                0.5820094490137838,
                -1.8483802575088064,
                2.400764461629373,
                -0.5454768793899255,
                0.7695501225498187,
                -3.118972063235188
            ]
        },
        {
            "positions": [
                0.705171561240338,
                -1.9128965676507665,
                2.3986248086458124,
                -0.48219363819099814,
                0.7075462442070197,
                -3.119110632659242
            ]
        }
    ]
}