{
    "goal": {
        "global_pose": {
            "orientation": {
                "w": 0.5084816217422485,
                "x": -0.49083608388900757,
                "y": 0.5182115435600281,
                "z": -0.4816462993621826
            },
            "position": {
                "x": 0.5540239810943604,
                "y": 0.030875300988554955,
                "z": 0.16403168439865112
            }
        },
        "name": "move_to_storage_A"
    },
    "id": "TRRT_move_to_storage_A_88",
    "joint_names": [
        "shoulder_pan_joint",
        "shoulder_lift_joint",
        "elbow_joint",
        "wrist_1_joint",
        "wrist_2_joint",
        "wrist_3_joint"
    ],
    "metrics": {
        "cart_traj_len": 0.35242159496326214,
        "distance_elbow_joint": 0.4485311034517827,
        "distance_shoulder_lift_joint": 0.23542601350765402,
        "distance_shoulder_pan_joint": 0.46158454334795695,
        "distance_wrist_1_joint": 0.23795902536230973,
        "distance_wrist_2_joint": 1.0944535268502744,
        "distance_wrist_3_joint": 0.09524956911608529,
        "smoothness": 1.3322676295501878e-15,
        "time": 0.01729106,
        "traj_len": 1.604120875007885,
        "weighted_distance": 2.0238862300240146
    },
    "planner": "TRRT",
    "start": {
        "state": {
            "elbow_joint": 1.9715463870305268,
            "shoulder_lift_joint": -1.1394903361783484,
            "shoulder_pan_joint": 0.12281147578464417,
            "wrist_1_joint": -0.7804599489681411,
            "wrist_2_joint": 0.12958660307563738,
            "wrist_3_joint": -3.1924946282119055
        }
    },
    "waypoints": [
        {
            "positions": [
                0.12281147578464417,
                -1.1394903361783484,
                1.9715463870305268,
                -0.7804599489681411,
                0.12958660307563738,
                -3.1924946282119055
            ]
        },
        {
            "positions": [
                0.05687082673493604,
                -1.173122623822299,
                2.03562225895221,
                -0.814454095448471,
                0.28593710691139085,
                -3.178887546909608
            ]
        },
        {
            "positions": [
                -0.009069822314772089,
                -1.2067549114662495,
                2.099698130873893,
                -0.848448241928801,
                0.4422876107471443,
                -3.1652804656073097
            ]
        },
        {
            "positions": [
                -0.07501047136448023,
                -1.2403871991102,
                2.1637740027955763,
                -0.8824423884091309,
                0.5986381145828978,
                -3.151673384305012
            ]
        },
        {
            "positions": [
                -0.14095112041418834,
                -1.2740194867541508,
                2.2278498747172595,
                -0.916436534889461,
                0.7549886184186513,
                -3.138066303002714
            ]
        },
        {
            "positions": [
                -0.20689176946389648,
                -1.3076517743981013,
                2.291925746638943,
                -0.9504306813697909,
                0.9113391222544048,
                -3.124459221700416
            ]
        },
        {
            "positions": [
                -0.2728324185136046,
                -1.3412840620420519,
                2.3560016185606263,
                -0.9844248278501209,
                1.0676896260901583,
                -3.110852140398118
            ]
        },
        {
            "positions": [
                -0.33877306756331277,
                -1.3749163496860024,
                2.4200774904823095,
                -1.0184189743304508,
                1.2240401299259118,
                -3.0972450590958203
            ]
        }
    ]
}