{
    "goal": {
        "global_pose": {
            "orientation": {
                "w": 0.5084816217422485,
                "x": -0.49083608388900757,
                "y": 0.5182115435600281,
                "z": -0.4816462993621826
            },
            "position": {
                "x": 0.5540239810943604,
                "y": 0.030875300988554955,
                "z": 0.16403168439865112
            }
        },
        "name": "move_to_storage_A"
    },
    "id": "TRRT_move_to_storage_A_142",
    "joint_names": [
        "shoulder_pan_joint",
        "shoulder_lift_joint",
        "elbow_joint",
        "wrist_1_joint",
        "wrist_2_joint",
        "wrist_3_joint"
    ],
    "metrics": {
        "cart_traj_len": 0.35240808576741184,
        "distance_elbow_joint": 0.44673161984871834,
        "distance_shoulder_lift_joint": 0.23458738685001346,
        "distance_shoulder_pan_joint": 0.45824730046202383,
        "distance_wrist_1_joint": 0.23361008395962635,
        "distance_wrist_2_joint": 1.1079946376253254,
        "distance_wrist_3_joint": 0.08715511053239755,
        "smoothness": 4.440892098500626e-16,
        "time": 0.017228258,
        "traj_len": 1.602599806339095,
        "weighted_distance": 2.0209505392086795
    },
    "planner": "TRRT",
    "start": {
        "state": {
            "elbow_joint": 1.9715463870305268,
            "shoulder_lift_joint": -1.1394903361783484,
            "shoulder_pan_joint": 0.12281147578464417,
            "wrist_1_joint": -0.7804599489681411,
            "wrist_2_joint": 0.12958660307563738,
            "wrist_3_joint": -3.1924946282119055
        }
    },
    "waypoints": [
        {
            "positions": [
                0.12281147578464417,
                -1.1394903361783484,
                1.9715463870305268,
                -0.7804599489681411,
                0.12958660307563738,
                -3.1924946282119055
            ]
        },
        {
            "positions": [
                0.05734757571864077,
                -1.1730028200140645,
                2.035365189866058,
                -0.8138328181052306,
                0.2878715513078267,
                -3.1800438981358488
            ]
        },
        {
            "positions": [
                -0.008116324347362633,
                -1.206515303849781,
                2.099183992701589,
                -0.84720568724232,
                0.446156499540016,
                -3.167593168059792
            ]
        },
        {
            "positions": [
                -0.07358022441336602,
                -1.240027787685497,
                2.1630027955371203,
                -0.8805785563794095,
                0.6044414477722053,
                -3.155142437983735
            ]
        },
        {
            "positions": [
                -0.13904412447936942,
                -1.2735402715212132,
                2.2268215983726516,
                -0.913951425516499,
                0.7627263960043947,
                -3.1426917079076784
            ]
        },
        {
            "positions": [
                -0.20450802454537287,
                -1.3070527553569296,
                2.290640401208183,
                -0.9473242946535885,
                0.9210113442365842,
                -3.1302409778316216
            ]
        },
        {
            "positions": [
                -0.2699719246113762,
                -1.3405652391926457,
                2.354459204043714,
                -0.980697163790678,
                1.0792962924687732,
                -3.117790247755565
            ]
        },
        {
            "positions": [
                -0.33543582467737965,
                -1.3740777230283618,
                2.418278006879245,
                -1.0140700329277674,
                1.2375812407009628,
                -3.105339517679508
            ]
        }
    ]
}