{
    "goal": {
        "global_pose": {
            "orientation": {
                "w": 0.7031023502349854,
                "x": -0.7110244035720825,
                "y": 0.007748599164187908,
                "z": 0.005598929710686207
            },
            "position": {
                "x": 0.11585023208521307,
                "y": 0.44412534475326537,
                "z": 0.3711530566215515
            }
        },
        "name": "move_to_auspresseinheit_A"
    },
    "id": "TRRT_move_to_auspresseinheit_A_58",
    "joint_names": [
        "shoulder_pan_joint",
        "shoulder_lift_joint",
        "elbow_joint",
        "wrist_1_joint",
        "wrist_2_joint",
        "wrist_3_joint"
    ],
    "metrics": {
        "cart_traj_len": 0.6788254593774381,
        "distance_elbow_joint": 0.028923962275570148,
        "distance_shoulder_lift_joint": 0.5363137486859733,
        "distance_shoulder_pan_joint": 1.0467907095886764,
        "distance_wrist_1_joint": 0.5469357844309153,
        "distance_wrist_2_joint": 0.5121233230143374,
        "distance_wrist_3_joint": 0.08410423536239087,
        "smoothness": 0.05558508469897552,
        "time": 0.023337595,
        "traj_len": 1.6598770326014707,
        "weighted_distance": 1.9956100173951568
    },
    "planner": "TRRT",
    "start": {
        "state": {
            "elbow_joint": 2.422574709923281,
            "shoulder_lift_joint": -1.3736533754116391,
            "shoulder_pan_joint": -0.33786336945926293,
            "wrist_1_joint": -1.0288603412921917,
            "wrist_2_joint": 1.2330224858903978,
            "wrist_3_joint": -3.094022268022082
        }
    },
    "waypoints": [
        {
            "positions": [
                -0.33786336945926293,
                -1.3736533754116391,
                2.422574709923281,
                -1.0288603412921917,
                1.2330224858903978,
                -3.094022268022082
            ]
        },
        {
            "positions": [
                -0.2245930417462746,
                -1.4254046385193042,
                2.4228271185767283,
                -0.9380756993333191,
                1.1496743901854931,
                -3.0889065250475403
            ]
        },
        {
            "positions": [
                -0.11132271403328622,
                -1.477155901626969,
                2.4230795272301755,
                -0.8472910573744465,
                1.0663262944805885,
                -3.0837907820729984
            ]
        },
        {
            "positions": [
                0.0019476136797021426,
                -1.5289071647346342,
                2.423331935883623,
                -0.7565064154155738,
                0.982978198775684,
                -3.0786750390984565
            ]
        },
        {
            "positions": [
                0.11521794139269048,
                -1.5806584278422993,
                2.4235843445370704,
                -0.6657217734567012,
                0.8996301030707794,
                -3.073559296123914
            ]
        },
        {
            "positions": [
                0.22848826910567893,
                -1.6324096909499644,
                2.4238367531905176,
                -0.5749371314978285,
                0.8162820073658748,
                -3.0684435531493723
            ]
        },
        {
            "positions": [
                0.34175859681866716,
                -1.6841609540576292,
                2.424089161843965,
                -0.484152489538956,
                0.7329339116609702,
                -3.0633278101748305
            ]
        },
        {
            "positions": [
                0.5253429684740403,
                -1.797064039077621,
                2.4103844066665214,
                -0.48303852320011625,
                0.7269165372685154,
                -3.0900326989324
            ]
        },
        {
            "positions": [
                0.7089273401294134,
                -1.9099671240976124,
                2.3966796514890785,
                -0.4819245568612765,
                0.7208991628760604,
                -3.1167375876899697
            ]
        }
    ]
}