{
    "goal": {
        "global_pose": {
            "orientation": {
                "w": 0.7047431468963623,
                "x": -0.7094548344612122,
                "y": 0.0024358443915843964,
                "z": -0.0022348060738295317
            },
            "position": {
                "x": 0.6094750761985779,
                "y": 0.3671506643295288,
                "z": 0.19426114857196808
            }
        },
        "name": "move_to_magneteinheit_A"
    },
    "id": "TRRT_move_to_magneteinheit_A_66",
    "joint_names": [
        "shoulder_pan_joint",
        "shoulder_lift_joint",
        "elbow_joint",
        "wrist_1_joint",
        "wrist_2_joint",
        "wrist_3_joint"
    ],
    "metrics": {
        "cart_traj_len": 1.8740547772728167,
        "distance_elbow_joint": 3.923553656829057,
        "distance_shoulder_lift_joint": 0.7038776261254371,
        "distance_shoulder_pan_joint": 1.2409958781234802,
        "distance_wrist_1_joint": 1.5361306605359302,
        "distance_wrist_2_joint": 1.6957011994701785,
        "distance_wrist_3_joint": 1.1549751221501203,
        "smoothness": 4.605369601539975e-16,
        "time": 0.057650661,
        "traj_len": 3.2023794502266907,
        "weighted_distance": 3.9745460429513906
    },
    "planner": "TRRT",
    "start": {
        "state": {
            "elbow_joint": -1.919643507792019,
            "shoulder_lift_joint": -0.07675430207160344,
            "shoulder_pan_joint": -1.1188671864651873,
            "wrist_1_joint": 0.42560062535961957,
            "wrist_2_joint": 1.5706038300724876,
            "wrist_3_joint": 1.1188968870953055
        }
    },
    "waypoints": [
        {
            "positions": [
                -1.1188671864651873,
                -0.07675430207160344,
                -1.919643507792019,
                0.42560062535961957,
                1.5706038300724876,
                1.1188968870953055
            ]
        },
        {
            "positions": [
                -1.0711365757681304,
                -0.10382651846104334,
                -1.7687375979139783,
                0.4846825738417707,
                1.5053845531697885,
                1.0744747670126087
            ]
        },
        {
            "positions": [
                -1.0234059650710734,
                -0.13089873485048323,
                -1.6178316880359378,
                0.5437645223239219,
                1.4401652762670893,
                1.0300526469299116
            ]
        },
        {
            "positions": [
                -0.9756753543740165,
                -0.1579709512399231,
                -1.466925778157897,
                0.602846470806073,
                1.37494599936439,
                0.9856305268472147
            ]
        },
        {
            "positions": [
                -0.9279447436769597,
                -0.18504316762936301,
                -1.3160198682798563,
                0.6619284192882242,
                1.3097267224616909,
                0.9412084067645178
            ]
        },
        {
            "positions": [
                -0.8802141329799027,
                -0.2121153840188029,
                -1.1651139584018158,
                0.7210103677703754,
                1.2445074455589917,
                0.8967862866818208
            ]
        },
        {
            "positions": [
                -0.8324835222828457,
                -0.2391876004082428,
                -1.0142080485237752,
                0.7800923162525266,
                1.1792881686562926,
                0.852364166599124
            ]
        },
        {
            "positions": [
                -0.7847529115857889,
                -0.2662598167976826,
                -0.8633021386457345,
                0.8391742647346776,
                1.1140688917535935,
                0.8079420465164271
            ]
        },
        {
            "positions": [
                -0.7370223008887319,
                -0.2933320331871226,
                -0.7123962287676937,
                0.8982562132168288,
                1.0488496148508943,
                0.76351992643373
            ]
        },
        {
            "positions": [
                -0.689291690191675,
                -0.32040424957656244,
                -0.5614903188896532,
                0.95733816169898,
                0.9836303379481951,
                0.7190978063510332
            ]
        },
        {
            "positions": [
                -0.641561079494618,
                -0.34747646596600235,
                -0.4105844090116124,
                1.0164201101811312,
                0.9184110610454959,
                0.6746756862683362
            ]
        },
        {
            "positions": [
                -0.5938304687975611,
                -0.37454868235544225,
                -0.2596784991335719,
                1.0755020586632824,
                0.8531917841427967,
                0.6302535661856392
            ]
        },
        {
            "positions": [
                -0.5460998581005041,
                -0.40162089874488216,
                -0.10877258925553113,
                1.1345840071454336,
                0.7879725072400975,
                0.5858314461029422
            ]
        },
        {
            "positions": [
                -0.49836924740344724,
                -0.428693115134322,
                0.04213332062250941,
                1.1936659556275846,
                0.7227532303373984,
                0.5414093260202454
            ]
        },
        {
            "positions": [
                -0.45063863670639037,
                -0.45576533152376186,
                0.19303923050055016,
                1.2527479041097358,
                0.6575339534346992,
                0.4969872059375485
            ]
        },
        {
            "positions": [
                -0.4029080260093334,
                -0.48283754791320177,
                0.3439451403785905,
                1.311829852591887,
                0.5923146765320001,
                0.45256508585485156
            ]
        },
        {
            "positions": [
                -0.3551774153122764,
                -0.5099097643026418,
                0.4948510502566317,
                1.3709118010740382,
                0.5270953996293009,
                0.4081429657721546
            ]
        },
        {
            "positions": [
                -0.30744680461521945,
                -0.5369819806920816,
                0.645756960134672,
                1.4299937495561894,
                0.4618761227266017,
                0.3637208456894576
            ]
        },
        {
            "positions": [
                -0.2597161939181626,
                -0.5640541970815214,
                0.7966628700127127,
                1.4890756980383404,
                0.3966568458239026,
                0.31929872560676076
            ]
        },
        {
            "positions": [
                -0.21198558322110572,
                -0.5911264134709613,
                0.947568779890753,
                1.5481576465204916,
                0.33143756892120346,
                0.2748766055240638
            ]
        },
        {
            "positions": [
                -0.16425497252404864,
                -0.6181986298604012,
                1.0984746897687943,
                1.6072395950026428,
                0.2662182920185041,
                0.23045448544136682
            ]
        },
        {
            "positions": [
                -0.11652436182699177,
                -0.6452708462498411,
                1.2493805996468346,
                1.666321543484794,
                0.20099901511580498,
                0.18603236535866985
            ]
        },
        {
            "positions": [
                -0.0687937511299348,
                -0.672343062639281,
                1.4002865095248753,
                1.7254034919669452,
                0.13577973821310585,
                0.141610245275973
            ]
        },
        {
            "positions": [
                -0.021063140432878047,
                -0.6994152790287209,
                1.5511924194029156,
                1.7844854404490962,
                0.07056046131040672,
                0.09718812519327602
            ]
        },
        {
            "positions": [
                0.02666747026417915,
                -0.7264874954181608,
                1.7020983292809568,
                1.8435673889312476,
                0.005341184407707367,
                0.05276600511057894
            ]
        },
        {
            "positions": [
                0.0743980809612359,
                -0.7535597118076007,
                1.8530042391589971,
                1.9026493374133986,
                -0.059878092494991764,
                0.00834388502788208
            ]
        },
        {
            "positions": [
                0.12212869165829297,
                -0.7806319281970406,
                2.0039101490370377,
                1.9617312858955498,
                -0.12509736939769084,
                -0.0360782350548147
            ]
        }
    ]
}