{
    "goal": {
        "global_pose": {
            "orientation": {
                "w": 0.7031023502349854,
                "x": -0.7110244035720825,
                "y": 0.007748599164187908,
                "z": 0.005598929710686207
            },
            "position": {
                "x": 0.11585023208521307,
                "y": 0.44412534475326537,
                "z": 0.3711530566215515
            }
        },
        "name": "move_to_auspresseinheit_A"
    },
    "id": "TRRT_move_to_auspresseinheit_A_134",
    "joint_names": [
        "shoulder_pan_joint",
        "shoulder_lift_joint",
        "elbow_joint",
        "wrist_1_joint",
        "wrist_2_joint",
        "wrist_3_joint"
    ],
    "metrics": {
        "cart_traj_len": 0.6940345595628,
        "distance_elbow_joint": 0.2864895851485656,
        "distance_shoulder_lift_joint": 0.533615319256312,
        "distance_shoulder_pan_joint": 1.064617833464386,
        "distance_wrist_1_joint": 0.5625673081402871,
        "distance_wrist_2_joint": 0.5259233174003027,
        "distance_wrist_3_joint": 0.036753863598125935,
        "smoothness": 0.303334515909107,
        "time": 0.090064414,
        "traj_len": 1.7349257122447574,
        "weighted_distance": 2.0425390032371036
    },
    "planner": "TRRT",
    "start": {
        "state": {
            "elbow_joint": 2.422574709923281,
            "shoulder_lift_joint": -1.3736533754116391,
            "shoulder_pan_joint": -0.33786336945926293,
            "wrist_1_joint": -1.0288603412921917,
            "wrist_2_joint": 1.2330224858903978,
            "wrist_3_joint": -3.094022268022082
        }
    },
    "waypoints": [
        {
            "positions": [
                -0.33786336945926293,
                -1.3736533754116391,
                2.422574709923281,
                -1.0288603412921917,
                1.2330224858903978,
                -3.094022268022082
            ]
        },
        {
            "positions": [
                -0.3424936038581897,
                -1.4653832522427037,
                2.4866602318590596,
                -0.8569681696304225,
                1.219868816827287,
                -3.1040015672237686
            ]
        },
        {
            "positions": [
                -0.34712383825711646,
                -1.5571131290737683,
                2.550745753794838,
                -0.6850759979686534,
                1.2067151477641764,
                -3.1139808664254556
            ]
        },
        {
            "positions": [
                -0.17123094414602769,
                -1.615472390006132,
                2.52435933024867,
                -0.6486121704991953,
                1.123445817885163,
                -3.1167800772912475
            ]
        },
        {
            "positions": [
                0.004661949965061085,
                -1.6738316509384958,
                2.497972906702502,
                -0.6121483430297371,
                1.0401764880061493,
                -3.11957928815704
            ]
        },
        {
            "positions": [
                0.18055484407614986,
                -1.7321909118708598,
                2.471586483156334,
                -0.575684515560279,
                0.9569071581271358,
                -3.122378499022832
            ]
        },
        {
            "positions": [
                0.3564477381872386,
                -1.7905501728032236,
                2.445200059610166,
                -0.5392206880908209,
                0.8736378282481222,
                -3.1251777098886238
            ]
        },
        {
            "positions": [
                0.5323406322983274,
                -1.8489094337355874,
                2.4188136360639976,
                -0.5027568606213627,
                0.7903684983691086,
                -3.127976920754416
            ]
        },
        {
            "positions": [
                0.7082335264094162,
                -1.9072686946679511,
                2.3924272125178296,
                -0.4662930331519046,
                0.707099168490095,
                -3.130776131620208
            ]
        }
    ]
}