{
    "goal": {
        "global_pose": {
            "orientation": {
                "w": 0.5084816217422485,
                "x": -0.49083608388900757,
                "y": 0.5182115435600281,
                "z": -0.4816462993621826
            },
            "position": {
                "x": 0.5540239810943604,
                "y": 0.030875300988554955,
                "z": 0.16403168439865112
            }
        },
        "name": "move_to_storage_A"
    },
    "id": "TRRT_move_to_storage_A_53",
    "joint_names": [
        "shoulder_pan_joint",
        "shoulder_lift_joint",
        "elbow_joint",
        "wrist_1_joint",
        "wrist_2_joint",
        "wrist_3_joint"
    ],
    "metrics": {
        "cart_traj_len": 0.3528884638827814,
        "distance_elbow_joint": 0.4494008259374649,
        "distance_shoulder_lift_joint": 0.23329344748312564,
        "distance_shoulder_pan_joint": 0.4630324948888145,
        "distance_wrist_1_joint": 0.23926988643119318,
        "distance_wrist_2_joint": 1.091298976985545,
        "distance_wrist_3_joint": 0.1001405557243884,
        "smoothness": 8.881784197001252e-16,
        "time": 0.034596704,
        "traj_len": 1.6051280906676986,
        "weighted_distance": 2.0266440640418453
    },
    "planner": "TRRT",
    "start": {
        "state": {
            "elbow_joint": 1.9715463870305268,
            "shoulder_lift_joint": -1.1394903361783484,
            "shoulder_pan_joint": 0.12281147578464417,
            "wrist_1_joint": -0.7804599489681411,
            "wrist_2_joint": 0.12958660307563738,
            "wrist_3_joint": -3.1924946282119055
        }
    },
    "waypoints": [
        {
            "positions": [
                0.12281147578464417,
                -1.1394903361783484,
                1.9715463870305268,
                -0.7804599489681411,
                0.12958660307563738,
                -3.1924946282119055
            ]
        },
        {
            "positions": [
                0.05666397651481353,
                -1.1728179715330806,
                2.035746505021593,
                -0.8146413613154544,
                0.2854864569307152,
                -3.178188834536993
            ]
        },
        {
            "positions": [
                -0.009483522755017113,
                -1.206145606887813,
                2.0999466230126598,
                -0.8488227736627677,
                0.44138631078579305,
                -3.16388304086208
            ]
        },
        {
            "positions": [
                -0.07563102202484774,
                -1.2394732422425452,
                2.164146741003726,
                -0.883004186010081,
                0.5972861646408709,
                -3.1495772471871675
            ]
        },
        {
            "positions": [
                -0.14177852129467838,
                -1.2728008775972772,
                2.2283468589947923,
                -0.9171855983573943,
                0.7531860184959488,
                -3.1352714535122552
            ]
        },
        {
            "positions": [
                -0.20792602056450904,
                -1.3061285129520095,
                2.292546976985859,
                -0.9513670107047076,
                0.9090858723510267,
                -3.1209656598373425
            ]
        },
        {
            "positions": [
                -0.27407351983433964,
                -1.3394561483067418,
                2.3567470949769254,
                -0.985548423052021,
                1.0649857262061044,
                -3.10665986616243
            ]
        },
        {
            "positions": [
                -0.3402210191041703,
                -1.372783783661474,
                2.4209472129679916,
                -1.0197298353993343,
                1.2208855800611824,
                -3.092354072487517
            ]
        }
    ]
}