{
    "goal": {
        "global_pose": {
            "orientation": {
                "w": 0.7047431468963623,
                "x": -0.7094548344612122,
                "y": 0.0024358443915843964,
                "z": -0.0022348060738295317
            },
            "position": {
                "x": 0.6094750761985779,
                "y": 0.3671506643295288,
                "z": 0.19426114857196808
            }
        },
        "name": "move_to_magneteinheit_A"
    },
    "id": "TRRT_move_to_magneteinheit_A_36",
    "joint_names": [
        "shoulder_pan_joint",
        "shoulder_lift_joint",
        "elbow_joint",
        "wrist_1_joint",
        "wrist_2_joint",
        "wrist_3_joint"
    ],
    "metrics": {
        "cart_traj_len": 2.063186079360975,
        "distance_elbow_joint": 3.8740047095005936,
        "distance_shoulder_lift_joint": 1.0522477163961925,
        "distance_shoulder_pan_joint": 1.2408262382915203,
        "distance_wrist_1_joint": 1.1238686514433553,
        "distance_wrist_2_joint": 1.4438344063754436,
        "distance_wrist_3_joint": 1.8899588804084422,
        "smoothness": 8.564577628187025e-16,
        "time": 0.054835489,
        "traj_len": 3.2595614125853727,
        "weighted_distance": 4.119752592213667
    },
    "planner": "TRRT",
    "start": {
        "state": {
            "elbow_joint": -1.919643507792019,
            "shoulder_lift_joint": -0.07675430207160344,
            "shoulder_pan_joint": -1.1188671864651873,
            "wrist_1_joint": 0.42560062535961957,
            "wrist_2_joint": 1.5706038300724876,
            "wrist_3_joint": 1.1188968870953055
        }
    },
    "waypoints": [
        {
            "positions": [
                -1.1188671864651873,
                -0.07675430207160344,
                -1.919643507792019,
                0.42560062535961957,
                1.5706038300724876,
                1.1188968870953055
            ]
        },
        {
            "positions": [
                -1.0729106591210569,
                -0.11572643971590688,
                -1.7761618518845896,
                0.38397586049134713,
                1.517128481688212,
                1.18889536414747
            ]
        },
        {
            "positions": [
                -1.0269541317769266,
                -0.1546985773602103,
                -1.6326801959771604,
                0.34235109562307475,
                1.4636531333039362,
                1.2588938411996347
            ]
        },
        {
            "positions": [
                -0.9809976044327962,
                -0.19367071500451372,
                -1.489198540069731,
                0.3007263307548023,
                1.4101777849196606,
                1.328892318251799
            ]
        },
        {
            "positions": [
                -0.9350410770886658,
                -0.23264285264881715,
                -1.3457168841623015,
                0.2591015658865299,
                1.3567024365353848,
                1.3988907953039638
            ]
        },
        {
            "positions": [
                -0.8890845497445354,
                -0.27161499029312053,
                -1.2022352282548723,
                0.21747680101825748,
                1.3032270881511092,
                1.4688892723561282
            ]
        },
        {
            "positions": [
                -0.8431280224004051,
                -0.310587127937424,
                -1.0587535723474428,
                0.17585203614998507,
                1.2497517397668334,
                1.5388877494082926
            ]
        },
        {
            "positions": [
                -0.7971714950562747,
                -0.3495592655817274,
                -0.9152719164400134,
                0.13422727128171263,
                1.1962763913825578,
                1.608886226460457
            ]
        },
        {
            "positions": [
                -0.7512149677121442,
                -0.38853140322603086,
                -0.7717902605325839,
                0.0926025064134402,
                1.1428010429982822,
                1.6788847035126218
            ]
        },
        {
            "positions": [
                -0.705258440368014,
                -0.42750354087033426,
                -0.6283086046251547,
                0.05097774154516782,
                1.0893256946140064,
                1.7488831805647862
            ]
        },
        {
            "positions": [
                -0.6593019130238835,
                -0.46647567851463767,
                -0.48482694871772525,
                0.009352976676895386,
                1.0358503462297306,
                1.8188816576169509
            ]
        },
        {
            "positions": [
                -0.6133453856797532,
                -0.5054478161589411,
                -0.3413452928102958,
                -0.03227178819137705,
                0.9823749978454551,
                1.8888801346691153
            ]
        },
        {
            "positions": [
                -0.5673888583356228,
                -0.5444199538032446,
                -0.19786363690286657,
                -0.07389655305964943,
                0.9288996494611794,
                1.9588786117212797
            ]
        },
        {
            "positions": [
                -0.5214323309914924,
                -0.5833920914475479,
                -0.05438198099543712,
                -0.11552131792792192,
                0.8754243010769037,
                2.028877088773444
            ]
        },
        {
            "positions": [
                -0.4754758036473621,
                -0.6223642290918514,
                0.08909967491199233,
                -0.1571460827961943,
                0.821948952692628,
                2.098875565825609
            ]
        },
        {
            "positions": [
                -0.4295192763032316,
                -0.6613363667361549,
                0.232581330819422,
                -0.1987708476644668,
                0.7684736043083522,
                2.1688740428777735
            ]
        },
        {
            "positions": [
                -0.38356274895910125,
                -0.7003085043804582,
                0.37606298672685123,
                -0.24039561253273917,
                0.7149982559240766,
                2.238872519929938
            ]
        },
        {
            "positions": [
                -0.3376062216149709,
                -0.7392806420247617,
                0.5195446426342805,
                -0.28202037740101166,
                0.6615229075398009,
                2.3088709969821024
            ]
        },
        {
            "positions": [
                -0.29164969427084053,
                -0.778252779669065,
                0.6630262985417097,
                -0.3236451422692839,
                0.6080475591555252,
                2.378869474034267
            ]
        },
        {
            "positions": [
                -0.24569316692671006,
                -0.8172249173133685,
                0.8065079544491394,
                -0.3652699071375564,
                0.5545722107712494,
                2.4488679510864317
            ]
        },
        {
            "positions": [
                -0.1997366395825798,
                -0.8561970549576718,
                0.9499896103565686,
                -0.4068946720058288,
                0.5010968623869738,
                2.5188664281385957
            ]
        },
        {
            "positions": [
                -0.15378011223844934,
                -0.8951691926019754,
                1.0934712662639983,
                -0.4485194368741013,
                0.44762151400269823,
                2.5888649051907606
            ]
        },
        {
            "positions": [
                -0.10782358489431898,
                -0.9341413302462789,
                1.2369529221714275,
                -0.49014420174237366,
                0.39414616561842264,
                2.658863382242925
            ]
        },
        {
            "positions": [
                -0.06186705755018851,
                -0.9731134678905822,
                1.3804345780788572,
                -0.5317689666106462,
                0.3406708172341468,
                2.7288618592950895
            ]
        },
        {
            "positions": [
                -0.01591053020605826,
                -1.0120856055348857,
                1.523916233986286,
                -0.5733937314789184,
                0.28719546884987124,
                2.798860336347254
            ]
        },
        {
            "positions": [
                0.03004599713807221,
                -1.0510577431791892,
                1.6673978898937156,
                -0.615018496347191,
                0.23372012046559543,
                2.8688588133994184
            ]
        },
        {
            "positions": [
                0.07600252448220246,
                -1.0900298808234925,
                1.8108795458011449,
                -0.6566432612154633,
                0.18024477208131984,
                2.9388572904515833
            ]
        },
        {
            "positions": [
                0.12195905182633293,
                -1.129002018467796,
                1.9543612017085743,
                -0.6982680260837357,
                0.12676942369704403,
                3.0088557675037477
            ]
        }
    ]
}