{
    "goal": {
        "global_pose": {
            "orientation": {
                "w": 0.5084816217422485,
                "x": -0.49083608388900757,
                "y": 0.5182115435600281,
                "z": -0.4816462993621826
            },
            "position": {
                "x": 0.5540239810943604,
                "y": 0.030875300988554955,
                "z": 0.16403168439865112
            }
        },
        "name": "move_to_storage_A"
    },
    "id": "TRRT_move_to_storage_A_81",
    "joint_names": [
        "shoulder_pan_joint",
        "shoulder_lift_joint",
        "elbow_joint",
        "wrist_1_joint",
        "wrist_2_joint",
        "wrist_3_joint"
    ],
    "metrics": {
        "cart_traj_len": 0.3528309197831308,
        "distance_elbow_joint": 0.451131462856345,
        "distance_shoulder_lift_joint": 0.23650764223363296,
        "distance_shoulder_pan_joint": 0.463247270662246,
        "distance_wrist_1_joint": 0.24205795565421806,
        "distance_wrist_2_joint": 1.0916685580054017,
        "distance_wrist_3_joint": 0.08888961852291777,
        "smoothness": 4.440892133664971e-16,
        "time": 0.023088156,
        "traj_len": 1.6042139844592933,
        "weighted_distance": 2.021140336206325
    },
    "planner": "TRRT",
    "start": {
        "state": {
            "elbow_joint": 1.9715463870305268,
            "shoulder_lift_joint": -1.1394903361783484,
            "shoulder_pan_joint": 0.12281147578464417,
            "wrist_1_joint": -0.7804599489681411,
            "wrist_2_joint": 0.12958660307563738,
            "wrist_3_joint": -3.1924946282119055
        }
    },
    "waypoints": [
        {
            "positions": [
                0.12281147578464417,
                -1.1394903361783484,
                1.9715463870305268,
                -0.7804599489681411,
                0.12958660307563738,
                -3.1924946282119055
            ]
        },
        {
            "positions": [
                0.05663329426146617,
                -1.1732771422117245,
                2.0359937388671474,
                -0.8150396569187437,
                0.2855392542192662,
                -3.1797961112800603
            ]
        },
        {
            "positions": [
                -0.009544887261711835,
                -1.2070639482451007,
                2.100441090703768,
                -0.8496193648693462,
                0.44149190536289495,
                -3.1670975943482147
            ]
        },
        {
            "positions": [
                -0.07572306878488984,
                -1.2408507542784768,
                2.1648884425403887,
                -0.8841990728199488,
                0.5974445565065238,
                -3.1543990774163695
            ]
        },
        {
            "positions": [
                -0.14190125030806783,
                -1.274637560311853,
                2.2293357943770093,
                -0.9187787807705514,
                0.7533972076501526,
                -3.141700560484524
            ]
        },
        {
            "positions": [
                -0.20807943183124583,
                -1.308424366345229,
                2.2937831462136304,
                -0.9533584887211539,
                0.9093498587937815,
                -3.1290020435526786
            ]
        },
        {
            "positions": [
                -0.27425761335442383,
                -1.3422111723786052,
                2.358230498050251,
                -0.9879381966717565,
                1.0653025099374103,
                -3.116303526620833
            ]
        },
        {
            "positions": [
                -0.34043579487760184,
                -1.3759979784119813,
                2.4226778498868717,
                -1.0225179046223591,
                1.2212551610810392,
                -3.103605009688988
            ]
        }
    ]
}