{
    "goal": {
        "global_pose": {
            "orientation": {
                "w": 0.7047431468963623,
                "x": -0.7094548344612122,
                "y": 0.0024358443915843964,
                "z": -0.0022348060738295317
            },
            "position": {
                "x": 0.6094750761985779,
                "y": 0.3671506643295288,
                "z": 0.19426114857196808
            }
        },
        "name": "move_to_magneteinheit_A"
    },
    "id": "TRRT_move_to_magneteinheit_A_136",
    "joint_names": [
        "shoulder_pan_joint",
        "shoulder_lift_joint",
        "elbow_joint",
        "wrist_1_joint",
        "wrist_2_joint",
        "wrist_3_joint"
    ],
    "metrics": {
        "cart_traj_len": 2.0658730132711987,
        "distance_elbow_joint": 3.8825189811264726,
        "distance_shoulder_lift_joint": 1.0576453638456353,
        "distance_shoulder_pan_joint": 1.2421984634468104,
        "distance_wrist_1_joint": 1.1580037507034966,
        "distance_wrist_2_joint": 1.4333928727241332,
        "distance_wrist_3_joint": 1.9357655505377886,
        "smoothness": 5.206563165938036e-16,
        "time": 0.07714641,
        "traj_len": 3.2725410589302526,
        "weighted_distance": 4.1439658187402495
    },
    "planner": "TRRT",
    "start": {
        "state": {
            "elbow_joint": -1.919643507792019,
            "shoulder_lift_joint": -0.07675430207160344,
            "shoulder_pan_joint": -1.1188671864651873,
            "wrist_1_joint": 0.42560062535961957,
            "wrist_2_joint": 1.5706038300724876,
            "wrist_3_joint": 1.1188968870953055
        }
    },
    "waypoints": [
        {
            "positions": [
                -1.1188671864651873,
                -0.07675430207160344,
                -1.919643507792019,
                0.42560062535961957,
                1.5706038300724876,
                1.1188968870953055
            ]
        },
        {
            "positions": [
                -1.0745029556278012,
                -0.11452735078037612,
                -1.7809821156089307,
                0.3842433485487804,
                1.5194112274751972,
                1.1880313710430837
            ]
        },
        {
            "positions": [
                -1.0301387247904152,
                -0.1523003994891488,
                -1.6423207234258426,
                0.3428860717379412,
                1.4682186248779066,
                1.2571658549908618
            ]
        },
        {
            "positions": [
                -0.9857744939530291,
                -0.1900734481979215,
                -1.5036593312427542,
                0.30152879492710205,
                1.4170260222806161,
                1.32630033893864
            ]
        },
        {
            "positions": [
                -0.941410263115643,
                -0.2278464969066942,
                -1.3649979390596658,
                0.26017151811626293,
                1.3658334196833257,
                1.3954348228864182
            ]
        },
        {
            "positions": [
                -0.897046032278257,
                -0.2656195456154669,
                -1.2263365468765777,
                0.21881424130542373,
                1.3146408170860353,
                1.4645693068341963
            ]
        },
        {
            "positions": [
                -0.8526818014408708,
                -0.3033925943242396,
                -1.0876751546934893,
                0.1774569644945846,
                1.263448214488745,
                1.5337037907819746
            ]
        },
        {
            "positions": [
                -0.8083175706034847,
                -0.3411656430330123,
                -0.9490137625104009,
                0.13609968768374542,
                1.2122556118914543,
                1.6028382747297527
            ]
        },
        {
            "positions": [
                -0.7639533397660987,
                -0.37893869174178496,
                -0.8103523703273128,
                0.09474241087290625,
                1.1610630092941638,
                1.6719727586775308
            ]
        },
        {
            "positions": [
                -0.7195891089287125,
                -0.4167117404505577,
                -0.6716909781442242,
                0.053385134062067074,
                1.1098704066968734,
                1.7411072426253091
            ]
        },
        {
            "positions": [
                -0.6752248780913265,
                -0.4544847891593304,
                -0.533029585961136,
                0.012027857251227903,
                1.0586778040995828,
                1.8102417265730872
            ]
        },
        {
            "positions": [
                -0.6308606472539404,
                -0.492257837868103,
                -0.39436819377804766,
                -0.029329419559611214,
                1.0074852015022926,
                1.8793762105208653
            ]
        },
        {
            "positions": [
                -0.5864964164165544,
                -0.5300308865768757,
                -0.2557068015949595,
                -0.07068669637045039,
                0.956292598905002,
                1.9485106944686434
            ]
        },
        {
            "positions": [
                -0.5421321855791682,
                -0.5678039352856484,
                -0.11704540941187092,
                -0.11204397318128961,
                0.9050999963077114,
                2.017645178416422
            ]
        },
        {
            "positions": [
                -0.49776795474178215,
                -0.6055769839944212,
                0.021615982771217235,
                -0.15340124999212873,
                0.853907393710421,
                2.0867796623642
            ]
        },
        {
            "positions": [
                -0.4534037239043961,
                -0.6433500327031938,
                0.16027737495430538,
                -0.19475852680296785,
                0.8027147911131306,
                2.1559141463119778
            ]
        },
        {
            "positions": [
                -0.40903949306701004,
                -0.6811230814119664,
                0.29893876713739354,
                -0.23611580361380707,
                0.7515221885158401,
                2.225048630259756
            ]
        },
        {
            "positions": [
                -0.364675262229624,
                -0.718896130120739,
                0.43760015932048213,
                -0.2774730804246462,
                0.7003295859185497,
                2.2941831142075344
            ]
        },
        {
            "positions": [
                -0.3203110313922377,
                -0.7566691788295119,
                0.5762615515035707,
                -0.3188303572354854,
                0.649136983321259,
                2.3633175981553127
            ]
        },
        {
            "positions": [
                -0.27594680055485166,
                -0.7944422275382845,
                0.7149229436866589,
                -0.36018763404632453,
                0.5979443807239686,
                2.432452082103091
            ]
        },
        {
            "positions": [
                -0.2315825697174656,
                -0.8322152762470574,
                0.853584335869747,
                -0.40154491085716376,
                0.5467517781266782,
                2.501586566050869
            ]
        },
        {
            "positions": [
                -0.18721833888007955,
                -0.86998832495583,
                0.9922457280528352,
                -0.4429021876680029,
                0.4955591755293878,
                2.570721049998647
            ]
        },
        {
            "positions": [
                -0.1428541080426935,
                -0.9077613736646026,
                1.1309071202359238,
                -0.484259464478842,
                0.44436657293209736,
                2.639855533946425
            ]
        },
        {
            "positions": [
                -0.09848987720530733,
                -0.9455344223733753,
                1.269568512419012,
                -0.5256167412896813,
                0.3931739703348067,
                2.7089900178942035
            ]
        },
        {
            "positions": [
                -0.05412564636792139,
                -0.9833074710821479,
                1.4082299046021,
                -0.5669740181005203,
                0.3419813677375163,
                2.7781245018419813
            ]
        },
        {
            "positions": [
                -0.009761415530535222,
                -1.0210805197909207,
                1.5468912967851887,
                -0.6083312949113595,
                0.29078876514022567,
                2.84725898578976
            ]
        },
        {
            "positions": [
                0.03460281530685094,
                -1.0588535684996934,
                1.6855526889682773,
                -0.6496885717221987,
                0.23959616254293525,
                2.916393469737538
            ]
        },
        {
            "positions": [
                0.07896704614423689,
                -1.0966266172084662,
                1.8242140811513654,
                -0.6910458485330377,
                0.18840355994564484,
                2.985527953685316
            ]
        },
        {
            "positions": [
                0.12333127698162294,
                -1.1343996659172388,
                1.9628754733344538,
                -0.7324031253438771,
                0.13721095734835448,
                3.054662437633094
            ]
        }
    ]
}