{
    "goal": {
        "global_pose": {
            "orientation": {
                "w": 0.7031023502349854,
                "x": -0.7110244035720825,
                "y": 0.007748599164187908,
                "z": 0.005598929710686207
            },
            "position": {
                "x": 0.11585023208521307,
                "y": 0.44412534475326537,
                "z": 0.3711530566215515
            }
        },
        "name": "move_to_auspresseinheit_A"
    },
    "id": "TRRT_move_to_auspresseinheit_A_118",
    "joint_names": [
        "shoulder_pan_joint",
        "shoulder_lift_joint",
        "elbow_joint",
        "wrist_1_joint",
        "wrist_2_joint",
        "wrist_3_joint"
    ],
    "metrics": {
        "cart_traj_len": 0.6763286096525017,
        "distance_elbow_joint": 0.03062911901496035,
        "distance_shoulder_lift_joint": 0.5367960565027396,
        "distance_shoulder_pan_joint": 1.041742016663048,
        "distance_wrist_1_joint": 0.5456704054952637,
        "distance_wrist_2_joint": 0.532317231117676,
        "distance_wrist_3_joint": 0.04254389813688331,
        "smoothness": 0.00919740746914328,
        "time": 0.032266275999999997,
        "traj_len": 1.6521799922921747,
        "weighted_distance": 1.9730114444212628
    },
    "planner": "TRRT",
    "start": {
        "state": {
            "elbow_joint": 2.422574709923281,
            "shoulder_lift_joint": -1.3736533754116391,
            "shoulder_pan_joint": -0.33786336945926293,
            "wrist_1_joint": -1.0288603412921917,
            "wrist_2_joint": 1.2330224858903978,
            "wrist_3_joint": -3.094022268022082
        }
    },
    "waypoints": [
        {
            "positions": [
                -0.33786336945926293,
                -1.3736533754116391,
                2.422574709923281,
                -1.0288603412921917,
                1.2330224858903978,
                -3.094022268022082
            ]
        },
        {
            "positions": [
                -0.19708314060888873,
                -1.4747770971689504,
                2.4230603237573467,
                -0.9370884951013367,
                1.1974466579566085,
                -3.1023234906912704
            ]
        },
        {
            "positions": [
                -0.05630291175851454,
                -1.5759008189262615,
                2.423545937591413,
                -0.8453166489104819,
                1.1618708300228193,
                -3.1106247133604588
            ]
        },
        {
            "positions": [
                0.08447731709185968,
                -1.6770245406835729,
                2.4240315514254784,
                -0.753544802719627,
                1.12629500208903,
                -3.1189259360296475
            ]
        },
        {
            "positions": [
                0.22525754594223385,
                -1.778148262440884,
                2.4245171652595445,
                -0.661772956528772,
                1.090719174155241,
                -3.127227158698836
            ]
        },
        {
            "positions": [
                0.3660377747926081,
                -1.8792719841981953,
                2.42500277909361,
                -0.570001110337917,
                1.0551433462214517,
                -3.135528381368024
            ]
        },
        {
            "positions": [
                0.478651398929667,
                -1.8896644667702565,
                2.4156024291454,
                -0.5410640521575873,
                0.9369973157385417,
                -3.135182453104377
            ]
        },
        {
            "positions": [
                0.591265023066726,
                -1.9000569493423176,
                2.406202079197189,
                -0.5121269939772577,
                0.8188512852556318,
                -3.13483652484073
            ]
        },
        {
            "positions": [
                0.703878647203785,
                -1.9104494319143788,
                2.396801729248979,
                -0.4831899357969281,
                0.7007052547727217,
                -3.134490596577083
            ]
        }
    ]
}