{
    "goal": {
        "global_pose": {
            "orientation": {
                "w": 0.7031023502349854,
                "x": -0.7110244035720825,
                "y": 0.007748599164187908,
                "z": 0.005598929710686207
            },
            "position": {
                "x": 0.11585023208521307,
                "y": 0.44412534475326537,
                "z": 0.3711530566215515
            }
        },
        "name": "move_to_auspresseinheit_A"
    },
    "id": "TRRT_move_to_auspresseinheit_A_93",
    "joint_names": [
        "shoulder_pan_joint",
        "shoulder_lift_joint",
        "elbow_joint",
        "wrist_1_joint",
        "wrist_2_joint",
        "wrist_3_joint"
    ],
    "metrics": {
        "cart_traj_len": 0.6992237290539781,
        "distance_elbow_joint": 0.2977063667144271,
        "distance_shoulder_lift_joint": 0.7191100187190937,
        "distance_shoulder_pan_joint": 1.0453877226967836,
        "distance_wrist_1_joint": 1.199095698732819,
        "distance_wrist_2_joint": 2.168397154489454,
        "distance_wrist_3_joint": 2.4833758997967466,
        "smoothness": 1.0872869233900593,
        "time": 0.10443537600000001,
        "traj_len": 2.813018460861806,
        "weighted_distance": 4.030796138973676
    },
    "planner": "TRRT",
    "start": {
        "state": {
            "elbow_joint": 2.422574709923281,
            "shoulder_lift_joint": -1.3736533754116391,
            "shoulder_pan_joint": -0.33786336945926293,
            "wrist_1_joint": -1.0288603412921917,
            "wrist_2_joint": 1.2330224858903978,
            "wrist_3_joint": -3.094022268022082
        }
    },
    "waypoints": [
        {
            "positions": [
                -0.33786336945926293,
                -1.3736533754116391,
                2.422574709923281,
                -1.0288603412921917,
                1.2330224858903978,
                -3.094022268022082
            ]
        },
        {
            "positions": [
                -0.3038762255059241,
                -1.3654542319492253,
                2.4079285819253125,
                -0.949357577962814,
                1.1109624277681902,
                -2.9825836289905596
            ]
        },
        {
            "positions": [
                -0.26988908155258523,
                -1.3572550884868115,
                2.3932824539273443,
                -0.8698548146334362,
                0.9889023696459829,
                -2.871144989959037
            ]
        },
        {
            "positions": [
                -0.23590193759924638,
                -1.3490559450243975,
                2.3786363259293757,
                -0.7903520513040584,
                0.8668423115237754,
                -2.759706350927514
            ]
        },
        {
            "positions": [
                -0.20191479364590753,
                -1.3408568015619837,
                2.363990197931407,
                -0.7108492879746806,
                0.744782253401568,
                -2.6482677118959916
            ]
        },
        {
            "positions": [
                -0.16792764969256868,
                -1.33265765809957,
                2.349344069933439,
                -0.6313465246453027,
                0.6227221952793606,
                -2.536829072864469
            ]
        },
        {
            "positions": [
                -0.13394050573922986,
                -1.3244585146371561,
                2.3346979419354703,
                -0.551843761315925,
                0.5006621371571531,
                -2.4253904338329466
            ]
        },
        {
            "positions": [
                -0.09995336178589098,
                -1.3162593711747423,
                2.320051813937502,
                -0.47234099798654716,
                0.3786020790349456,
                -2.313951794801424
            ]
        },
        {
            "positions": [
                -0.06596621783255213,
                -1.3080602277123285,
                2.3054056859395335,
                -0.3928382346571694,
                0.25654202091273814,
                -2.2025131557699016
            ]
        },
        {
            "positions": [
                -0.03197907387921328,
                -1.2998610842499145,
                2.290759557941565,
                -0.3133354713277916,
                0.1344819627905307,
                -2.0910745167383786
            ]
        },
        {
            "positions": [
                0.0020080700741255675,
                -1.2916619407875007,
                2.2761134299435968,
                -0.23383270799841382,
                0.01242190466832338,
                -1.9796358777068563
            ]
        },
        {
            "positions": [
                0.03599521402746442,
                -1.283462797325087,
                2.261467301945628,
                -0.15432994466903605,
                -0.10963815345388417,
                -1.8681972386753336
            ]
        },
        {
            "positions": [
                0.10314812794847003,
                -1.3463547413883412,
                2.2751271978193057,
                -0.18678647488000238,
                -0.02706450193936688,
                -1.9939523257203333
            ]
        },
        {
            "positions": [
                0.17030104186947564,
                -1.4092466854515953,
                2.288787093692983,
                -0.21924300509096875,
                0.05550914957515041,
                -2.119707412765333
            ]
        },
        {
            "positions": [
                0.23745395579048123,
                -1.4721386295148493,
                2.3024469895666604,
                -0.2516995353019351,
                0.13808280108966764,
                -2.245462499810333
            ]
        },
        {
            "positions": [
                0.30460686971148687,
                -1.5350305735781036,
                2.316106885440338,
                -0.28415606551290146,
                0.22065645260418498,
                -2.371217586855333
            ]
        },
        {
            "positions": [
                0.37175978363249246,
                -1.5979225176413578,
                2.3297667813140155,
                -0.3166125957238678,
                0.3032301041187022,
                -2.4969726739003324
            ]
        },
        {
            "positions": [
                0.43891269755349804,
                -1.6608144617046119,
                2.3434266771876926,
                -0.34906912593483413,
                0.38580375563321945,
                -2.6227277609453323
            ]
        },
        {
            "positions": [
                0.5060656114745037,
                -1.723706405767866,
                2.35708657306137,
                -0.3815256561458005,
                0.4683774071477367,
                -2.7484828479903323
            ]
        },
        {
            "positions": [
                0.5732185253955093,
                -1.7865983498311202,
                2.3707464689350477,
                -0.41398218635676687,
                0.5509510586622541,
                -2.8742379350353318
            ]
        },
        {
            "positions": [
                0.6403714393165149,
                -1.8494902938943745,
                2.384406364808725,
                -0.4464387165677332,
                0.6335247101767714,
                -2.999993022080332
            ]
        },
        {
            "positions": [
                0.7075243532375205,
                -1.9123822379576285,
                2.3980662606824024,
                -0.47889524677869955,
                0.7160983616912886,
                -3.1257481091253316
            ]
        }
    ]
}