{
    "goal": {
        "global_pose": {
            "orientation": {
                "w": 0.7031023502349854,
                "x": -0.7110244035720825,
                "y": 0.007748599164187908,
                "z": 0.005598929710686207
            },
            "position": {
                "x": 0.11585023208521307,
                "y": 0.44412534475326537,
                "z": 0.3711530566215515
            }
        },
        "name": "move_to_auspresseinheit_A"
    },
    "id": "TRRT_move_to_auspresseinheit_A_14",
    "joint_names": [
        "shoulder_pan_joint",
        "shoulder_lift_joint",
        "elbow_joint",
        "wrist_1_joint",
        "wrist_2_joint",
        "wrist_3_joint"
    ],
    "metrics": {
        "cart_traj_len": 0.6876710714131816,
        "distance_elbow_joint": 0.025531343661984618,
        "distance_shoulder_lift_joint": 0.5352602119970717,
        "distance_shoulder_pan_joint": 1.0453868682618577,
        "distance_wrist_1_joint": 0.5450804070248558,
        "distance_wrist_2_joint": 0.5208666421811804,
        "distance_wrist_3_joint": 0.029554475263818603,
        "smoothness": 0.0,
        "time": 0.048217418,
        "traj_len": 1.6436787850400605,
        "weighted_distance": 1.9562044750292447
    },
    "planner": "TRRT",
    "start": {
        "state": {
            "elbow_joint": 2.422574709923281,
            "shoulder_lift_joint": -1.3736533754116391,
            "shoulder_pan_joint": -0.33786336945926293,
            "wrist_1_joint": -1.0288603412921917,
            "wrist_2_joint": 1.2330224858903978,
            "wrist_3_joint": -3.094022268022082
        }
    },
    "waypoints": [
        {
            "positions": [
                -0.33786336945926293,
                -1.3736533754116391,
                2.422574709923281,
                -1.0288603412921917,
                1.2330224858903978,
                -3.094022268022082
            ]
        },
        {
            "positions": [
                -0.2039058929289641,
                -1.4421841491233094,
                2.41926195094673,
                -0.9585690230562277,
                1.1667341929702888,
                -3.098307677524439
            ]
        },
        {
            "positions": [
                -0.06994841639866528,
                -1.5107149228349797,
                2.4159491919701788,
                -0.8882777048202637,
                1.1004459000501798,
                -3.1025930870267957
            ]
        },
        {
            "positions": [
                0.06400906013163354,
                -1.57924569654665,
                2.4126364329936276,
                -0.8179863865842997,
                1.0341576071300709,
                -3.1068784965291525
            ]
        },
        {
            "positions": [
                0.19796653666193237,
                -1.6477764702583202,
                2.4093236740170765,
                -0.7476950683483357,
                0.9678693142099619,
                -3.1111639060315093
            ]
        },
        {
            "positions": [
                0.32535577719709796,
                -1.7130607495459178,
                2.4062535970781314,
                -0.6817162848280858,
                0.9039409465847758,
                -3.114267115345107
            ]
        },
        {
            "positions": [
                0.45274501773226355,
                -1.7783450288335154,
                2.4031835201391862,
                -0.6157375013078358,
                0.8400125789595896,
                -3.117370324658705
            ]
        },
        {
            "positions": [
                0.5801342582674291,
                -1.8436293081211133,
                2.4001134432002416,
                -0.5497587177875859,
                0.7760842113344035,
                -3.120473533972303
            ]
        },
        {
            "positions": [
                0.7075234988025948,
                -1.9089135874087109,
                2.3970433662612964,
                -0.48377993426733595,
                0.7121558437092174,
                -3.1235767432859007
            ]
        }
    ]
}