{
    "goal": {
        "global_pose": {
            "orientation": {
                "w": 0.7047431468963623,
                "x": -0.7094548344612122,
                "y": 0.0024358443915843964,
                "z": -0.0022348060738295317
            },
            "position": {
                "x": 0.6094750761985779,
                "y": 0.3671506643295288,
                "z": 0.19426114857196808
            }
        },
        "name": "move_to_magneteinheit_A"
    },
    "id": "TRRT_move_to_magneteinheit_A_54",
    "joint_names": [
        "shoulder_pan_joint",
        "shoulder_lift_joint",
        "elbow_joint",
        "wrist_1_joint",
        "wrist_2_joint",
        "wrist_3_joint"
    ],
    "metrics": {
        "cart_traj_len": 2.1342868571790103,
        "distance_elbow_joint": 3.872849158586284,
        "distance_shoulder_lift_joint": 1.052202901771471,
        "distance_shoulder_pan_joint": 1.2409951651522355,
        "distance_wrist_1_joint": 1.3945220960098026,
        "distance_wrist_2_joint": 1.4769273394547284,
        "distance_wrist_3_joint": 4.779772322203371,
        "smoothness": 0.26211781598557915,
        "time": 0.102232204,
        "traj_len": 3.717158724506917,
        "weighted_distance": 5.123305872485964
    },
    "planner": "TRRT",
    "start": {
        "state": {
            "elbow_joint": -1.919643507792019,
            "shoulder_lift_joint": -0.07675430207160344,
            "shoulder_pan_joint": -1.1188671864651873,
            "wrist_1_joint": 0.42560062535961957,
            "wrist_2_joint": 1.5706038300724876,
            "wrist_3_joint": 1.1188968870953055
        }
    },
    "waypoints": [
        {
            "positions": [
                -1.1188671864651873,
                -0.07675430207160344,
                -1.919643507792019,
                0.42560062535961957,
                1.5706038300724876,
                1.1188968870953055
            ]
        },
        {
            "positions": [
                -1.0896838435106007,
                -0.10328267197703428,
                -1.8123068950781511,
                0.38738681089871524,
                1.5263131338861191,
                0.9800964203067543
            ]
        },
        {
            "positions": [
                -1.0605005005560137,
                -0.12981104188246512,
                -1.7049702823642832,
                0.34917299643781086,
                1.4820224376997508,
                0.841295953518203
            ]
        },
        {
            "positions": [
                -1.031317157601427,
                -0.15633941178789595,
                -1.5976336696504152,
                0.31095918197690653,
                1.4377317415133823,
                0.7024954867296518
            ]
        },
        {
            "positions": [
                -1.0021338146468401,
                -0.18286778169332676,
                -1.4902970569365472,
                0.2727453675160022,
                1.3934410453270138,
                0.5636950199411004
            ]
        },
        {
            "positions": [
                -0.9729504716922535,
                -0.2093961515987576,
                -1.3829604442226793,
                0.23453155305509782,
                1.3491503491406456,
                0.4248945531525492
            ]
        },
        {
            "positions": [
                -0.9437671287376665,
                -0.23592452150418844,
                -1.2756238315088115,
                0.19631773859419346,
                1.304859652954277,
                0.2860940863639979
            ]
        },
        {
            "positions": [
                -0.9145837857830799,
                -0.26245289140961925,
                -1.1682872187949433,
                0.1581039241332891,
                1.2605689567679088,
                0.14729361957544662
            ]
        },
        {
            "positions": [
                -0.8854004428284931,
                -0.2889812613150501,
                -1.0609506060810756,
                0.11989010967238478,
                1.2162782605815403,
                0.00849315278689522
            ]
        },
        {
            "positions": [
                -0.8562170998739063,
                -0.3155096312204809,
                -0.9536139933672076,
                0.08167629521148045,
                1.171987564395172,
                -0.13030731400165574
            ]
        },
        {
            "positions": [
                -0.8270337569193195,
                -0.34203800112591176,
                -0.8462773806533397,
                0.04346248075057607,
                1.1276968682088035,
                -0.26910778079020714
            ]
        },
        {
            "positions": [
                -0.7978504139647327,
                -0.36856637103134254,
                -0.7389407679394717,
                0.005248666289671744,
                1.083406172022435,
                -0.4079082475787583
            ]
        },
        {
            "positions": [
                -0.7686670710101459,
                -0.39509474093677344,
                -0.6316041552256038,
                -0.03296514817123264,
                1.0391154758360668,
                -0.5467087143673097
            ]
        },
        {
            "positions": [
                -0.7394837280555591,
                -0.4216231108422042,
                -0.5242675425117358,
                -0.07117896263213691,
                0.9948247796496983,
                -0.6855091811558609
            ]
        },
        {
            "positions": [
                -0.7103003851009723,
                -0.44815148074763506,
                -0.41693092979786783,
                -0.10939277709304135,
                0.9505340834633299,
                -0.8243096479444123
            ]
        },
        {
            "positions": [
                -0.6811170421463855,
                -0.4746798506530659,
                -0.3095943170840001,
                -0.14760659155394568,
                0.9062433872769615,
                -0.9631101147329635
            ]
        },
        {
            "positions": [
                -0.6519336991917988,
                -0.5012082205584967,
                -0.2022577043701319,
                -0.18582040601485,
                0.861952691090593,
                -1.101910581521515
            ]
        },
        {
            "positions": [
                -0.6227503562372119,
                -0.5277365904639275,
                -0.09492109165626417,
                -0.22403422047575433,
                0.8176619949042248,
                -1.2407110483100658
            ]
        },
        {
            "positions": [
                -0.5935670132826252,
                -0.5542649603693584,
                0.012415521057603796,
                -0.26224803493665866,
                0.7733712987178564,
                -1.379511515098617
            ]
        },
        {
            "positions": [
                -0.5643836703280383,
                -0.5807933302747892,
                0.11975213377147198,
                -0.3004618493975631,
                0.7290806025314878,
                -1.5183119818871686
            ]
        },
        {
            "positions": [
                -0.5352003273734516,
                -0.60732170018022,
                0.22708874648533972,
                -0.3386756638584674,
                0.6847899063451195,
                -1.6571124486757198
            ]
        },
        {
            "positions": [
                -0.5060169844188648,
                -0.6338500700856509,
                0.33442535919920746,
                -0.37688947831937175,
                0.6404992101587511,
                -1.795912915464271
            ]
        },
        {
            "positions": [
                -0.476833641464278,
                -0.6603784399910817,
                0.44176197191307565,
                -0.4151032927802761,
                0.5962085139723827,
                -1.9347133822528222
            ]
        },
        {
            "positions": [
                -0.4476502985096912,
                -0.6869068098965125,
                0.5490985846269438,
                -0.4533171072411805,
                0.5519178177860142,
                -2.073513849041374
            ]
        },
        {
            "positions": [
                -0.4184669555551044,
                -0.7134351798019434,
                0.6564351973408116,
                -0.49153092170208484,
                0.5076271215996457,
                -2.212314315829925
            ]
        },
        {
            "positions": [
                -0.3892836126005176,
                -0.7399635497073742,
                0.7637718100546793,
                -0.529744736162989,
                0.46333642541327746,
                -2.351114782618476
            ]
        },
        {
            "positions": [
                -0.3601002696459309,
                -0.766491919612805,
                0.8711084227685475,
                -0.5679585506238933,
                0.41904572922690897,
                -2.4899152494070274
            ]
        },
        {
            "positions": [
                -0.330916926691344,
                -0.7930202895182359,
                0.9784450354824157,
                -0.6061723650847979,
                0.3747550330405405,
                -2.628715716195579
            ]
        },
        {
            "positions": [
                -0.3017335837367572,
                -0.8195486594236667,
                1.0857816481962834,
                -0.6443861795457022,
                0.3304643368541722,
                -2.76751618298413
            ]
        },
        {
            "positions": [
                -0.2725502407821705,
                -0.8460770293290976,
                1.1931182609101512,
                -0.6825999940066065,
                0.2861736406678037,
                -2.906316649772682
            ]
        },
        {
            "positions": [
                -0.2433668978275837,
                -0.8726053992345284,
                1.300454873624019,
                -0.7208138084675109,
                0.24188294448143544,
                -3.0451171165612325
            ]
        },
        {
            "positions": [
                -0.21418355487299678,
                -0.8991337691399592,
                1.4077914863378875,
                -0.7590276229284152,
                0.19759224829506694,
                -3.183917583349784
            ]
        },
        {
            "positions": [
                -0.1850002119184101,
                -0.9256621390453901,
                1.5151280990517553,
                -0.7972414373893195,
                0.15330155210869845,
                -3.3227180501383358
            ]
        },
        {
            "positions": [
                -0.15581686896382335,
                -0.9521905089508209,
                1.6224647117656232,
                -0.8354552518502238,
                0.10901085592233023,
                -3.461518516926886
            ]
        },
        {
            "positions": [
                -0.0631685864135329,
                -1.011112740581572,
                1.7327116914418375,
                -0.7909665122502375,
                0.11412231102385384,
                -3.395066210866493
            ]
        },
        {
            "positions": [
                0.02947969613675755,
                -1.0700349722123232,
                1.8429586711180517,
                -0.7464777726502512,
                0.11923376612537746,
                -3.3286139048060996
            ]
        },
        {
            "positions": [
                0.12212797868704801,
                -1.1289572038430744,
                1.953205650794266,
                -0.7019890330502648,
                0.12434522122690107,
                -3.2621615987457067
            ]
        }
    ]
}