{
    "goal": {
        "global_pose": {
            "orientation": {
                "w": 0.5084816217422485,
                "x": -0.49083608388900757,
                "y": 0.5182115435600281,
                "z": -0.4816462993621826
            },
            "position": {
                "x": 0.5540239810943604,
                "y": 0.030875300988554955,
                "z": 0.16403168439865112
            }
        },
        "name": "move_to_storage_A"
    },
    "id": "TRRT_move_to_storage_A_103",
    "joint_names": [
        "shoulder_pan_joint",
        "shoulder_lift_joint",
        "elbow_joint",
        "wrist_1_joint",
        "wrist_2_joint",
        "wrist_3_joint"
    ],
    "metrics": {
        "cart_traj_len": 0.35270516300715915,
        "distance_elbow_joint": 0.449409737680762,
        "distance_shoulder_lift_joint": 0.23626373943383205,
        "distance_shoulder_pan_joint": 0.4574030580181677,
        "distance_wrist_1_joint": 0.23575091146878713,
        "distance_wrist_2_joint": 1.1155841535170985,
        "distance_wrist_3_joint": 0.10152633453200366,
        "smoothness": 2.220446049250313e-15,
        "time": 0.030578584,
        "traj_len": 1.6111914643054224,
        "weighted_distance": 2.037234809417055
    },
    "planner": "TRRT",
    "start": {
        "state": {
            "elbow_joint": 1.9715463870305268,
            "shoulder_lift_joint": -1.1394903361783484,
            "shoulder_pan_joint": 0.12281147578464417,
            "wrist_1_joint": -0.7804599489681411,
            "wrist_2_joint": 0.12958660307563738,
            "wrist_3_joint": -3.1924946282119055
        }
    },
    "waypoints": [
        {
            "positions": [
                0.12281147578464417,
                -1.1394903361783484,
                1.9715463870305268,
                -0.7804599489681411,
                0.12958660307563738,
                -3.1924946282119055
            ]
        },
        {
            "positions": [
                0.057468181782048794,
                -1.17324229895461,
                2.0357477781277784,
                -0.8141386506065392,
                0.2889557678637943,
                -3.177990866135905
            ]
        },
        {
            "positions": [
                -0.007875112220546585,
                -1.2069942617308718,
                2.09994916922503,
                -0.8478173522449374,
                0.44832493265195117,
                -3.1634871040599046
            ]
        },
        {
            "positions": [
                -0.07321840622314198,
                -1.2407462245071335,
                2.1641505603222817,
                -0.8814960538833355,
                0.6076940974401082,
                -3.148983341983904
            ]
        },
        {
            "positions": [
                -0.13856170022573733,
                -1.2744981872833954,
                2.2283519514195333,
                -0.9151747555217338,
                0.767063262228265,
                -3.1344795799079033
            ]
        },
        {
            "positions": [
                -0.20390499422833275,
                -1.308250150059657,
                2.2925533425167854,
                -0.9488534571601319,
                0.926432427016422,
                -3.119975817831903
            ]
        },
        {
            "positions": [
                -0.2692482882309281,
                -1.3420021128359187,
                2.356754733614037,
                -0.9825321587985301,
                1.085801591804579,
                -3.1054720557559023
            ]
        },
        {
            "positions": [
                -0.33459158223352353,
                -1.3757540756121804,
                2.4209561247112887,
                -1.0162108604369282,
                1.245170756592736,
                -3.090968293679902
            ]
        }
    ]
}