{
    "goal": {
        "global_pose": {
            "orientation": {
                "w": 0.7047431468963623,
                "x": -0.7094548344612122,
                "y": 0.0024358443915843964,
                "z": -0.0022348060738295317
            },
            "position": {
                "x": 0.6094750761985779,
                "y": 0.3671506643295288,
                "z": 0.19426114857196808
            }
        },
        "name": "move_to_magneteinheit_A"
    },
    "id": "TRRT_move_to_magneteinheit_A_101",
    "joint_names": [
        "shoulder_pan_joint",
        "shoulder_lift_joint",
        "elbow_joint",
        "wrist_1_joint",
        "wrist_2_joint",
        "wrist_3_joint"
    ],
    "metrics": {
        "cart_traj_len": 1.8769992767335708,
        "distance_elbow_joint": 3.9139211794207567,
        "distance_shoulder_lift_joint": 0.701304651398626,
        "distance_shoulder_pan_joint": 1.2409265919597963,
        "distance_wrist_1_joint": 1.5069397374839684,
        "distance_wrist_2_joint": 1.6896258984002048,
        "distance_wrist_3_joint": 1.1315400012875374,
        "smoothness": 7.894919293066631e-16,
        "time": 0.053940691,
        "traj_len": 3.1912784366066975,
        "weighted_distance": 3.955237502149541
    },
    "planner": "TRRT",
    "start": {
        "state": {
            "elbow_joint": -1.919643507792019,
            "shoulder_lift_joint": -0.07675430207160344,
            "shoulder_pan_joint": -1.1188671864651873,
            "wrist_1_joint": 0.42560062535961957,
            "wrist_2_joint": 1.5706038300724876,
            "wrist_3_joint": 1.1188968870953055
        }
    },
    "waypoints": [
        {
            "positions": [
                -1.1188671864651873,
                -0.07675430207160344,
                -1.919643507792019,
                0.42560062535961957,
                1.5706038300724876,
                1.1188968870953055
            ]
        },
        {
            "positions": [
                -1.0711392406205797,
                -0.10372755789462752,
                -1.7691080778142976,
                0.4835598460320799,
                1.5056182185955567,
                1.0753761178150156
            ]
        },
        {
            "positions": [
                -1.0234112947759721,
                -0.1307008137176516,
                -1.6185726478365763,
                0.5415190667045402,
                1.4406326071186257,
                1.0318553485347257
            ]
        },
        {
            "positions": [
                -0.9756833489313647,
                -0.1576740695406757,
                -1.4680372178588548,
                0.5994782873770006,
                1.3756469956416948,
                0.9883345792544358
            ]
        },
        {
            "positions": [
                -0.9279554030867572,
                -0.18464732536369977,
                -1.3175017878811333,
                0.6574375080494609,
                1.3106613841647639,
                0.9448138099741459
            ]
        },
        {
            "positions": [
                -0.8802274572421496,
                -0.21162058118672386,
                -1.166966357903412,
                0.7153967287219212,
                1.2456757726878327,
                0.9012930406938561
            ]
        },
        {
            "positions": [
                -0.832499511397542,
                -0.23859383700974793,
                -1.0164309279256907,
                0.7733559493943816,
                1.1806901612109018,
                0.8577722714135662
            ]
        },
        {
            "positions": [
                -0.7847715655529346,
                -0.265567092832772,
                -0.8658954979479692,
                0.8313151700668417,
                1.1157045497339708,
                0.8142515021332762
            ]
        },
        {
            "positions": [
                -0.737043619708327,
                -0.2925403486557961,
                -0.7153600679702476,
                0.8892743907393021,
                1.0507189382570399,
                0.7707307328529863
            ]
        },
        {
            "positions": [
                -0.6893156738637194,
                -0.31951360447882016,
                -0.5648246379925264,
                0.9472336114117625,
                0.985733326780109,
                0.7272099635726965
            ]
        },
        {
            "positions": [
                -0.6415877280191118,
                -0.3464868603018443,
                -0.41428920801480484,
                1.0051928320842227,
                0.920747715303178,
                0.6836891942924066
            ]
        },
        {
            "positions": [
                -0.5938597821745043,
                -0.3734601161248683,
                -0.26375377803708355,
                1.0631520527566831,
                0.8557621038262471,
                0.6401684250121167
            ]
        },
        {
            "positions": [
                -0.5461318363298967,
                -0.4004333719478924,
                -0.11321834805936204,
                1.1211112734291435,
                0.7907764923493161,
                0.5966476557318268
            ]
        },
        {
            "positions": [
                -0.4984038904852892,
                -0.4274066277709165,
                0.03731708191835925,
                1.1790704941016037,
                0.7257908808723852,
                0.5531268864515368
            ]
        },
        {
            "positions": [
                -0.4506759446406817,
                -0.45437988359394055,
                0.18785251189608076,
                1.237029714774064,
                0.6608052693954543,
                0.5096061171712469
            ]
        },
        {
            "positions": [
                -0.4029479987960741,
                -0.4813531394169646,
                0.33838794187380183,
                1.2949889354465243,
                0.5958196579185233,
                0.4660853478909571
            ]
        },
        {
            "positions": [
                -0.3552200529514665,
                -0.5083263952399888,
                0.4889233718515238,
                1.3529481561189847,
                0.5308340464415924,
                0.4225645786106671
            ]
        },
        {
            "positions": [
                -0.30749210710685904,
                -0.5352996510630128,
                0.6394588018292449,
                1.410907376791445,
                0.46584843496466144,
                0.3790438093303773
            ]
        },
        {
            "positions": [
                -0.25976416126225144,
                -0.5622729068860368,
                0.7899942318069664,
                1.4688665974639055,
                0.4008628234877305,
                0.3355230400500874
            ]
        },
        {
            "positions": [
                -0.21203621541764395,
                -0.5892461627090608,
                0.9405296617846874,
                1.5268258181363656,
                0.33587721201079956,
                0.29200227076979746
            ]
        },
        {
            "positions": [
                -0.16430826957303635,
                -0.6162194185320851,
                1.0910650917624094,
                1.584785038808826,
                0.2708916005338684,
                0.24848150148950754
            ]
        },
        {
            "positions": [
                -0.11658032372842886,
                -0.6431926743551091,
                1.2416005217401305,
                1.6427442594812864,
                0.20590598905693747,
                0.20496073220921762
            ]
        },
        {
            "positions": [
                -0.06885237788382126,
                -0.6701659301781331,
                1.392135951717852,
                1.7007034801537466,
                0.14092037758000653,
                0.1614399629289277
            ]
        },
        {
            "positions": [
                -0.02112443203921366,
                -0.6971391860011573,
                1.542671381695573,
                1.758662700826207,
                0.07593476610307559,
                0.1179191936486379
            ]
        },
        {
            "positions": [
                0.02660351380539394,
                -0.7241124418241813,
                1.693206811673295,
                1.8166219214986674,
                0.010949154626144653,
                0.07439842436834798
            ]
        },
        {
            "positions": [
                0.07433145965000132,
                -0.7510856976472056,
                1.843742241651016,
                1.8745811421711278,
                -0.054036456850786285,
                0.030877655088058065
            ]
        },
        {
            "positions": [
                0.12205940549460888,
                -0.7780589534702295,
                1.9942776716287378,
                1.932540362843588,
                -0.11902206832771724,
                -0.012643114192231963
            ]
        }
    ]
}