{
    "goal": {
        "global_pose": {
            "orientation": {
                "w": 0.7031023502349854,
                "x": -0.7110244035720825,
                "y": 0.007748599164187908,
                "z": 0.005598929710686207
            },
            "position": {
                "x": 0.11585023208521307,
                "y": 0.44412534475326537,
                "z": 0.3711530566215515
            }
        },
        "name": "move_to_auspresseinheit_A"
    },
    "id": "TRRT_move_to_auspresseinheit_A_57",
    "joint_names": [
        "shoulder_pan_joint",
        "shoulder_lift_joint",
        "elbow_joint",
        "wrist_1_joint",
        "wrist_2_joint",
        "wrist_3_joint"
    ],
    "metrics": {
        "cart_traj_len": 0.722447223179639,
        "distance_elbow_joint": 0.2839447683522023,
        "distance_shoulder_lift_joint": 0.5363148689839583,
        "distance_shoulder_pan_joint": 1.0407603534184717,
        "distance_wrist_1_joint": 0.5603767056410845,
        "distance_wrist_2_joint": 1.4768191296824549,
        "distance_wrist_3_joint": 0.04953187872064113,
        "smoothness": 1.1600016227357905,
        "time": 1.812584025,
        "traj_len": 1.9868939842877407,
        "weighted_distance": 2.4665780542207933
    },
    "planner": "TRRT",
    "start": {
        "state": {
            "elbow_joint": 2.422574709923281,
            "shoulder_lift_joint": -1.3736533754116391,
            "shoulder_pan_joint": -0.33786336945926293,
            "wrist_1_joint": -1.0288603412921917,
            "wrist_2_joint": 1.2330224858903978,
            "wrist_3_joint": -3.094022268022082
        }
    },
    "waypoints": [
        {
            "positions": [
                -0.33786336945926293,
                -1.3736533754116391,
                2.422574709923281,
                -1.0288603412921917,
                1.2330224858903978,
                -3.094022268022082
            ]
        },
        {
            "positions": [
                -0.2575158616670856,
                -1.4328489389566135,
                2.4002551607033267,
                -0.9532081547808665,
                1.0894307700601322,
                -3.094287051356333
            ]
        },
        {
            "positions": [
                -0.17716835387490834,
                -1.4920445025015878,
                2.3779356114833723,
                -0.8775559682695413,
                0.9458390542298666,
                -3.094551834690584
            ]
        },
        {
            "positions": [
                -0.09682084608273103,
                -1.5512400660465622,
                2.355616062263418,
                -0.8019037817582161,
                0.8022473383996009,
                -3.0948166180248347
            ]
        },
        {
            "positions": [
                -0.016473338290553752,
                -1.6104356295915365,
                2.3332965130434635,
                -0.7262515952468909,
                0.6586556225693354,
                -3.095081401359086
            ]
        },
        {
            "positions": [
                0.06387416950162356,
                -1.669631193136511,
                2.310976963823509,
                -0.6505994087355655,
                0.5150639067390698,
                -3.0953461846933368
            ]
        },
        {
            "positions": [
                0.14422167729380087,
                -1.7288267566814854,
                2.2886574146035548,
                -0.5749472222242404,
                0.37147219090880423,
                -3.0956109680275876
            ]
        },
        {
            "positions": [
                0.2245691850859782,
                -1.7880223202264598,
                2.2663378653836004,
                -0.4992950357129151,
                0.22788047507853856,
                -3.0958757513618385
            ]
        },
        {
            "positions": [
                0.34415113480428583,
                -1.8185088012687443,
                2.298264846336731,
                -0.4915921856974631,
                0.3457997547961874,
                -3.1077953502070597
            ]
        },
        {
            "positions": [
                0.46373308452259354,
                -1.8489952823110287,
                2.330191827289861,
                -0.48388933568201115,
                0.4637190345138362,
                -3.119714949052281
            ]
        },
        {
            "positions": [
                0.5833150342409011,
                -1.879481763353313,
                2.3621188082429914,
                -0.4761864856665592,
                0.5816383142314852,
                -3.131634547897502
            ]
        },
        {
            "positions": [
                0.7028969839592089,
                -1.9099682443955974,
                2.394045789196122,
                -0.4684836356511072,
                0.699557593949134,
                -3.1435541467427233
            ]
        }
    ]
}