{
    "goal": {
        "global_pose": {
            "orientation": {
                "w": 0.7031023502349854,
                "x": -0.7110244035720825,
                "y": 0.007748599164187908,
                "z": 0.005598929710686207
            },
            "position": {
                "x": 0.11585023208521307,
                "y": 0.44412534475326537,
                "z": 0.3711530566215515
            }
        },
        "name": "move_to_auspresseinheit_A"
    },
    "id": "TRRT_move_to_auspresseinheit_A_120",
    "joint_names": [
        "shoulder_pan_joint",
        "shoulder_lift_joint",
        "elbow_joint",
        "wrist_1_joint",
        "wrist_2_joint",
        "wrist_3_joint"
    ],
    "metrics": {
        "cart_traj_len": 2.4399416765131385,
        "distance_elbow_joint": 0.024652674637401173,
        "distance_shoulder_lift_joint": 2.582882612800852,
        "distance_shoulder_pan_joint": 2.5477471564385765,
        "distance_wrist_1_joint": 4.868527645734617,
        "distance_wrist_2_joint": 5.1535794841440765,
        "distance_wrist_3_joint": 2.6807772611323055,
        "smoothness": 0.7498178948841948,
        "time": 0.089067957,
        "traj_len": 4.2258924305864465,
        "weighted_distance": 5.765572693760016
    },
    "planner": "TRRT",
    "start": {
        "state": {
            "elbow_joint": 2.422574709923281,
            "shoulder_lift_joint": -1.3736533754116391,
            "shoulder_pan_joint": -0.33786336945926293,
            "wrist_1_joint": -1.0288603412921917,
            "wrist_2_joint": 1.2330224858903978,
            "wrist_3_joint": -3.094022268022082
        }
    },
    "waypoints": [
        {
            "positions": [
                -0.33786336945926293,
                -1.3736533754116391,
                2.422574709923281,
                -1.0288603412921917,
                1.2330224858903978,
                -3.094022268022082
            ]
        },
        {
            "positions": [
                -0.2688377168133204,
                -1.4336753288528685,
                2.4217949552624534,
                -0.9247272215952873,
                1.1236321959518394,
                -3.043204710458936
            ]
        },
        {
            "positions": [
                -0.19981206416737787,
                -1.493697282294098,
                2.4210152006016257,
                -0.8205941018983828,
                1.014241906013281,
                -2.99238715289579
            ]
        },
        {
            "positions": [
                -0.13078641152143536,
                -1.5537192357353273,
                2.420235445940798,
                -0.7164609822014782,
                0.9048516160747225,
                -2.941569595332644
            ]
        },
        {
            "positions": [
                -0.061760758875492816,
                -1.6137411891765567,
                2.41945569127997,
                -0.6123278625045738,
                0.795461326136164,
                -2.8907520377694977
            ]
        },
        {
            "positions": [
                0.0072648937704496985,
                -1.6737631426177861,
                2.418675936619142,
                -0.5081947428076693,
                0.6860710361976057,
                -2.839934480206352
            ]
        },
        {
            "positions": [
                0.07629054641639221,
                -1.7337850960590155,
                2.4178961819583145,
                -0.4040616231107649,
                0.5766807462590473,
                -2.7891169226432058
            ]
        },
        {
            "positions": [
                0.14531619906233473,
                -1.7938070495002447,
                2.4171164272974868,
                -0.29992850341386046,
                0.46729045632048893,
                -2.73829936508006
            ]
        },
        {
            "positions": [
                0.2143418517082773,
                -1.8538290029414743,
                2.416336672636659,
                -0.19579538371695593,
                0.35790016638193045,
                -2.687481807516914
            ]
        },
        {
            "positions": [
                0.2833675043542198,
                -1.9138509563827035,
                2.4155569179758314,
                -0.09166226402005151,
                0.24850987644337208,
                -2.6366642499537676
            ]
        },
        {
            "positions": [
                0.3523931570001623,
                -1.9738729098239332,
                2.4147771633150032,
                0.012470855676853132,
                0.1391195865048136,
                -2.5858466923906214
            ]
        },
        {
            "positions": [
                0.42141880964610484,
                -2.0338948632651626,
                2.4139974086541756,
                0.11660397537375733,
                0.029729296566255226,
                -2.5350291348274756
            ]
        },
        {
            "positions": [
                0.49044446229204736,
                -2.093916816706392,
                2.413217653993348,
                0.22073709507066197,
                -0.07966099337230315,
                -2.4842115772643294
            ]
        },
        {
            "positions": [
                0.5594701149379899,
                -2.1539387701476214,
                2.41243789933252,
                0.3248702147675664,
                -0.18905128331086152,
                -2.4333940197011836
            ]
        },
        {
            "positions": [
                0.6284957675839324,
                -2.2139607235888503,
                2.4116581446716925,
                0.4290033344644708,
                -0.2984415732494199,
                -2.3825764621380374
            ]
        },
        {
            "positions": [
                0.6975214202298747,
                -2.2739826770300797,
                2.410878390010865,
                0.5331364541613752,
                -0.40783186318797826,
                -2.3317589045748917
            ]
        },
        {
            "positions": [
                0.7665470728758175,
                -2.334004630471309,
                2.410098635350037,
                0.6372695738582799,
                -0.5172221531265369,
                -2.2809413470117454
            ]
        },
        {
            "positions": [
                0.83557272552176,
                -2.394026583912539,
                2.409318880689209,
                0.7414026935551843,
                -0.6266124430650952,
                -2.2301237894485992
            ]
        },
        {
            "positions": [
                0.9045983781677025,
                -2.454048537353768,
                2.4085391260283813,
                0.8455358132520887,
                -0.7360027330036536,
                -2.1793062318854535
            ]
        },
        {
            "positions": [
                0.9736240308136448,
                -2.5140704907949973,
                2.4077593713675536,
                0.9496689329489931,
                -0.8453930229422117,
                -2.1284886743223073
            ]
        },
        {
            "positions": [
                1.0426496834595875,
                -2.5740924442362267,
                2.406979616706726,
                1.053802052645898,
                -0.9547833128807706,
                -2.077671116759161
            ]
        },
        {
            "positions": [
                1.11167533610553,
                -2.6341143976774566,
                2.406199862045898,
                1.1579351723428024,
                -1.064173602819329,
                -2.026853559196015
            ]
        },
        {
            "positions": [
                1.1807009887514726,
                -2.6941363511186855,
                2.4054201073850705,
                1.2620682920397064,
                -1.1735638927578873,
                -1.976036001632869
            ]
        },
        {
            "positions": [
                1.249726641397415,
                -2.754158304559915,
                2.4046403527242424,
                1.3662014117366108,
                -1.2829541826964457,
                -1.925218444069723
            ]
        },
        {
            "positions": [
                1.3187522940433576,
                -2.8141802580011444,
                2.4038605980634147,
                1.4703345314335157,
                -1.392344472635004,
                -1.8744008865065769
            ]
        },
        {
            "positions": [
                1.3877779466893,
                -2.8742022114423738,
                2.403080843402587,
                1.57446765113042,
                -1.5017347625735624,
                -1.823583328943431
            ]
        },
        {
            "positions": [
                1.4568035993352426,
                -2.934224164883603,
                2.4023010887417593,
                1.6786007708273245,
                -1.6111250525121208,
                -1.772765771380285
            ]
        },
        {
            "positions": [
                1.419149589953039,
                -2.8831085737171587,
                2.4020821360689655,
                1.5705474441465694,
                -1.495653455225043,
                -1.8407418096048103
            ]
        },
        {
            "positions": [
                1.3814955805708355,
                -2.831992982550714,
                2.401863183396171,
                1.4624941174658146,
                -1.3801818579379652,
                -1.9087178478293358
            ]
        },
        {
            "positions": [
                1.3438415711886318,
                -2.78087739138427,
                2.4016442307233774,
                1.3544407907850595,
                -1.2647102606508873,
                -1.9766938860538612
            ]
        },
        {
            "positions": [
                1.3061875618064283,
                -2.7297618002178257,
                2.4014252780505836,
                1.2463874641043047,
                -1.1492386633638096,
                -2.0446699242783866
            ]
        },
        {
            "positions": [
                1.2685335524242247,
                -2.678646209051381,
                2.4012063253777893,
                1.1383341374235496,
                -1.0337670660767317,
                -2.112645962502912
            ]
        },
        {
            "positions": [
                1.2308795430420212,
                -2.6275306178849367,
                2.4009873727049955,
                1.0302808107427945,
                -0.918295468789654,
                -2.1806220007274373
            ]
        },
        {
            "positions": [
                1.1932255336598176,
                -2.576415026718492,
                2.4007684200322017,
                0.9222274840620397,
                -0.8028238715025762,
                -2.248598038951963
            ]
        },
        {
            "positions": [
                1.155571524277614,
                -2.5252994355520477,
                2.4005494673594074,
                0.8141741573812846,
                -0.6873522742154983,
                -2.3165740771764884
            ]
        },
        {
            "positions": [
                1.1179175148954104,
                -2.4741838443856032,
                2.4003305146866136,
                0.7061208307005297,
                -0.5718806769284204,
                -2.3845501154010136
            ]
        },
        {
            "positions": [
                1.0802635055132068,
                -2.423068253219159,
                2.4001115620138194,
                0.5980675040197747,
                -0.4564090796413427,
                -2.452526153625539
            ]
        },
        {
            "positions": [
                1.0426094961310033,
                -2.3719526620527147,
                2.3998926093410256,
                0.49001417733901964,
                -0.3409374823542648,
                -2.5205021918500643
            ]
        },
        {
            "positions": [
                1.0049554867487998,
                -2.3208370708862702,
                2.3996736566682317,
                0.3819608506582648,
                -0.22546588506718712,
                -2.58847823007459
            ]
        },
        {
            "positions": [
                0.967301477366596,
                -2.2697214797198257,
                2.3994547039954375,
                0.2739075239775097,
                -0.10999428778010922,
                -2.6564542682991155
            ]
        },
        {
            "positions": [
                0.9296474679843926,
                -2.2186058885533813,
                2.3992357513226437,
                0.16585419729675488,
                0.005477309506968453,
                -2.7244303065236406
            ]
        },
        {
            "positions": [
                0.8919934586021889,
                -2.167490297386937,
                2.39901679864985,
                0.05780087061599981,
                0.12094890679404635,
                -2.792406344748166
            ]
        },
        {
            "positions": [
                0.8543394492199853,
                -2.1163747062204927,
                2.3987978459770556,
                -0.05025245606475526,
                0.23642050408112425,
                -2.8603823829726913
            ]
        },
        {
            "positions": [
                0.8166854398377817,
                -2.0652591150540482,
                2.3985788933042618,
                -0.1583057827455101,
                0.3518921013682019,
                -2.928358421197217
            ]
        },
        {
            "positions": [
                0.7790314304555782,
                -2.0141435238876038,
                2.398359940631468,
                -0.2663591094262652,
                0.46736369865528005,
                -2.9963344594217425
            ]
        },
        {
            "positions": [
                0.7413774210733747,
                -1.9630279327211595,
                2.3981409879586737,
                -0.3744124361070198,
                0.5828352959423575,
                -3.0643104976462676
            ]
        },
        {
            "positions": [
                0.703723411691171,
                -1.911912341554715,
                2.39792203528588,
                -0.48246576278777514,
                0.6983068932294356,
                -3.132286535870793
            ]
        }
    ]
}