{
    "goal": {
        "global_pose": {
            "orientation": {
                "w": 0.7047431468963623,
                "x": -0.7094548344612122,
                "y": 0.0024358443915843964,
                "z": -0.0022348060738295317
            },
            "position": {
                "x": 0.6094750761985779,
                "y": 0.3671506643295288,
                "z": 0.19426114857196808
            }
        },
        "name": "move_to_magneteinheit_A"
    },
    "id": "TRRT_move_to_magneteinheit_A_94",
    "joint_names": [
        "shoulder_pan_joint",
        "shoulder_lift_joint",
        "elbow_joint",
        "wrist_1_joint",
        "wrist_2_joint",
        "wrist_3_joint"
    ],
    "metrics": {
        "cart_traj_len": 2.0636327627680497,
        "distance_elbow_joint": 3.874139875569605,
        "distance_shoulder_lift_joint": 1.0533184462387606,
        "distance_shoulder_pan_joint": 1.2428651119491732,
        "distance_wrist_1_joint": 1.1284328865326168,
        "distance_wrist_2_joint": 1.4347099332053475,
        "distance_wrist_3_joint": 1.9001901794158766,
        "smoothness": 6.026925011703896e-16,
        "time": 0.05953183099999999,
        "traj_len": 3.2609287684510035,
        "weighted_distance": 4.1227635890845225
    },
    "planner": "TRRT",
    "start": {
        "state": {
            "elbow_joint": -1.919643507792019,
            "shoulder_lift_joint": -0.07675430207160344,
            "shoulder_pan_joint": -1.1188671864651873,
            "wrist_1_joint": 0.42560062535961957,
            "wrist_2_joint": 1.5706038300724876,
            "wrist_3_joint": 1.1188968870953055
        }
    },
    "waypoints": [
        {
            "positions": [
                -1.1188671864651873,
                -0.07675430207160344,
                -1.919643507792019,
                0.42560062535961957,
                1.5706038300724876,
                1.1188968870953055
            ]
        },
        {
            "positions": [
                -1.0728351452818847,
                -0.11576609637674272,
                -1.7761568457338857,
                0.38380681474730044,
                1.5174664251389562,
                1.1892743011477453
            ]
        },
        {
            "positions": [
                -1.0268031040985819,
                -0.154777890681882,
                -1.632670183675752,
                0.3420130041349813,
                1.4643290202054249,
                1.2596517152001854
            ]
        },
        {
            "positions": [
                -0.9807710629152793,
                -0.19378968498702126,
                -1.4891835216176186,
                0.30021919352266213,
                1.4111916152718935,
                1.3300291292526252
            ]
        },
        {
            "positions": [
                -0.9347390217319765,
                -0.23280147929216055,
                -1.3456968595594851,
                0.258425382910343,
                1.3580542103383622,
                1.400406543305065
            ]
        },
        {
            "positions": [
                -0.8887069805486738,
                -0.27181327359729984,
                -1.2022101975013517,
                0.21663157229802388,
                1.3049168054048308,
                1.4707839573575048
            ]
        },
        {
            "positions": [
                -0.8426749393653711,
                -0.31082506790243913,
                -1.058723535443218,
                0.17483776168570475,
                1.2517794004712992,
                1.5411613714099448
            ]
        },
        {
            "positions": [
                -0.7966428981820683,
                -0.34983686220757837,
                -0.9152368733850846,
                0.13304395107338562,
                1.1986419955377678,
                1.6115387854623846
            ]
        },
        {
            "positions": [
                -0.7506108569987657,
                -0.38884865651271766,
                -0.771750211326951,
                0.0912501404610665,
                1.1455045906042365,
                1.6819161995148244
            ]
        },
        {
            "positions": [
                -0.704578815815463,
                -0.42786045081785695,
                -0.6282635492688176,
                0.049456329848747316,
                1.0923671856707051,
                1.7522936135672644
            ]
        },
        {
            "positions": [
                -0.6585467746321603,
                -0.46687224512299624,
                -0.4847768872106841,
                0.007662519236428189,
                1.0392297807371738,
                1.8226710276197042
            ]
        },
        {
            "positions": [
                -0.6125147334488575,
                -0.5058840394281355,
                -0.3412902251525505,
                -0.03413129137589094,
                0.9860923758036424,
                1.893048441672144
            ]
        },
        {
            "positions": [
                -0.5664826922655548,
                -0.5448958337332748,
                -0.19780356309441705,
                -0.07592510198821006,
                0.932954970870111,
                1.963425855724584
            ]
        },
        {
            "positions": [
                -0.5204506510822522,
                -0.5839076280384141,
                -0.054316901036283616,
                -0.11771891260052919,
                0.8798175659365796,
                2.0338032697770236
            ]
        },
        {
            "positions": [
                -0.47441860989894946,
                -0.6229194223435532,
                0.08916976102184981,
                -0.15951272321284832,
                0.8266801610030482,
                2.1041806838294637
            ]
        },
        {
            "positions": [
                -0.42838656871564673,
                -0.6619312166486926,
                0.2326564230799837,
                -0.20130653382516756,
                0.7735427560695167,
                2.1745580978819037
            ]
        },
        {
            "positions": [
                -0.382354527532344,
                -0.7009430109538319,
                0.3761430851381171,
                -0.24310034443748657,
                0.7204053511359855,
                2.2449355119343437
            ]
        },
        {
            "positions": [
                -0.33632248634904127,
                -0.7399548052589713,
                0.5196297471962505,
                -0.2848941550498058,
                0.667267946202454,
                2.3153129259867837
            ]
        },
        {
            "positions": [
                -0.29029044516573865,
                -0.7789665995641104,
                0.663116409254384,
                -0.32668796566212494,
                0.6141305412689226,
                2.3856903400392233
            ]
        },
        {
            "positions": [
                -0.2442584039824358,
                -0.8179783938692498,
                0.8066030713125178,
                -0.36848177627444406,
                0.5609931363353913,
                2.456067754091663
            ]
        },
        {
            "positions": [
                -0.1982263627991332,
                -0.8569901881743891,
                0.9500897333706508,
                -0.4102755868867632,
                0.5078557314018599,
                2.526445168144103
            ]
        },
        {
            "positions": [
                -0.15219432161583046,
                -0.8960019824795284,
                1.0935763954287847,
                -0.4520693974990823,
                0.45471832646832855,
                2.596822582196543
            ]
        },
        {
            "positions": [
                -0.10616228043252773,
                -0.9350137767846676,
                1.2370630574869181,
                -0.49386320811140144,
                0.4015809215347972,
                2.667199996248983
            ]
        },
        {
            "positions": [
                -0.060130239249225115,
                -0.9740255710898069,
                1.3805497195450516,
                -0.5356570187237206,
                0.3484435166012656,
                2.737577410301423
            ]
        },
        {
            "positions": [
                -0.014098198065922274,
                -1.013037365394946,
                1.524036381603185,
                -0.5774508293360396,
                0.29530611166773446,
                2.8079548243538626
            ]
        },
        {
            "positions": [
                0.031933843117380345,
                -1.0520491597000854,
                1.6675230436613189,
                -0.6192446399483589,
                0.24216870673420288,
                2.878332238406302
            ]
        },
        {
            "positions": [
                0.07796588430068296,
                -1.0910609540052247,
                1.8110097057194519,
                -0.6610384505606779,
                0.18903130180067151,
                2.948709652458742
            ]
        },
        {
            "positions": [
                0.12399792548398592,
                -1.130072748310364,
                1.9544963677775855,
                -0.7028322611729972,
                0.13589389686714018,
                3.019087066511182
            ]
        }
    ]
}