{
    "goal": {
        "global_pose": {
            "orientation": {
                "w": 0.5084816217422485,
                "x": -0.49083608388900757,
                "y": 0.5182115435600281,
                "z": -0.4816462993621826
            },
            "position": {
                "x": 0.5540239810943604,
                "y": 0.030875300988554955,
                "z": 0.16403168439865112
            }
        },
        "name": "move_to_storage_A"
    },
    "id": "TRRT_move_to_storage_A_9",
    "joint_names": [
        "shoulder_pan_joint",
        "shoulder_lift_joint",
        "elbow_joint",
        "wrist_1_joint",
        "wrist_2_joint",
        "wrist_3_joint"
    ],
    "metrics": {
        "cart_traj_len": 0.3524326536835125,
        "distance_elbow_joint": 0.45233285226910436,
        "distance_shoulder_lift_joint": 0.23359768567918548,
        "distance_shoulder_pan_joint": 0.45610802155574476,
        "distance_wrist_1_joint": 0.2580415927632881,
        "distance_wrist_2_joint": 1.117538282200117,
        "distance_wrist_3_joint": 0.10967213426085243,
        "smoothness": 8.881784197001252e-16,
        "time": 0.027765369999999998,
        "traj_len": 1.620891905318887,
        "weighted_distance": 2.0548028402290575
    },
    "planner": "TRRT",
    "start": {
        "state": {
            "elbow_joint": 1.9715463870305268,
            "shoulder_lift_joint": -1.1394903361783484,
            "shoulder_pan_joint": 0.12281147578464417,
            "wrist_1_joint": -0.7804599489681411,
            "wrist_2_joint": 0.12958660307563738,
            "wrist_3_joint": -3.1924946282119055
        }
    },
    "waypoints": [
        {
            "positions": [
                0.12281147578464417,
                -1.1394903361783484,
                1.9715463870305268,
                -0.7804599489681411,
                0.12958660307563738,
                -3.1924946282119055
            ]
        },
        {
            "positions": [
                0.05765318699096636,
                -1.1728614341325176,
                2.036165365926113,
                -0.8173230336486108,
                0.28923492910422555,
                -3.1768271804603554
            ]
        },
        {
            "positions": [
                -0.007505101802711453,
                -1.2062325320866871,
                2.1007843448216996,
                -0.8541861183290805,
                0.4488832551328137,
                -3.161159732708805
            ]
        },
        {
            "positions": [
                -0.07266339059638928,
                -1.2396036300408564,
                2.165403323717286,
                -0.8910492030095503,
                0.6085315811614018,
                -3.1454922849572546
            ]
        },
        {
            "positions": [
                -0.13782167939006706,
                -1.2729747279950259,
                2.230022302612872,
                -0.92791228769002,
                0.76817990718999,
                -3.129824837205704
            ]
        },
        {
            "positions": [
                -0.20297996818374492,
                -1.3063458259491951,
                2.2946412815084587,
                -0.9647753723704897,
                0.9278282332185781,
                -3.114157389454154
            ]
        },
        {
            "positions": [
                -0.2681382569774227,
                -1.3397169239033646,
                2.359260260404045,
                -1.0016384570509596,
                1.0874765592471662,
                -3.0984899417026033
            ]
        },
        {
            "positions": [
                -0.33329654577110057,
                -1.3730880218575339,
                2.423879239299631,
                -1.0385015417314292,
                1.2471248852757544,
                -3.082822493951053
            ]
        }
    ]
}