{
    "goal": {
        "global_pose": {
            "orientation": {
                "w": 0.5084816217422485,
                "x": -0.49083608388900757,
                "y": 0.5182115435600281,
                "z": -0.4816462993621826
            },
            "position": {
                "x": 0.5540239810943604,
                "y": 0.030875300988554955,
                "z": 0.16403168439865112
            }
        },
        "name": "move_to_storage_A"
    },
    "id": "TRRT_move_to_storage_A_148",
    "joint_names": [
        "shoulder_pan_joint",
        "shoulder_lift_joint",
        "elbow_joint",
        "wrist_1_joint",
        "wrist_2_joint",
        "wrist_3_joint"
    ],
    "metrics": {
        "cart_traj_len": 0.3531817344815122,
        "distance_elbow_joint": 0.44999475149744805,
        "distance_shoulder_lift_joint": 0.2325309629893222,
        "distance_shoulder_pan_joint": 0.45909618413276804,
        "distance_wrist_1_joint": 0.24337376588667092,
        "distance_wrist_2_joint": 1.1101469932971162,
        "distance_wrist_3_joint": 0.10144340771280058,
        "smoothness": 0.0,
        "time": 0.032488848,
        "traj_len": 1.6113925857829077,
        "weighted_distance": 2.0378895063583586
    },
    "planner": "TRRT",
    "start": {
        "state": {
            "elbow_joint": 1.9715463870305268,
            "shoulder_lift_joint": -1.1394903361783484,
            "shoulder_pan_joint": 0.12281147578464417,
            "wrist_1_joint": -0.7804599489681411,
            "wrist_2_joint": 0.12958660307563738,
            "wrist_3_joint": -3.1924946282119055
        }
    },
    "waypoints": [
        {
            "positions": [
                0.12281147578464417,
                -1.1394903361783484,
                1.9715463870305268,
                -0.7804599489681411,
                0.12958660307563738,
                -3.1924946282119055
            ]
        },
        {
            "positions": [
                0.057226306622820175,
                -1.172709045176823,
                2.0358313515301623,
                -0.815227629809094,
                0.2881790306895111,
                -3.1780027128243624
            ]
        },
        {
            "positions": [
                -0.008358862539003822,
                -1.2059277541752975,
                2.1001163160297978,
                -0.8499953106500471,
                0.4467714583033848,
                -3.1635107974368197
            ]
        },
        {
            "positions": [
                -0.07394403170082782,
                -1.239146463173772,
                2.1644012805294333,
                -0.884762991491,
                0.6053638859172585,
                -3.1490188820492766
            ]
        },
        {
            "positions": [
                -0.1395292008626518,
                -1.2723651721722469,
                2.2286862450290683,
                -0.9195306723319531,
                0.7639563135311324,
                -3.134526966661734
            ]
        },
        {
            "positions": [
                -0.20511437002447586,
                -1.3055838811707214,
                2.292971209528704,
                -0.954298353172906,
                0.9225487411450062,
                -3.120035051274191
            ]
        },
        {
            "positions": [
                -0.2706995391862998,
                -1.338802590169196,
                2.3572561740283393,
                -0.9890660340138591,
                1.0811411687588797,
                -3.105543135886648
            ]
        },
        {
            "positions": [
                -0.33628470834812385,
                -1.3720212991676706,
                2.421541138527975,
                -1.023833714854812,
                1.2397335963727536,
                -3.091051220499105
            ]
        }
    ]
}