{
    "goal": {
        "global_pose": {
            "orientation": {
                "w": 0.7031023502349854,
                "x": -0.7110244035720825,
                "y": 0.007748599164187908,
                "z": 0.005598929710686207
            },
            "position": {
                "x": 0.11585023208521307,
                "y": 0.44412534475326537,
                "z": 0.3711530566215515
            }
        },
        "name": "move_to_auspresseinheit_A"
    },
    "id": "TRRT_move_to_auspresseinheit_A_82",
    "joint_names": [
        "shoulder_pan_joint",
        "shoulder_lift_joint",
        "elbow_joint",
        "wrist_1_joint",
        "wrist_2_joint",
        "wrist_3_joint"
    ],
    "metrics": {
        "cart_traj_len": 0.6811752805953728,
        "distance_elbow_joint": 0.02704855736238576,
        "distance_shoulder_lift_joint": 0.5373031558884769,
        "distance_shoulder_pan_joint": 1.0461368880576116,
        "distance_wrist_1_joint": 0.55860268040258,
        "distance_wrist_2_joint": 0.5149892885380379,
        "distance_wrist_3_joint": 0.04426864423645016,
        "smoothness": 3.9474596431116675e-16,
        "time": 0.028326155,
        "traj_len": 1.6517715382235953,
        "weighted_distance": 1.9724295860433296
    },
    "planner": "TRRT",
    "start": {
        "state": {
            "elbow_joint": 2.422574709923281,
            "shoulder_lift_joint": -1.3736533754116391,
            "shoulder_pan_joint": -0.33786336945926293,
            "wrist_1_joint": -1.0288603412921917,
            "wrist_2_joint": 1.2330224858903978,
            "wrist_3_joint": -3.094022268022082
        }
    },
    "waypoints": [
        {
            "positions": [
                -0.33786336945926293,
                -1.3736533754116391,
                2.422574709923281,
                -1.0288603412921917,
                1.2330224858903978,
                -3.094022268022082
            ]
        },
        {
            "positions": [
                -0.206245504991578,
                -1.4456781060360846,
                2.4201725420079097,
                -0.949281769506461,
                1.1652289929154345,
                -3.1001224342994065
            ]
        },
        {
            "positions": [
                -0.07462764052389309,
                -1.5177028366605303,
                2.4177703740925383,
                -0.8697031977207302,
                1.097435499940471,
                -3.1062226005767304
            ]
        },
        {
            "positions": [
                0.05699022394379183,
                -1.5897275672849758,
                2.415368206177167,
                -0.7901246259349995,
                1.0296420069655077,
                -3.1123227668540547
            ]
        },
        {
            "positions": [
                0.18860808841147675,
                -1.6617522979094215,
                2.412966038261795,
                -0.7105460541492687,
                0.9618485139905444,
                -3.1184229331313786
            ]
        },
        {
            "positions": [
                0.3202259528791617,
                -1.733777028533867,
                2.4105638703464236,
                -0.6309674823635381,
                0.8940550210155809,
                -3.124523099408703
            ]
        },
        {
            "positions": [
                0.4518438173468466,
                -1.8058017591583124,
                2.408161702431052,
                -0.5513889105778074,
                0.8262615280406176,
                -3.130623265686027
            ]
        },
        {
            "positions": [
                0.5834616818145315,
                -1.8778264897827581,
                2.405759534515681,
                -0.47181033879207657,
                0.7584680350656542,
                -3.1367234319633512
            ]
        },
        {
            "positions": [
                0.7082735185983488,
                -1.910956531300116,
                2.3955261525608953,
                -0.47025766088961174,
                0.7180331973523598,
                -3.1382909122585323
            ]
        }
    ]
}