{
    "goal": {
        "global_pose": {
            "orientation": {
                "w": 0.7031023502349854,
                "x": -0.7110244035720825,
                "y": 0.007748599164187908,
                "z": 0.005598929710686207
            },
            "position": {
                "x": 0.11585023208521307,
                "y": 0.44412534475326537,
                "z": 0.3711530566215515
            }
        },
        "name": "move_to_auspresseinheit_A"
    },
    "id": "TRRT_move_to_auspresseinheit_A_91",
    "joint_names": [
        "shoulder_pan_joint",
        "shoulder_lift_joint",
        "elbow_joint",
        "wrist_1_joint",
        "wrist_2_joint",
        "wrist_3_joint"
    ],
    "metrics": {
        "cart_traj_len": 2.6173292239954393,
        "distance_elbow_joint": 0.32913457171042015,
        "distance_shoulder_lift_joint": 0.5376244335691174,
        "distance_shoulder_pan_joint": 5.848809650887347,
        "distance_wrist_1_joint": 7.491498884520839,
        "distance_wrist_2_joint": 2.4408405303198206,
        "distance_wrist_3_joint": 9.961364314794537,
        "smoothness": 0.49705153755951414,
        "time": 0.089331163,
        "traj_len": 5.158417624214046,
        "weighted_distance": 7.514275775497714
    },
    "planner": "TRRT",
    "start": {
        "state": {
            "elbow_joint": 2.422574709923281,
            "shoulder_lift_joint": -1.3736533754116391,
            "shoulder_pan_joint": -0.33786336945926293,
            "wrist_1_joint": -1.0288603412921917,
            "wrist_2_joint": 1.2330224858903978,
            "wrist_3_joint": -3.094022268022082
        }
    },
    "waypoints": [
        {
            "positions": [
                -0.33786336945926293,
                -1.3736533754116391,
                2.422574709923281,
                -1.0288603412921917,
                1.2330224858903978,
                -3.094022268022082
            ]
        },
        {
            "positions": [
                -0.4064847272436672,
                -1.38823394297103,
                2.4175259501338027,
                -0.9140524338137286,
                1.1907824105009894,
                -2.952146352011535
            ]
        },
        {
            "positions": [
                -0.4751060850280715,
                -1.4028145105304208,
                2.412477190344324,
                -0.7992445263352654,
                1.1485423351115809,
                -2.810270436000988
            ]
        },
        {
            "positions": [
                -0.5437274428124758,
                -1.4173950780898117,
                2.4074284305548455,
                -0.6844366188568022,
                1.1063022597221726,
                -2.6683945199904406
            ]
        },
        {
            "positions": [
                -0.61234880059688,
                -1.4319756456492025,
                2.4023796707653666,
                -0.569628711378339,
                1.064062184332764,
                -2.5265186039798935
            ]
        },
        {
            "positions": [
                -0.6809701583812843,
                -1.4465562132085934,
                2.3973309109758882,
                -0.4548208038998759,
                1.0218221089433557,
                -2.3846426879693463
            ]
        },
        {
            "positions": [
                -0.7495915161656885,
                -1.4611367807679843,
                2.3922821511864094,
                -0.34001289642141264,
                0.9795820335539471,
                -2.242766771958799
            ]
        },
        {
            "positions": [
                -0.8182128739500929,
                -1.475717348327375,
                2.387233391396931,
                -0.2252049889429495,
                0.9373419581645387,
                -2.1008908559482515
            ]
        },
        {
            "positions": [
                -0.886834231734497,
                -1.4902979158867657,
                2.3821846316074526,
                -0.11039708146448635,
                0.8951018827751303,
                -1.9590149399377046
            ]
        },
        {
            "positions": [
                -0.9554555895189014,
                -1.5048784834461566,
                2.377135871817974,
                0.0044108260139767985,
                0.8528618073857219,
                -1.8171390239271576
            ]
        },
        {
            "positions": [
                -1.0240769473033056,
                -1.5194590510055475,
                2.3720871120284954,
                0.11921873349243994,
                0.8106217319963134,
                -1.6752631079166103
            ]
        },
        {
            "positions": [
                -1.09269830508771,
                -1.5340396185649383,
                2.3670383522390166,
                0.2340266409709031,
                0.768381656606905,
                -1.533387191906063
            ]
        },
        {
            "positions": [
                -1.1613196628721143,
                -1.5486201861243292,
                2.361989592449538,
                0.34883454844936646,
                0.7261415812174965,
                -1.391511275895516
            ]
        },
        {
            "positions": [
                -1.2299410206565184,
                -1.56320075368372,
                2.3569408326600594,
                0.4636424559278296,
                0.6839015058280881,
                -1.2496353598849685
            ]
        },
        {
            "positions": [
                -1.2985623784409228,
                -1.5777813212431109,
                2.351892072870581,
                0.5784503634062927,
                0.6416614304386796,
                -1.1077594438744214
            ]
        },
        {
            "positions": [
                -1.367183736225327,
                -1.5923618888025017,
                2.3468433130811026,
                0.6932582708847559,
                0.5994213550492713,
                -0.9658835278638742
            ]
        },
        {
            "positions": [
                -1.4358050940097313,
                -1.6069424563618926,
                2.341794553291624,
                0.808066178363219,
                0.5571812796598629,
                -0.824007611853327
            ]
        },
        {
            "positions": [
                -1.5044264517941357,
                -1.6215230239212834,
                2.3367457935021454,
                0.9228740858416822,
                0.5149412042704544,
                -0.6821316958427799
            ]
        },
        {
            "positions": [
                -1.5730478095785398,
                -1.636103591480674,
                2.3316970337126666,
                1.0376819933201453,
                0.472701128881046,
                -0.5402557798322332
            ]
        },
        {
            "positions": [
                -1.641669167362944,
                -1.650684159040065,
                2.326648273923188,
                1.1524899007986082,
                0.43046105349163755,
                -0.39837986382168555
            ]
        },
        {
            "positions": [
                -1.7102905251473484,
                -1.6652647265994558,
                2.3215995141337094,
                1.2672978082770716,
                0.3882209781022291,
                -0.2565039478111384
            ]
        },
        {
            "positions": [
                -1.7789118829317527,
                -1.6798452941588466,
                2.316550754344231,
                1.382105715755535,
                0.34598090271282067,
                -0.11462803180059122
            ]
        },
        {
            "positions": [
                -1.8475332407161569,
                -1.6944258617182375,
                2.3115019945547526,
                1.496913623233998,
                0.30374082732341223,
                0.02724788420995594
            ]
        },
        {
            "positions": [
                -1.9161545985005612,
                -1.7090064292776284,
                2.3064532347652738,
                1.6117215307124613,
                0.2615007519340038,
                0.1691238002205031
            ]
        },
        {
            "positions": [
                -1.9847759562849656,
                -1.7235869968370192,
                2.3014044749757954,
                1.7265294381909246,
                0.21926067654459525,
                0.31099971623105027
            ]
        },
        {
            "positions": [
                -2.0533973140693695,
                -1.73816756439641,
                2.2963557151863165,
                1.8413373456693876,
                0.17702060115518692,
                0.4528756322415979
            ]
        },
        {
            "positions": [
                -2.122018671853774,
                -1.752748131955801,
                2.291306955396838,
                1.956145253147851,
                0.13478052576577837,
                0.594751548252145
            ]
        },
        {
            "positions": [
                -2.1906400296381783,
                -1.7673286995151918,
                2.2862581956073593,
                2.0709531606263143,
                0.09254045037637004,
                0.7366274642626922
            ]
        },
        {
            "positions": [
                -2.2592613874225824,
                -1.7819092670745826,
                2.281209435817881,
                2.185761068104777,
                0.050300374986961494,
                0.8785033802732394
            ]
        },
        {
            "positions": [
                -2.327882745206987,
                -1.7964898346339735,
                2.2761606760284026,
                2.3005689755832406,
                0.008060299597553167,
                1.0203792962837865
            ]
        },
        {
            "positions": [
                -2.3965041029913907,
                -1.8110704021933641,
                2.2711119162389237,
                2.4153768830617035,
                -0.03417977579185516,
                1.1622552122943337
            ]
        },
        {
            "positions": [
                -2.4651254607757953,
                -1.825650969752755,
                2.2660631564494453,
                2.5301847905401664,
                -0.07641985118126371,
                1.3041311283048809
            ]
        },
        {
            "positions": [
                -2.5337468185601995,
                -1.8402315373121458,
                2.2610143966599665,
                2.64499269801863,
                -0.11865992657067204,
                1.446007044315428
            ]
        },
        {
            "positions": [
                -2.6023681763446036,
                -1.8548121048715367,
                2.255965636870488,
                2.759800605497093,
                -0.16090000196008059,
                1.5878829603259752
            ]
        },
        {
            "positions": [
                -2.670989534129008,
                -1.8693926724309275,
                2.2509168770810093,
                2.874608512975556,
                -0.2031400773494889,
                1.7297588763365224
            ]
        },
        {
            "positions": [
                -2.7396108919134123,
                -1.8839732399903184,
                2.245868117291531,
                2.989416420454019,
                -0.24538015273889746,
                1.8716347923470695
            ]
        },
        {
            "positions": [
                -2.6351544637790734,
                -1.884800651171847,
                2.2504871469605816,
                2.8841672652184243,
                -0.21621536814221484,
                1.720249724031149
            ]
        },
        {
            "positions": [
                -2.530698035644734,
                -1.8856280623533752,
                2.2551061766296323,
                2.7789181099828295,
                -0.18705058354553222,
                1.5688646557152282
            ]
        },
        {
            "positions": [
                -2.426241607510395,
                -1.8864554735349037,
                2.2597252062986826,
                2.6736689547472348,
                -0.15788579894884963,
                1.4174795873993076
            ]
        },
        {
            "positions": [
                -2.3217851793760556,
                -1.887282884716432,
                2.2643442359677333,
                2.56841979951164,
                -0.128721014352167,
                1.2660945190833868
            ]
        },
        {
            "positions": [
                -2.2173287512417166,
                -1.8881102958979605,
                2.268963265636784,
                2.4631706442760453,
                -0.0995562297554844,
                1.1147094507674662
            ]
        },
        {
            "positions": [
                -2.1128723231073776,
                -1.888937707079489,
                2.2735822953058347,
                2.3579214890404505,
                -0.07039144515880177,
                0.9633243824515456
            ]
        },
        {
            "positions": [
                -2.008415894973038,
                -1.8897651182610173,
                2.2782013249748854,
                2.2526723338048558,
                -0.04122666056211918,
                0.811939314135625
            ]
        },
        {
            "positions": [
                -1.9039594668386992,
                -1.8905925294425459,
                2.2828203546439356,
                2.147423178569261,
                -0.012061875965436564,
                0.6605542458197042
            ]
        },
        {
            "positions": [
                -1.7995030387043602,
                -1.8914199406240741,
                2.2874393843129863,
                2.0421740233336663,
                0.017102908631246028,
                0.5091691775037837
            ]
        },
        {
            "positions": [
                -1.695046610570021,
                -1.8922473518056027,
                2.292058413982037,
                1.9369248680980713,
                0.046267693227928675,
                0.35778410918786285
            ]
        },
        {
            "positions": [
                -1.5905901824356818,
                -1.8930747629871312,
                2.2966774436510877,
                1.8316757128624768,
                0.07543247782461127,
                0.2063990408719425
            ]
        },
        {
            "positions": [
                -1.4861337543013426,
                -1.8939021741686595,
                2.301296473320138,
                1.7264265576268818,
                0.10459726242129391,
                0.055013972556021695
            ]
        },
        {
            "positions": [
                -1.3816773261670037,
                -1.894729585350188,
                2.3059155029891887,
                1.621177402391287,
                0.13376204701797645,
                -0.09637109575989888
            ]
        },
        {
            "positions": [
                -1.2772208980326645,
                -1.8955569965317163,
                2.3105345326582394,
                1.5159282471556923,
                0.1629268316146591,
                -0.24775616407581946
            ]
        },
        {
            "positions": [
                -1.1727644698983253,
                -1.8963844077132448,
                2.31515356232729,
                1.4106790919200975,
                0.1920916162113417,
                -0.39914123239174026
            ]
        },
        {
            "positions": [
                -1.068308041763986,
                -1.8972118188947733,
                2.319772591996341,
                1.3054299366845028,
                0.22125640080802433,
                -0.5505263007076611
            ]
        },
        {
            "positions": [
                -0.9638516136296471,
                -1.8980392300763016,
                2.324391621665391,
                1.200180781448908,
                0.2504211854047069,
                -0.7019113690235814
            ]
        },
        {
            "positions": [
                -0.8593951854953081,
                -1.8988666412578301,
                2.3290106513344417,
                1.0949316262133135,
                0.2795859700013895,
                -0.8532964373395022
            ]
        },
        {
            "positions": [
                -0.7549387573609687,
                -1.8996940524393586,
                2.3336296810034924,
                0.9896824709777183,
                0.3087507545980722,
                -1.004681505655423
            ]
        },
        {
            "positions": [
                -0.6504823292266297,
                -1.900521463620887,
                2.338248710672543,
                0.8844333157421236,
                0.3379155391947548,
                -1.1560665739713438
            ]
        },
        {
            "positions": [
                -0.5460259010922903,
                -1.9013488748024154,
                2.342867740341594,
                0.7791841605065288,
                0.3670803237914374,
                -1.3074516422872642
            ]
        },
        {
            "positions": [
                -0.44156947295795135,
                -1.9021762859839437,
                2.347486770010644,
                0.6739350052709345,
                0.39624510838812,
                -1.4588367106031845
            ]
        },
        {
            "positions": [
                -0.33711304482361193,
                -1.9030036971654722,
                2.352105799679695,
                0.5686858500353393,
                0.4254098929848027,
                -1.6102217789191058
            ]
        },
        {
            "positions": [
                -0.23265661668927295,
                -1.9038311083470008,
                2.3567248293487455,
                0.4634366947997446,
                0.4545746775814853,
                -1.7616068472350261
            ]
        },
        {
            "positions": [
                -0.12820018855493398,
                -1.904658519528529,
                2.361343859017796,
                0.35818753956414984,
                0.48373946217816777,
                -1.912991915550947
            ]
        },
        {
            "positions": [
                -0.023743760420595006,
                -1.9054859307100576,
                2.3659628886868465,
                0.2529383843285551,
                0.5129042467748504,
                -2.0643769838668673
            ]
        },
        {
            "positions": [
                0.08071266771374441,
                -1.9063133418915859,
                2.370581918355897,
                0.14768922909296034,
                0.5420690313715331,
                -2.215762052182788
            ]
        },
        {
            "positions": [
                0.1851690958480834,
                -1.9071407530731144,
                2.375200948024948,
                0.04244007385736559,
                0.5712338159682157,
                -2.3671471204987085
            ]
        },
        {
            "positions": [
                0.2896255239824228,
                -1.9079681642546429,
                2.3798199776939986,
                -0.06280908137822916,
                0.6003986005648982,
                -2.5185321888146297
            ]
        },
        {
            "positions": [
                0.3940819521167618,
                -1.9087955754361712,
                2.3844390073630493,
                -0.1680582366138239,
                0.6295633851615808,
                -2.66991725713055
            ]
        },
        {
            "positions": [
                0.4985383802511012,
                -1.9096229866176997,
                2.3890580370320995,
                -0.27330739184941866,
                0.6587281697582635,
                -2.8213023254464713
            ]
        },
        {
            "positions": [
                0.6029948083854402,
                -1.910450397799228,
                2.39367706670115,
                -0.3785565470850134,
                0.6878929543549461,
                -2.9726873937623917
            ]
        },
        {
            "positions": [
                0.7074512365197791,
                -1.9112778089807565,
                2.398296096370201,
                -0.48380570232060816,
                0.7170577389516287,
                -3.1240724620783125
            ]
        }
    ]
}