{
    "goal": {
        "global_pose": {
            "orientation": {
                "w": 0.7047431493862688,
                "x": -0.7094548369677653,
                "y": 0.0024358444001904,
                "z": -0.0022348060817251984
            },
            "position": {
                "x": -0.39052492380142206,
                "y": 0.3671506643295288,
                "z": 0.19426114857196808
            }
        },
        "name": "move_to_magneteinheit_D"
    },
    "id": "RRTConnect_move_to_magneteinheit_D_1",
    "joint_names": [
        "shoulder_pan_joint",
        "shoulder_lift_joint",
        "elbow_joint",
        "wrist_1_joint",
        "wrist_2_joint",
        "wrist_3_joint"
    ],
    "metrics": {
        "cart_traj_len": 4.431998413785901,
        "distance_elbow_joint": 3.259977644669018,
        "distance_shoulder_lift_joint": 1.6271538271559196,
        "distance_shoulder_pan_joint": 3.4574257336014185,
        "distance_wrist_1_joint": 1.7469542876534467,
        "distance_wrist_2_joint": 0.5295943040291452,
        "distance_wrist_3_joint": 3.3502471000718836,
        "smoothness": 0.4530113957172483,
        "time": 0.187275015,
        "traj_len": 3.737827296328822,
        "weighted_distance": 4.790448380789338
    },
    "planner": "RRTConnect",
    "start": {
        "state": {
            "elbow_joint": 0.7495348899011907,
            "shoulder_lift_joint": -0.6476975780737666,
            "shoulder_pan_joint": -2.711696901376276,
            "wrist_1_joint": -0.07506478080972913,
            "wrist_2_joint": 0.4329665971545852,
            "wrist_3_joint": -3.147035401996346
        }
    },
    "waypoints": [
        {
            "positions": [
                -2.711696901376276,
                -0.6476975780737666,
                0.7495348899011907,
                -0.07506478080972913,
                0.4329665971545852,
                -3.147035401996346
            ]
        },
        {
            "positions": [
                -2.707915411439787,
                -0.7408942669629429,
                0.7686276946678767,
                -0.11389605348247725,
                0.47984730140133186,
                -3.0774229269577185
            ]
        },
        {
            "positions": [
                -2.7041339215032982,
                -0.8340909558521191,
                0.7877204994345628,
                -0.15272732615522538,
                0.5267280056480785,
                -3.0078104519190907
            ]
        },
        {
            "positions": [
                -2.700352431566809,
                -0.9272876447412954,
                0.8068133042012489,
                -0.1915585988279735,
                0.5736087098948253,
                -2.9381979768804634
            ]
        },
        {
            "positions": [
                -2.601039900122217,
                -0.9652037959433889,
                0.7021781889496899,
                -0.14953550510318578,
                0.5667673928449871,
                -2.8352616667169186
            ]
        },
        {
            "positions": [
                -2.5017273686776247,
                -1.0031199471454824,
                0.5975430736981308,
                -0.10751241137839805,
                0.559926075795149,
                -2.7323253565533743
            ]
        },
        {
            "positions": [
                -2.402414837233032,
                -1.0410360983475757,
                0.49290795844657165,
                -0.06548931765361032,
                0.5530847587453109,
                -2.6293890463898295
            ]
        },
        {
            "positions": [
                -2.30310230578844,
                -1.0789522495496693,
                0.38827284319501265,
                -0.02346622392882261,
                0.5462434416954728,
                -2.526452736226285
            ]
        },
        {
            "positions": [
                -2.2037897743438477,
                -1.1168684007517626,
                0.28363772794345365,
                0.018556869795965103,
                0.5394021246456346,
                -2.423516426062741
            ]
        },
        {
            "positions": [
                -2.1044772428992555,
                -1.1547845519538562,
                0.17900261269189444,
                0.060579963520752844,
                0.5325608075957965,
                -2.320580115899196
            ]
        },
        {
            "positions": [
                -2.005164711454663,
                -1.1927007031559496,
                0.07436749744033544,
                0.10260305724554053,
                0.5257194905459583,
                -2.2176438057356513
            ]
        },
        {
            "positions": [
                -1.905852180010071,
                -1.230616854358043,
                -0.030267617811223557,
                0.14462615097032827,
                0.5188781734961203,
                -2.114707495572107
            ]
        },
        {
            "positions": [
                -1.8065396485654786,
                -1.2685330055601365,
                -0.13490273306278255,
                0.18664924469511596,
                0.5120368564462822,
                -2.0117711854085623
            ]
        },
        {
            "positions": [
                -1.7072271171208864,
                -1.3064491567622298,
                -0.23953784831434155,
                0.2286723384199037,
                0.505195539396444,
                -1.908834875245018
            ]
        },
        {
            "positions": [
                -1.6079145856762942,
                -1.3443653079643234,
                -0.34417296356590077,
                0.2706954321446914,
                0.49835422234660587,
                -1.8058985650814734
            ]
        },
        {
            "positions": [
                -1.5086020542317018,
                -1.3822814591664168,
                -0.44880807881746,
                0.3127185258694792,
                0.4915129052967678,
                -1.7029622549179286
            ]
        },
        {
            "positions": [
                -1.4092895227871096,
                -1.4201976103685103,
                -0.553443194069019,
                0.3547416195942669,
                0.48467158824692963,
                -1.600025944754384
            ]
        },
        {
            "positions": [
                -1.3099769913425172,
                -1.4581137615706037,
                -0.658078309320578,
                0.39676471331905455,
                0.47783027119709154,
                -1.4970896345908395
            ]
        },
        {
            "positions": [
                -1.210664459897925,
                -1.496029912772697,
                -0.762713424572137,
                0.4387878070438423,
                0.4709889541472534,
                -1.394153324427295
            ]
        },
        {
            "positions": [
                -1.1113519284533329,
                -1.5339460639747906,
                -0.867348539823696,
                0.48081090076863003,
                0.46414763709741524,
                -1.2912170142637505
            ]
        },
        {
            "positions": [
                -1.0120393970087405,
                -1.5718622151768842,
                -0.971983655075255,
                0.5228339944934177,
                0.45730632004757715,
                -1.188280704100206
            ]
        },
        {
            "positions": [
                -0.9127268655641483,
                -1.6097783663789773,
                -1.076618770326814,
                0.5648570882182053,
                0.450465002997739,
                -1.0853443939366614
            ]
        },
        {
            "positions": [
                -0.8134143341195561,
                -1.6476945175810709,
                -1.1812538855783732,
                0.6068801819429932,
                0.4436236859479009,
                -0.9824080837731168
            ]
        },
        {
            "positions": [
                -0.7141018026749637,
                -1.6856106687831645,
                -1.285889000829932,
                0.6489032756677808,
                0.43678236889806277,
                -0.8794717736095725
            ]
        },
        {
            "positions": [
                -0.6147892712303715,
                -1.7235268199852578,
                -1.390524116081491,
                0.6909263693925685,
                0.4299410518482246,
                -0.7765354634460278
            ]
        },
        {
            "positions": [
                -0.5154767397857793,
                -1.7614429711873512,
                -1.4951592313330504,
                0.7329494631173563,
                0.42309973479838653,
                -0.6735991532824834
            ]
        },
        {
            "positions": [
                -0.4161642083411867,
                -1.7993591223894447,
                -1.5997943465846094,
                0.7749725568421442,
                0.4162584177485484,
                -0.5706628431189382
            ]
        },
        {
            "positions": [
                -0.31685167689659455,
                -1.8372752735915383,
                -1.7044294618361688,
                0.8169956505669318,
                0.4094171006987103,
                -0.4677265329553939
            ]
        },
        {
            "positions": [
                -0.21753914545200237,
                -1.8751914247936317,
                -1.8090645770877278,
                0.8590187442917194,
                0.40257578364887214,
                -0.36479022279184914
            ]
        },
        {
            "positions": [
                -0.11822661400741019,
                -1.913107575995725,
                -1.9136996923392868,
                0.9010418380165073,
                0.395734466599034,
                -0.2618539126283048
            ]
        },
        {
            "positions": [
                -0.01891408256281757,
                -1.9510237271978186,
                -2.018334807590846,
                0.9430649317412949,
                0.38889314954919585,
                -0.15891760246476005
            ]
        },
        {
            "positions": [
                0.08039844888177461,
                -1.988939878399912,
                -2.1229699228424046,
                0.9850880254660825,
                0.38205183249935776,
                -0.055981292301215735
            ]
        },
        {
            "positions": [
                0.1797109803263668,
                -2.0268560296020057,
                -2.227605038093964,
                1.0271111191908704,
                0.37521051544951967,
                0.04695501786232903
            ]
        },
        {
            "positions": [
                0.27902351177095874,
                -2.064772180804099,
                -2.332240153345523,
                1.069134212915658,
                0.3683691983996815,
                0.14989132802587357
            ]
        },
        {
            "positions": [
                0.16234718165741294,
                -2.117291986910496,
                -2.34815159655107,
                1.1615761273885508,
                0.3224410284512412,
                0.1365612355134575
            ]
        },
        {
            "positions": [
                0.04567085154386713,
                -2.1698117930168923,
                -2.3640630397566165,
                1.2540180418614435,
                0.27651285850280083,
                0.12323114300104143
            ]
        },
        {
            "positions": [
                -0.07100547856967865,
                -2.2223315991232893,
                -2.3799744829621634,
                1.346459956334336,
                0.23058468855436048,
                0.10990105048862538
            ]
        },
        {
            "positions": [
                -0.18768180868322445,
                -2.274851405229686,
                -2.3958859261677103,
                1.4389018708072288,
                0.18465651860592014,
                0.0965709579762093
            ]
        }
    ]
}