{
    "goal": {
        "global_pose": {
            "orientation": {
                "w": -0.4816463035849501,
                "x": 0.5182115481033762,
                "y": 0.4908360881923453,
                "z": -0.5084816262002911
            },
            "position": {
                "x": -0.8240239810943604,
                "y": -0.300875300988555,
                "z": 0.16403168439865112
            }
        },
        "name": "move_to_storage_C"
    },
    "id": "RRTConnect_move_to_storage_C_3",
    "joint_names": [
        "shoulder_pan_joint",
        "shoulder_lift_joint",
        "elbow_joint",
        "wrist_1_joint",
        "wrist_2_joint",
        "wrist_3_joint"
    ],
    "metrics": {
        "cart_traj_len": 0.5770619800732557,
        "distance_elbow_joint": 0.2565535419590146,
        "distance_shoulder_lift_joint": 0.1894734704270281,
        "distance_shoulder_pan_joint": 0.4958581026705353,
        "distance_wrist_1_joint": 0.07474078116676697,
        "distance_wrist_2_joint": 1.0647096747786704,
        "distance_wrist_3_joint": 0.07438878088976031,
        "smoothness": 0.0,
        "time": 0.10821921200000001,
        "traj_len": 1.4682385200953472,
        "weighted_distance": 1.8557888806695477
    },
    "planner": "RRTConnect",
    "start": {
        "state": {
            "elbow_joint": 2.0108683149905207,
            "shoulder_lift_joint": -1.1634956873337479,
            "shoulder_pan_joint": -2.4736205022346085,
            "wrist_1_joint": -0.8367026794204894,
            "wrist_2_joint": 0.6746043897044537,
            "wrist_3_joint": -3.149663212396943
        }
    },
    "waypoints": [
        {
            "positions": [
                -2.4736205022346085,
                -1.1634956873337479,
                2.0108683149905207,
                -0.8367026794204894,
                0.6746043897044537,
                -3.149663212396943
            ]
        },
        {
            "positions": [
                -2.5562635193463645,
                -1.1319167755959099,
                1.9681093913306849,
                -0.8242458825593615,
                0.8520560021675654,
                -3.13726508224865
            ]
        },
        {
            "positions": [
                -2.63890653645812,
                -1.1003378638580719,
                1.925350467670849,
                -0.8117890856982337,
                1.0295076146306772,
                -3.1248669521003563
            ]
        },
        {
            "positions": [
                -2.721549553569876,
                -1.0687589521202339,
                1.8825915440110133,
                -0.7993322888371059,
                1.206959227093789,
                -3.1124688219520626
            ]
        },
        {
            "positions": [
                -2.804192570681632,
                -1.0371800403823959,
                1.8398326203511777,
                -0.7868754919759781,
                1.3844108395569006,
                -3.1000706918037695
            ]
        },
        {
            "positions": [
                -2.886835587793388,
                -1.0056011286445576,
                1.7970736966913419,
                -0.7744186951148502,
                1.5618624520200124,
                -3.0876725616554763
            ]
        },
        {
            "positions": [
                -2.969478604905144,
                -0.9740222169067198,
                1.754314773031506,
                -0.7619618982537224,
                1.739314064483124,
                -3.0752744315071827
            ]
        }
    ]
}