{
    "goal": {
        "global_pose": {
            "orientation": {
                "w": -0.00223480608172531,
                "x": 0.0024358444001904467,
                "y": 0.7094548369677653,
                "z": -0.704743149386269
            },
            "position": {
                "x": 0.6205249238014221,
                "y": -0.6371506643295288,
                "z": 0.19426114857196808
            }
        },
        "name": "move_to_magneteinheit_B"
    },
    "id": "RRTConnect_move_to_magneteinheit_B_3",
    "joint_names": [
        "shoulder_pan_joint",
        "shoulder_lift_joint",
        "elbow_joint",
        "wrist_1_joint",
        "wrist_2_joint",
        "wrist_3_joint"
    ],
    "metrics": {
        "cart_traj_len": 1.4524022512597163,
        "distance_elbow_joint": 0.7292355227723308,
        "distance_shoulder_lift_joint": 1.2479907216376294,
        "distance_shoulder_pan_joint": 1.6216383633797293,
        "distance_wrist_1_joint": 2.6045958463989956,
        "distance_wrist_2_joint": 2.9407412841347176,
        "distance_wrist_3_joint": 3.1434195578283894,
        "smoothness": 5.382899540774514e-16,
        "time": 0.08200585499999999,
        "traj_len": 3.505370350783464,
        "weighted_distance": 4.91119105129726
    },
    "planner": "RRTConnect",
    "start": {
        "state": {
            "elbow_joint": 2.3935871307787653,
            "shoulder_lift_joint": -1.9085141043317964,
            "shoulder_pan_joint": 0.7066247067153981,
            "wrist_1_joint": -0.4678290933590386,
            "wrist_2_joint": 0.7096259084670997,
            "wrist_3_joint": -3.135814927754718
        }
    },
    "waypoints": [
        {
            "positions": [
                0.7066247067153981,
                -1.9085141043317964,
                2.3935871307787653,
                -0.4678290933590386,
                0.7096259084670997,
                -3.135814927754718
            ]
        },
        {
            "positions": [
                0.6559485078597815,
                -1.8695143942806205,
                2.37079852069213,
                -0.38643547315907,
                0.6177277433378898,
                -3.0375830665725805
            ]
        },
        {
            "positions": [
                0.6052723090041651,
                -1.8305146842294446,
                2.348009910605495,
                -0.30504185295910136,
                0.5258295782086799,
                -2.9393512053904436
            ]
        },
        {
            "positions": [
                0.5545961101485485,
                -1.7915149741782685,
                2.325221300518859,
                -0.22364823275913276,
                0.4339314130794699,
                -2.8411193442083063
            ]
        },
        {
            "positions": [
                0.503919911292932,
                -1.7525152641270927,
                2.302432690432224,
                -0.14225461255916416,
                0.34203324795026,
                -2.742887483026169
            ]
        },
        {
            "positions": [
                0.4532437124373154,
                -1.7135155540759168,
                2.2796440803455886,
                -0.060860992359195565,
                0.2501350828210501,
                -2.644655621844032
            ]
        },
        {
            "positions": [
                0.40256751358169884,
                -1.6745158440247407,
                2.2568554702589534,
                0.020532627840773088,
                0.15823691769184012,
                -2.5464237606618947
            ]
        },
        {
            "positions": [
                0.3518913147260823,
                -1.6355161339735649,
                2.2340668601723177,
                0.10192624804074163,
                0.06633875256263022,
                -2.448191899479758
            ]
        },
        {
            "positions": [
                0.3012151158704658,
                -1.596516423922389,
                2.2112782500856825,
                0.18331986824071028,
                -0.025559412566579676,
                -2.3499600382976205
            ]
        },
        {
            "positions": [
                0.25053891701484926,
                -1.5575167138712132,
                2.188489639999047,
                0.26471348844067893,
                -0.11745757769578957,
                -2.251728177115483
            ]
        },
        {
            "positions": [
                0.19986271815923273,
                -1.5185170038200373,
                2.165701029912412,
                0.3461071086406475,
                -0.20935574282499947,
                -2.1534963159333462
            ]
        },
        {
            "positions": [
                0.14918651930361615,
                -1.4795172937688612,
                2.1429124198257767,
                0.42750072884061613,
                -0.30125390795420937,
                -2.055264454751209
            ]
        },
        {
            "positions": [
                0.09851032044799957,
                -1.4405175837176853,
                2.120123809739141,
                0.5088943490405848,
                -0.3931520730834195,
                -1.9570325935690718
            ]
        },
        {
            "positions": [
                0.047834121592383094,
                -1.4015178736665095,
                2.097335199652506,
                0.5902879692405534,
                -0.4850502382126294,
                -1.8588007323869347
            ]
        },
        {
            "positions": [
                -0.002842077263233489,
                -1.3625181636153334,
                2.0745465895658706,
                0.6716815894405219,
                -0.5769484033418393,
                -1.7605688712047973
            ]
        },
        {
            "positions": [
                -0.05351827611884996,
                -1.3235184535641575,
                2.0517579794792353,
                0.7530752096404907,
                -0.6688465684710492,
                -1.6623370100226602
            ]
        },
        {
            "positions": [
                -0.10419447497446654,
                -1.2845187435129817,
                2.0289693693926,
                0.8344688298404592,
                -0.7607447336002591,
                -1.564105148840523
            ]
        },
        {
            "positions": [
                -0.15487067383008313,
                -1.2455190334618058,
                2.0061807593059644,
                0.9158624500404278,
                -0.852642898729469,
                -1.465873287658386
            ]
        },
        {
            "positions": [
                -0.2055468726856996,
                -1.20651932341063,
                1.9833921492193292,
                0.9972560702403965,
                -0.9445410638586789,
                -1.3676414264762489
            ]
        },
        {
            "positions": [
                -0.2562230715413162,
                -1.1675196133594539,
                1.960603539132694,
                1.078649690440365,
                -1.0364392289878888,
                -1.2694095652941115
            ]
        },
        {
            "positions": [
                -0.30689927039693266,
                -1.128519903308278,
                1.9378149290460585,
                1.1600433106403336,
                -1.1283373941170987,
                -1.1711777041119744
            ]
        },
        {
            "positions": [
                -0.35757546925254924,
                -1.0895201932571021,
                1.9150263189594232,
                1.2414369308403024,
                -1.2202355592463088,
                -1.0729458429298373
            ]
        },
        {
            "positions": [
                -0.4082516681081658,
                -1.050520483205926,
                1.8922377088727877,
                1.322830551040271,
                -1.3121337243755185,
                -0.9747139817477
            ]
        },
        {
            "positions": [
                -0.4589278669637824,
                -1.0115207731547502,
                1.8694490987861525,
                1.4042241712402395,
                -1.4040318895047283,
                -0.8764821205655631
            ]
        },
        {
            "positions": [
                -0.509604065819399,
                -0.9725210631035743,
                1.8466604886995173,
                1.4856177914402082,
                -1.4959300546339387,
                -0.7782502593834257
            ]
        },
        {
            "positions": [
                -0.5602802646750153,
                -0.9335213530523985,
                1.8238718786128818,
                1.5670114116401768,
                -1.5878282197631486,
                -0.6800183982012884
            ]
        },
        {
            "positions": [
                -0.6109564635306319,
                -0.8945216430012226,
                1.8010832685262463,
                1.6484050318401453,
                -1.6797263848923585,
                -0.5817865370191515
            ]
        },
        {
            "positions": [
                -0.6616326623862485,
                -0.8555219329500465,
                1.778294658439611,
                1.7297986520401138,
                -1.7716245500215684,
                -0.48355467583701417
            ]
        },
        {
            "positions": [
                -0.7123088612418651,
                -0.8165222228988707,
                1.7555060483529759,
                1.8111922722400824,
                -1.8635227151507783,
                -0.38532281465487683
            ]
        },
        {
            "positions": [
                -0.7629850600974817,
                -0.7775225128476948,
                1.7327174382663406,
                1.8925858924400514,
                -1.9554208802799882,
                -0.28709095347273994
            ]
        },
        {
            "positions": [
                -0.813661258953098,
                -0.7385228027965187,
                1.7099288281797052,
                1.97397951264002,
                -2.047319045409198,
                -0.1888590922906026
            ]
        },
        {
            "positions": [
                -0.8643374578087146,
                -0.6995230927453429,
                1.6871402180930697,
                2.0553731328399882,
                -2.139217210538408,
                -0.09062723110846571
            ]
        },
        {
            "positions": [
                -0.9150136566643311,
                -0.6605233826941669,
                1.6643516080064344,
                2.136766753039957,
                -2.231115375667618,
                0.007604630073671484
            ]
        }
    ]
}