{
    "goal": {
        "global_pose": {
            "orientation": {
                "w": 0.005598929693374612,
                "x": 0.007748599140229565,
                "y": 0.7110244013736278,
                "z": -0.7031023480610252
            },
            "position": {
                "x": -0.8858502320852131,
                "y": -0.7141253447532654,
                "z": 0.3711530566215515
            }
        },
        "name": "move_to_auspresseinheit_C"
    },
    "id": "RRTConnect_move_to_auspresseinheit_C_1",
    "joint_names": [
        "shoulder_pan_joint",
        "shoulder_lift_joint",
        "elbow_joint",
        "wrist_1_joint",
        "wrist_2_joint",
        "wrist_3_joint"
    ],
    "metrics": {
        "cart_traj_len": 0.492706081930538,
        "distance_elbow_joint": 0.991874244318314,
        "distance_shoulder_lift_joint": 0.32115753997014773,
        "distance_shoulder_pan_joint": 0.25669024314669686,
        "distance_wrist_1_joint": 0.6632698117364869,
        "distance_wrist_2_joint": 1.3089913497797638,
        "distance_wrist_3_joint": 0.05017488358533129,
        "smoothness": 6.459479416000911e-16,
        "time": 0.034494283,
        "traj_len": 1.8952989401507987,
        "weighted_distance": 2.3800775200030047
    },
    "planner": "RRTConnect",
    "start": {
        "state": {
            "elbow_joint": 1.752795957773067,
            "shoulder_lift_joint": -0.9740617694224826,
            "shoulder_pan_joint": -2.9679914178258695,
            "wrist_1_joint": -0.7595177689778962,
            "wrist_2_joint": 1.7443932448376536,
            "wrist_3_joint": -3.0840537646734822
        }
    },
    "waypoints": [
        {
            "positions": [
                -2.9679914178258695,
                -0.9740617694224826,
                1.752795957773067,
                -0.7595177689778962,
                1.7443932448376536,
                -3.0840537646734822
            ]
        },
        {
            "positions": [
                -2.9423223935112,
                -0.9419460154254677,
                1.6536085333412356,
                -0.6931907878042476,
                1.6134941098596771,
                -3.0890712530320155
            ]
        },
        {
            "positions": [
                -2.91665336919653,
                -0.909830261428453,
                1.5544211089094042,
                -0.6268638066305988,
                1.4825949748817009,
                -3.0940887413905487
            ]
        },
        {
            "positions": [
                -2.8909843448818604,
                -0.8777145074314383,
                1.4552336844775728,
                -0.5605368254569502,
                1.3516958399037244,
                -3.0991062297490815
            ]
        },
        {
            "positions": [
                -2.865315320567191,
                -0.8455987534344235,
                1.3560462600457415,
                -0.49420984428330145,
                1.220796704925748,
                -3.1041237181076147
            ]
        },
        {
            "positions": [
                -2.8396462962525213,
                -0.8134829994374086,
                1.2568588356139099,
                -0.4278828631096528,
                1.0898975699477718,
                -3.109141206466148
            ]
        },
        {
            "positions": [
                -2.8139772719378513,
                -0.7813672454403939,
                1.1576714111820787,
                -0.36155588193600413,
                0.9589984349697953,
                -3.114158694824681
            ]
        },
        {
            "positions": [
                -2.7883082476231817,
                -0.7492514914433792,
                1.0584839867502471,
                -0.2952289007623554,
                0.828099299991819,
                -3.1191761831832143
            ]
        },
        {
            "positions": [
                -2.762639223308512,
                -0.7171357374463644,
                0.9592965623184158,
                -0.22890191958870665,
                0.6972001650138424,
                -3.124193671541747
            ]
        },
        {
            "positions": [
                -2.736970198993842,
                -0.6850199834493496,
                0.8601091378865844,
                -0.162574938415058,
                0.5663010300358662,
                -3.1292111599002803
            ]
        },
        {
            "positions": [
                -2.7113011746791726,
                -0.6529042294523348,
                0.760921713454753,
                -0.09624795724140929,
                0.43540189505788973,
                -3.1342286482588135
            ]
        }
    ]
}