{
    "goal": {
        "global_pose": {
            "orientation": {
                "w": -0.00223480608172531,
                "x": 0.0024358444001904467,
                "y": 0.7094548369677653,
                "z": -0.704743149386269
            },
            "position": {
                "x": 0.6205249238014221,
                "y": -0.6371506643295288,
                "z": 0.19426114857196808
            }
        },
        "name": "move_to_magneteinheit_B"
    },
    "id": "RRTConnect_move_to_magneteinheit_B_2",
    "joint_names": [
        "shoulder_pan_joint",
        "shoulder_lift_joint",
        "elbow_joint",
        "wrist_1_joint",
        "wrist_2_joint",
        "wrist_3_joint"
    ],
    "metrics": {
        "cart_traj_len": 3.5163099394910273,
        "distance_elbow_joint": 4.557517205161818,
        "distance_shoulder_lift_joint": 1.1204820842050145,
        "distance_shoulder_pan_joint": 2.8696443429458163,
        "distance_wrist_1_joint": 1.5807094234190646,
        "distance_wrist_2_joint": 2.6243273548102715,
        "distance_wrist_3_joint": 3.1600925524657715,
        "smoothness": 0.18442476718169795,
        "time": 0.231392877,
        "traj_len": 3.9890817192692047,
        "weighted_distance": 5.141789070563731
    },
    "planner": "RRTConnect",
    "start": {
        "state": {
            "elbow_joint": 2.3935871307787653,
            "shoulder_lift_joint": -1.9085141043317964,
            "shoulder_pan_joint": 0.7066247067153981,
            "wrist_1_joint": -0.4678290933590386,
            "wrist_2_joint": 0.7096259084670997,
            "wrist_3_joint": -3.135814927754718
        }
    },
    "waypoints": [
        {
            "positions": [
                0.7066247067153981,
                -1.9085141043317964,
                2.3935871307787653,
                -0.4678290933590386,
                0.7096259084670997,
                -3.135814927754718
            ]
        },
        {
            "positions": [
                0.6252445758227719,
                -1.9089560280863482,
                2.379845491555893,
                -0.4292670478558269,
                0.6264080438138415,
                -3.0834042015898055
            ]
        },
        {
            "positions": [
                0.5438644449301457,
                -1.9093979518408999,
                2.3661038523330205,
                -0.3907050023526152,
                0.5431901791605834,
                -3.030993475424893
            ]
        },
        {
            "positions": [
                0.46248431403751955,
                -1.9098398755954518,
                2.352362213110148,
                -0.3521429568494035,
                0.4599723145073253,
                -2.9785827492599806
            ]
        },
        {
            "positions": [
                0.4091832720043291,
                -1.893544773387896,
                2.306757158625686,
                -0.3026194003146061,
                0.37350163636986666,
                -2.912331457776242
            ]
        },
        {
            "positions": [
                0.35588222997113866,
                -1.8772496711803401,
                2.2611521041412237,
                -0.25309584377980865,
                0.287030958232408,
                -2.846080166292503
            ]
        },
        {
            "positions": [
                0.3025811879379482,
                -1.8609545689727844,
                2.2155470496567613,
                -0.20357228724501122,
                0.20056028009494936,
                -2.7798288748087647
            ]
        },
        {
            "positions": [
                0.24928014590475775,
                -1.8446594667652287,
                2.1699419951722994,
                -0.1540487307102138,
                0.11408960195749071,
                -2.713577583325026
            ]
        },
        {
            "positions": [
                0.28511346796532994,
                -1.8305320768123547,
                2.0339363436845623,
                -0.11556355404060492,
                0.05820779789938485,
                -2.6210817808467692
            ]
        },
        {
            "positions": [
                0.3209467900259021,
                -1.8164046868594805,
                1.8979306921968255,
                -0.07707837737099604,
                0.0023259938412789893,
                -2.5285859783685125
            ]
        },
        {
            "positions": [
                0.3567801120864743,
                -1.8022772969066065,
                1.7619250407090887,
                -0.03859320070138715,
                -0.0535558102168269,
                -2.436090175890256
            ]
        },
        {
            "positions": [
                0.3926134341470465,
                -1.7881499069537323,
                1.6259193892213517,
                -0.00010802403177828657,
                -0.10943761427493273,
                -2.3435943734119986
            ]
        },
        {
            "positions": [
                0.42844675620761863,
                -1.7740225170008583,
                1.4899137377336151,
                0.03837715263783059,
                -0.16531941833303856,
                -2.251098570933742
            ]
        },
        {
            "positions": [
                0.46428007826819084,
                -1.7598951270479841,
                1.353908086245878,
                0.0768623293074395,
                -0.2212012223911445,
                -2.158602768455485
            ]
        },
        {
            "positions": [
                0.5001134003287631,
                -1.7457677370951101,
                1.217902434758141,
                0.1153475059770484,
                -0.2770830264492503,
                -2.0661069659772284
            ]
        },
        {
            "positions": [
                0.5359467223893353,
                -1.731640347142236,
                1.0818967832704043,
                0.15383268264665723,
                -0.33296483050735615,
                -1.9736111634989717
            ]
        },
        {
            "positions": [
                0.5717800444499074,
                -1.717512957189362,
                0.9458911317826675,
                0.1923178593162661,
                -0.388846634565462,
                -1.881115361020715
            ]
        },
        {
            "positions": [
                0.6076133665104796,
                -1.7033855672364877,
                0.8098854802949307,
                0.23080303598587498,
                -0.4447284386235678,
                -1.7886195585424582
            ]
        },
        {
            "positions": [
                0.6434466885710518,
                -1.6892581772836137,
                0.6738798288071939,
                0.26928821265548386,
                -0.5006102426816738,
                -1.6961237560642013
            ]
        },
        {
            "positions": [
                0.679280010631624,
                -1.6751307873307395,
                0.5378741773194569,
                0.3077733893250928,
                -0.5564920467397797,
                -1.6036279535859446
            ]
        },
        {
            "positions": [
                0.7151133326921961,
                -1.6610033973778655,
                0.40186852583171984,
                0.3462585659947017,
                -0.6123738507978855,
                -1.5111321511076876
            ]
        },
        {
            "positions": [
                0.7509466547527683,
                -1.6468760074249915,
                0.26586287434398304,
                0.3847437426643106,
                -0.6682556548559914,
                -1.4186363486294309
            ]
        },
        {
            "positions": [
                0.7867799768133406,
                -1.6327486174721173,
                0.1298572228562463,
                0.4232289193339194,
                -0.7241374589140972,
                -1.3261405461511742
            ]
        },
        {
            "positions": [
                0.8903594526237302,
                -1.663437906222709,
                -0.01642919050783928,
                0.4181375319843076,
                -0.6991186374299156,
                -1.25675319626131
            ]
        },
        {
            "positions": [
                0.9939389284341199,
                -1.6941271949733008,
                -0.16271560387192485,
                0.4130461446346958,
                -0.6740998159457342,
                -1.187365846371446
            ]
        },
        {
            "positions": [
                1.0975184042445096,
                -1.7248164837238924,
                -0.3090020172360104,
                0.407954757285084,
                -0.6490809944615527,
                -1.117978496481582
            ]
        },
        {
            "positions": [
                1.2010978800548993,
                -1.755505772474484,
                -0.455288430600096,
                0.4028633699354723,
                -0.6240621729773711,
                -1.048591146591718
            ]
        },
        {
            "positions": [
                1.304677355865289,
                -1.7861950612250759,
                -0.6015748439641817,
                0.3977719825858605,
                -0.5990433514931897,
                -0.979203796701854
            ]
        },
        {
            "positions": [
                1.4082568316756787,
                -1.8168843499756675,
                -0.747861257328267,
                0.3926805952362487,
                -0.5740245300090081,
                -0.90981644681199
            ]
        },
        {
            "positions": [
                1.5118363074860683,
                -1.8475736387262591,
                -0.8941476706923528,
                0.3875892078866369,
                -0.5490057085248266,
                -0.840429096922126
            ]
        },
        {
            "positions": [
                1.615415783296458,
                -1.8782629274768508,
                -1.0404340840564383,
                0.38249782053702513,
                -0.5239868870406451,
                -0.7710417470322619
            ]
        },
        {
            "positions": [
                1.7189952591068478,
                -1.9089522162274426,
                -1.186720497420524,
                0.37740643318741335,
                -0.49896806555646356,
                -0.7016543971423979
            ]
        },
        {
            "positions": [
                1.8225747349172374,
                -1.9396415049780342,
                -1.3330069107846096,
                0.37231504583780156,
                -0.473949244072282,
                -0.6322670472525338
            ]
        },
        {
            "positions": [
                1.926154210727627,
                -1.9703307937286259,
                -1.479293324148695,
                0.36722365848818983,
                -0.4489304225881005,
                -0.5628796973626697
            ]
        },
        {
            "positions": [
                2.029733686538017,
                -2.0010200824792177,
                -1.6255797375127805,
                0.36213227113857804,
                -0.423911601103919,
                -0.4934923474728058
            ]
        },
        {
            "positions": [
                2.1333131623484065,
                -2.0317093712298093,
                -1.7718661508768663,
                0.35704088378896626,
                -0.39889277961973746,
                -0.42410499758294173
            ]
        },
        {
            "positions": [
                2.236892638158796,
                -2.062398659980401,
                -1.9181525642409518,
                0.35194949643935447,
                -0.37387395813555596,
                -0.3547176476930777
            ]
        },
        {
            "positions": [
                2.2772695099393943,
                -2.0977807508719533,
                -1.9131095473591058,
                0.3909111884341056,
                -0.3095329616774255,
                -0.32467962382383975
            ]
        },
        {
            "positions": [
                2.3176463817199924,
                -2.133162841763505,
                -1.9080665304772597,
                0.42987288042885674,
                -0.2451919652192951,
                -0.2946415999546019
            ]
        },
        {
            "positions": [
                2.366779745479984,
                -2.1819701032673104,
                -1.8743963195660582,
                0.5070798238348624,
                -0.1435321804001134,
                -0.2490817107166513
            ]
        },
        {
            "positions": [
                2.4159131092399755,
                -2.2307773647711158,
                -1.8407261086548568,
                0.584286767240868,
                -0.04187239558093167,
                -0.20352182147870074
            ]
        },
        {
            "positions": [
                2.4650464729999673,
                -2.279584626274921,
                -1.8070558977436553,
                0.6614937106468737,
                0.059787389238250055,
                -0.15796193224075014
            ]
        },
        {
            "positions": [
                2.514179836759959,
                -2.328391887778726,
                -1.773385686832454,
                0.7387006540528793,
                0.16144717405743175,
                -0.11240204300279957
            ]
        },
        {
            "positions": [
                2.563313200519951,
                -2.3771991492825313,
                -1.7397154759212525,
                0.815907597458885,
                0.2631069588766135,
                -0.06684215376484898
            ]
        },
        {
            "positions": [
                2.612446564279942,
                -2.4260064107863366,
                -1.706045265010051,
                0.8931145408648906,
                0.3647667436957952,
                -0.02128226452689841
            ]
        },
        {
            "positions": [
                2.661579928039934,
                -2.474813672290142,
                -1.6723750540988496,
                0.9703214842708963,
                0.4664265285149769,
                0.024277624711052184
            ]
        }
    ]
}