Planner,Run,Success,Length_In_Joint_Space,Length_In_Cartesian_Space(Endeffector),Smoothness,Time,Weighted_Length,Shoulder_Pan_Joint,Shoulder_Lift_Joint,Elbow_Joint,Wrist_1_Joint,Wrist_2_Joint,Wrist_3_Joint
EST,1,true,3.911667,3.828723,0.107837,0.085436,4.924329,2.915513,0.681054,3.925345,3.662528,2.948043,1.168656
EST,2,true,3.584192,3.261611,0.019361,0.144339,4.390251,2.781990,0.463977,3.922053,3.495500,1.433464,0.749451
EST,3,true,3.779740,3.730871,0.302460,0.139518,4.595431,3.499899,0.467966,3.910508,3.452883,2.531684,0.423494
EST,4,true,3.856353,3.846156,0.238163,0.057353,5.031588,2.721277,0.401868,3.870830,1.618677,3.690865,2.567941
EST,5,true,4.078651,5.658814,0.225264,0.062652,4.822230,6.419685,0.456312,3.939916,3.573826,1.446621,0.799030
EST,6,true,3.908722,3.379940,0.430977,0.227710,5.158529,2.577177,1.039468,3.903802,1.470551,2.712456,3.574652
EST,7,true,3.880792,3.155879,0.234466,0.231480,4.993011,2.899260,0.463687,4.300772,3.489276,1.434763,2.472789
EST,8,true,3.723126,3.506209,0.152902,0.105910,4.444024,4.063415,0.463584,3.919545,3.492494,1.450062,0.472565
EST,9,true,3.560129,3.428208,0.140574,0.089474,4.526696,3.184178,0.382417,3.874116,0.900019,1.751152,2.582640
EST,10,true,3.661638,3.037692,0.100379,0.192374,4.387590,3.135570,0.989042,3.912781,3.464211,1.432830,0.473158
LBKPIECE,1,true,4.089003,3.132550,0.163843,0.550258,5.603677,2.676670,0.434346,3.867001,3.110414,1.692199,4.939317
LBKPIECE,2,true,3.568949,3.319740,0.097698,0.417380,4.604132,2.800395,0.178773,3.871686,1.619890,1.692558,2.574094
LBKPIECE,3,true,3.872155,4.063927,0.519422,0.371391,4.679043,3.459532,1.518849,3.911673,3.466456,1.840739,0.796335
LBKPIECE,4,true,3.706755,3.498303,0.450737,0.766192,4.517845,2.922938,0.851062,3.920648,3.488230,1.931660,0.625497
LBKPIECE,5,true,3.537462,3.162277,0.036594,0.629534,4.309837,2.646964,0.465779,3.916563,3.471125,1.436484,0.576724
LBKPIECE,6,true,3.455694,3.529998,0.022235,0.746017,4.433732,2.598809,0.347277,3.875786,0.832310,1.691432,2.596208
LBKPIECE,7,true,3.950365,3.134211,0.531006,0.460923,4.839866,3.512989,0.697680,4.853373,3.577799,1.685973,1.277571
LBKPIECE,8,true,3.893552,3.166778,0.155127,0.220537,5.176121,2.856679,0.445209,3.881754,2.629940,1.689797,3.656371
LBKPIECE,9,true,3.749920,3.388549,0.321270,0.613200,4.624780,3.172495,0.562656,3.916336,3.481442,2.012692,0.916280
LBKPIECE,10,true,4.271853,4.303090,0.550978,0.843484,5.401210,4.552627,1.977724,3.869711,1.608145,3.164837,3.075681
BKPIECE,1,true,4.499369,4.172921,0.334063,0.170648,5.672334,5.091780,1.521112,3.920195,3.496046,3.995377,2.219815
BKPIECE,2,true,5.198735,8.595972,0.468130,0.481794,6.731102,7.519979,3.820008,3.906475,3.458525,1.821350,6.500508
BKPIECE,3,true,3.598302,3.265880,0.044181,0.301632,4.355715,2.989051,0.526517,3.932080,3.537638,1.438144,0.524348
BKPIECE,4,true,3.665297,3.549558,0.134006,0.491259,4.852038,2.699668,0.443546,3.875013,0.965979,1.758509,3.691690
BKPIECE,5,true,3.878758,3.457863,0.416274,0.223268,4.762367,3.143123,1.139736,3.915466,3.480410,2.577080,0.788945
BKPIECE,6,true,3.656172,3.361413,0.083702,0.161007,4.845126,2.784945,0.150286,3.903241,1.253974,1.696625,3.578527
BKPIECE,7,true,3.527205,3.209430,0.052358,0.482682,4.266631,2.720391,0.469094,3.905634,3.457433,1.471711,0.416912
BKPIECE,8,true,3.636976,3.283562,0.126416,0.346270,4.382713,3.265697,0.583552,3.919453,3.498757,1.438438,0.521695
BKPIECE,9,true,4.078010,3.251109,0.320367,0.708581,4.955432,4.828628,1.983059,4.494792,1.016416,1.704818,2.602452
BKPIECE,10,true,3.643139,3.814092,0.317822,0.238623,4.658658,3.471878,0.108367,3.885559,1.293293,1.889402,2.623966
KPIECE,1,true,4.181039,4.475989,0.325115,0.131307,5.351725,3.842936,2.230514,3.905560,1.353839,2.490440,3.657799
KPIECE,2,true,3.658111,3.009973,0.132644,0.115781,4.400296,2.937111,1.095377,3.907853,3.454335,1.447693,0.539404
KPIECE,3,true,3.806325,3.705484,0.390132,0.092017,4.826742,3.566332,0.660073,4.046216,0.823156,2.798488,2.593843
KPIECE,4,true,3.675551,3.774900,0.188835,0.131571,4.707643,3.325806,0.224312,3.874073,1.253002,2.265748,2.566737
KPIECE,5,true,3.553651,3.380022,0.070255,0.201606,4.559056,2.657469,0.521718,3.875501,0.843984,2.146959,2.582807
KPIECE,6,true,3.635907,3.433695,0.100039,0.122077,4.823751,2.753037,0.135446,3.893813,1.129337,1.696940,3.611243
KPIECE,7,true,3.995182,4.738450,0.383425,0.064125,4.999696,5.409873,0.234395,3.879537,2.144635,1.695230,2.597810
KPIECE,8,true,3.851538,3.822256,0.381832,0.155620,4.987316,3.379069,0.125380,3.875433,2.300854,2.569101,2.584509
KPIECE,9,true,3.795510,3.216065,0.134791,0.249484,4.522418,3.484604,1.478049,3.934864,3.535990,1.434398,0.537990
KPIECE,10,true,3.789928,3.191405,0.294211,0.097638,4.791976,2.794530,0.456596,3.938436,3.560662,2.187838,1.425490
RRT,1,true,4.133403,3.324335,0.727967,0.069785,5.304397,3.049851,1.325124,4.643370,1.507802,3.573943,2.984933
RRT,2,true,4.550522,3.334468,0.495357,0.106267,5.985937,3.903954,1.115373,5.023786,3.545146,2.658936,4.460055
RRT,3,true,3.958062,2.834006,0.236083,0.088592,4.921982,2.871752,1.750480,3.911582,3.684205,2.021020,1.427215
RRT,4,true,4.067882,4.170729,0.328990,0.429796,4.993134,4.961341,0.468666,3.910405,3.467836,2.562934,1.176479
RRT,5,true,3.590719,3.862534,0.105318,0.076139,4.561702,3.726574,0.098697,3.902547,0.719366,1.695666,2.750414
RRT,6,true,3.621708,3.097633,0.207496,0.095781,4.447131,2.854945,0.455540,3.937351,3.562815,1.514835,0.791280
RRT,7,true,3.830444,4.745373,0.248865,0.056462,4.570751,4.490613,0.467816,3.911141,3.457666,1.928334,0.416731
RRT,8,true,3.640972,2.956939,0.147115,0.118150,4.443528,2.834404,0.647741,3.942185,3.730747,1.445675,0.655921
RRT,9,true,3.623782,3.548619,0.617659,0.112351,4.663535,3.001150,0.466890,3.880823,0.923528,2.025584,2.833822
RRT,10,true,3.729348,3.060562,0.048363,0.063337,4.847425,2.797707,1.210711,3.896506,0.726266,1.690477,3.586372
RRTConnect,1,true,3.935107,3.175877,0.174994,0.089509,4.994619,2.911318,0.886451,3.916451,3.475561,2.604978,1.690309
RRTConnect,2,true,3.480157,3.587426,0.081784,0.079046,4.450741,2.998588,0.115496,3.873552,0.845945,1.704158,2.573752
RRTConnect,3,true,3.694820,3.089409,0.068516,0.084164,4.858074,2.775592,0.758590,3.870751,0.850207,1.694128,3.702425
RRTConnect,4,true,3.623124,3.678275,0.099364,0.079660,4.776253,3.034958,0.133091,3.894607,0.746641,1.696531,3.621199
RRTConnect,5,true,4.620701,3.323833,0.288112,0.059449,6.073303,4.909721,2.807468,4.144556,1.331921,2.112205,6.045003
RRTConnect,6,true,3.814645,3.698069,0.270955,0.077623,4.798403,3.051215,1.268569,4.348212,1.515202,1.778693,2.589630
RRTConnect,7,true,3.535200,3.452777,0.096705,0.071746,4.521959,2.609237,0.778567,3.878610,0.816634,1.695331,2.719258
RRTConnect,8,true,3.948542,3.022820,0.164380,0.079748,4.978785,2.857463,2.258330,3.880765,1.970932,2.020599,2.602893
RRTConnect,9,true,3.673879,3.225624,0.087170,0.088038,4.392887,3.756244,0.467008,3.915080,3.481180,1.436874,0.441005
RRTConnect,10,true,3.998922,3.634988,0.406062,0.042240,4.978586,4.211217,0.584453,4.985684,1.931993,1.693103,2.584925
PRM,1,true,3.850500,5.434494,0.274745,0.103246,4.749178,4.840425,0.988451,3.877059,0.821604,1.690878,2.607930
PRM,2,true,3.758486,3.381174,0.152383,0.120857,4.656165,2.702286,0.464397,3.919792,3.496766,3.029058,0.513916
PRM,3,true,3.962996,3.057867,0.205695,0.162886,5.226551,2.983655,0.641216,3.895733,3.050833,1.707129,3.426770
PRM,4,true,4.266780,3.851722,0.323962,0.106935,5.553526,4.496360,0.886987,3.878020,2.294090,2.957775,3.692183
PRM,5,true,4.398061,3.284785,0.487099,0.172527,5.643881,5.167889,0.178195,4.063461,5.250930,2.105413,2.577053
PRM,6,true,4.051154,4.035925,0.193602,0.233934,4.927314,2.988788,3.124128,3.909448,3.461035,1.451352,1.477095
PRM,7,true,3.535370,3.344148,0.067616,0.100542,4.493534,3.099694,0.402986,3.873481,0.850639,1.701723,2.570322
PRM,8,true,3.646403,3.476561,0.133297,0.115215,4.583696,3.582903,0.716206,3.877969,0.822434,1.701897,2.594843
PRM,9,true,4.329386,3.807525,0.248772,0.158950,5.537204,4.671515,1.377453,3.913999,4.210377,1.433803,3.136435
PRM,10,true,4.550669,3.928958,0.329247,0.059440,6.003551,4.953237,0.609909,3.873280,4.020955,3.189338,4.061871
RRTstar,1,true,3.545116,3.303982,0.042229,3.026011,4.297138,2.642898,0.581761,3.924182,3.505671,1.434807,0.478533
RRTstar,2,true,3.481554,3.456168,0.038691,3.023691,4.457152,2.855536,0.225966,3.875825,0.891290,1.691502,2.581098
RRTstar,3,true,3.604497,3.411061,0.060853,3.011919,4.748351,2.679120,0.422613,3.907402,0.712388,1.699689,3.571184
RRTstar,4,true,3.604979,3.545610,0.056975,3.028702,4.429344,2.714640,0.596746,3.911257,3.470174,1.453073,0.849983
RRTstar,5,true,3.576290,3.405637,0.000000,3.039719,4.764658,2.577446,0.110037,3.881088,0.821802,1.708638,3.690839
RRTstar,6,true,3.818090,4.064159,0.247069,3.013180,4.870762,3.160498,1.027877,3.888687,2.095048,1.759940,2.645762
RRTstar,7,true,3.658898,3.146603,0.056025,3.025838,4.833132,2.731823,0.493941,3.877552,0.889710,1.707086,3.687419
RRTstar,8,true,3.595742,3.135538,0.152478,3.034039,4.430695,2.623665,0.482375,3.915932,3.675328,1.437765,0.794300
RRTstar,9,true,3.894261,3.923365,0.337855,3.017456,4.744899,4.319277,0.459821,3.940300,4.097529,1.445418,0.902924
RRTstar,10,true,3.628534,3.574076,0.110746,3.016057,4.813334,2.830215,0.149019,3.876148,0.918879,1.700954,3.691045
PRMstar,1,true,3.550552,3.072814,0.055866,3.040035,4.302151,2.783822,0.466407,3.917933,3.524889,1.449544,0.463825
PRMstar,2,true,3.763048,3.926793,0.097398,3.045199,4.875496,3.716087,0.528151,3.901598,0.723359,1.696104,3.595235
PRMstar,3,true,3.600471,3.195875,0.100961,3.091598,4.416539,2.782182,0.454541,3.940923,3.581041,1.448033,0.756674
PRMstar,4,true,3.993938,5.909290,0.245900,3.022693,4.863748,5.196811,1.758215,3.874961,0.841573,1.697031,2.582950
PRMstar,5,true,3.455683,3.647752,0.069558,3.035752,4.441886,2.716596,0.147378,3.876853,0.837758,1.775473,2.587686
PRMstar,6,true,3.758287,3.495580,0.205290,3.030076,4.666526,3.407683,0.536238,3.906541,3.450793,1.445990,1.377479
PRMstar,7,true,3.753485,3.416148,0.622488,3.046900,4.615813,3.195490,0.660654,3.924488,3.863261,1.535702,0.909056
PRMstar,8,true,3.858147,3.941258,0.195937,3.028364,4.749839,3.349748,0.987967,3.929228,3.527159,2.033889,1.057309
PRMstar,9,true,3.439259,3.467023,0.083717,3.032450,4.433073,2.659505,0.113009,3.895323,0.745869,1.751832,2.662964
PRMstar,10,true,3.719954,3.359206,0.109166,3.044626,4.783468,2.677875,0.934291,3.906561,1.902421,1.692737,2.724174
TRRT,1,true,3.702905,3.273872,0.113368,0.128390,4.578030,2.722939,0.683723,3.935818,3.553717,1.937476,0.877832
TRRT,2,true,3.629905,3.439470,0.052199,0.086075,4.767064,2.806133,0.489753,3.904195,0.704806,1.698760,3.572562
TRRT,3,true,3.572360,3.428931,0.106221,0.093657,4.526895,2.595691,1.162475,3.876086,0.830291,1.693694,2.603517
TRRT,4,true,3.621996,3.322746,0.142046,0.087225,4.665628,2.838103,0.330768,3.875937,1.795849,1.703017,2.575182
TRRT,5,false,0,0,0,0,0,0,0,0,0,0,0
TRRT,6,true,3.666187,3.589135,0.279325,0.090749,4.782432,2.595996,0.120703,3.870906,0.869002,3.406902,2.577414
TRRT,7,true,4.593201,5.331747,0.293437,0.183835,5.568829,7.834181,1.779765,3.912136,3.475612,1.752846,2.342953
TRRT,8,true,3.477022,3.462498,0.089117,0.185820,4.454314,2.765374,0.306089,3.886279,0.794860,1.717791,2.619290
TRRT,9,false,0,0,0,0,0,0,0,0,0,0,0
TRRT,10,true,3.769122,3.092546,0.158364,0.965975,4.893753,2.842786,1.285373,3.907821,0.891828,1.706243,3.572230
FMT,1,true,3.731385,3.510259,0.101439,0.993823,4.843070,3.460541,0.593992,3.907859,0.687028,1.702569,3.571246
FMT,2,true,3.898436,3.341333,0.703799,1.097517,4.916327,3.304306,0.454800,3.942352,4.128219,1.892008,1.476119
FMT,3,true,3.648694,3.204874,0.109346,1.042301,4.486586,3.073255,0.468366,3.911728,3.467791,1.434947,0.956878
FMT,4,true,3.552846,3.971472,0.142176,1.021739,4.515800,3.105934,0.512366,3.894976,0.747902,1.701238,2.660299
FMT,5,true,3.659784,4.034570,0.114294,1.010890,4.602535,2.857672,1.520562,3.896041,0.749512,1.700657,2.669572
FMT,6,true,3.466845,3.563011,0.064031,0.977728,4.443603,2.877748,0.152560,3.883536,0.790836,1.692919,2.621418
FMT,7,true,3.650335,2.970377,0.099202,1.056952,4.559875,2.617962,0.452308,3.962001,3.674093,1.443738,1.174842
FMT,8,true,3.526561,3.307898,0.130460,1.005876,4.528475,2.740958,0.382177,3.892420,1.077453,1.694254,2.649374
FMT,9,true,3.469584,3.520645,0.130005,1.036728,4.457680,2.647363,0.303612,3.886220,0.874678,1.694065,2.632077
FMT,10,true,3.564189,3.033376,0.066533,1.096497,4.352815,2.606932,0.456101,3.939157,3.725549,1.433398,0.542305
BFMT,1,true,5.097907,3.897853,0.293798,0.633265,6.582851,5.971031,2.384529,3.899279,7.227604,2.894750,3.611460
BFMT,2,true,3.745395,3.879514,0.240261,0.790779,4.921673,2.860778,0.652325,3.903875,0.974620,2.052517,3.583870
BFMT,3,true,3.671253,3.213509,0.082165,0.919448,4.539088,3.087001,0.468577,3.909496,3.457718,1.443100,1.112204
BFMT,4,true,3.596259,3.422823,0.463302,0.623933,4.618504,2.930471,0.605159,3.875704,0.831684,1.814297,2.875762
BFMT,5,true,3.561153,3.363184,0.004656,0.576391,4.710956,2.575740,0.253745,3.906432,0.685514,1.694973,3.565403
BFMT,6,true,3.735080,3.340314,0.326564,0.809657,4.586974,3.228309,0.467919,4.198012,3.590915,1.432742,1.032927
BFMT,7,true,3.700498,3.385326,0.073020,0.797201,4.622254,2.806078,0.469254,3.910234,3.470310,1.874378,1.163428
BFMT,8,true,3.864708,3.679205,0.314203,0.786087,4.788110,3.817122,0.466582,3.916543,3.690676,1.790730,1.254312
BFMT,9,true,3.631946,3.725187,0.139067,0.611110,4.764387,3.222522,0.117234,3.908088,0.683104,1.694911,3.565170
BFMT,10,true,4.327389,4.134914,0.331442,0.768700,5.288657,4.918316,1.477035,3.925095,5.343618,2.224499,0.837736
STRIDE,1,true,3.677019,3.008095,0.121254,0.183864,4.418755,2.990782,1.050684,3.913826,3.467361,1.658059,0.439753
STRIDE,2,true,4.278027,3.770211,0.363179,0.110708,5.406560,5.048534,1.124565,3.901967,3.146582,2.376940,2.702926
STRIDE,3,true,4.158538,3.171594,0.146277,0.336846,5.536462,2.826549,0.907201,3.880775,2.931155,3.067693,3.680065
STRIDE,4,true,4.218860,3.709870,0.403662,0.136008,5.632148,2.576496,1.084005,3.883075,3.777383,2.810720,3.667101
STRIDE,5,true,3.800671,3.061491,0.170715,0.087146,4.730738,3.643199,0.465781,3.917700,3.470081,1.431985,1.516357
STRIDE,6,true,3.858426,3.613660,0.248619,0.178949,4.980032,4.040973,0.738818,3.887068,0.832547,1.695378,3.692669
STRIDE,7,true,3.575913,3.382337,0.105145,0.371599,4.567611,2.734247,0.705995,3.879544,0.814699,2.044126,2.608545
STRIDE,8,true,4.510559,4.469276,0.245617,0.086243,5.862613,6.435183,0.539918,3.906835,3.457995,1.443324,4.561887
STRIDE,9,true,3.891002,2.881120,0.193164,0.192172,4.696835,2.837202,2.050462,3.913038,3.481425,2.276605,0.581165
STRIDE,10,true,3.816891,3.450359,0.299495,0.100263,5.107889,2.707540,0.106335,3.887797,1.843715,2.368393,3.654879
BiTRRT,1,true,3.610143,3.514960,0.073753,0.114681,4.779947,2.752976,0.237287,3.885102,0.794812,1.705961,3.656994
BiTRRT,2,true,5.197199,5.890328,0.279504,0.134636,7.141230,5.945787,0.246132,4.473070,2.340583,6.364895,7.640406
BiTRRT,3,true,3.691508,3.654394,0.131214,0.104370,4.880521,2.665998,0.601832,3.874604,1.073586,1.703755,3.707455
BiTRRT,4,true,3.521284,3.216511,0.070463,0.083791,4.261122,2.577764,0.577031,3.910478,3.473863,1.436756,0.423550
BiTRRT,5,true,3.698984,3.417875,0.285697,0.120333,4.518200,2.954264,0.595251,3.911342,3.762447,1.949163,0.510019
BiTRRT,6,true,3.627575,3.481290,0.062279,0.105513,4.435567,2.986072,0.527364,3.920999,3.497663,1.437120,0.790084
BiTRRT,7,true,4.372404,4.357679,0.699078,0.087578,5.638475,4.266439,0.173608,5.501191,2.307622,3.371243,3.497813
BiTRRT,8,true,4.770159,7.729256,0.299924,0.167162,6.201479,7.011137,1.719085,3.893178,0.754769,3.803350,5.572900
BiTRRT,9,true,3.749452,3.505413,0.137781,0.126167,4.962310,2.638311,0.701136,3.872097,1.311652,1.815903,3.719289
BiTRRT,10,true,4.939717,6.244926,0.297280,0.173141,5.906528,9.110635,1.394993,3.914778,4.557648,4.916886,0.505867
LBTRRT,1,true,3.752801,4.036329,0.229307,3.033053,4.490949,4.146763,0.457066,3.938900,3.556324,1.440153,0.544312
LBTRRT,2,true,3.496862,3.508851,0.063086,3.028729,4.498635,2.603445,0.378339,3.879679,0.818868,1.904632,2.643084
LBTRRT,3,true,3.759163,3.697549,0.072537,3.030313,4.683695,2.575982,1.054283,3.916891,3.488700,1.873908,1.221543
LBTRRT,4,true,3.647455,3.387315,0.055328,3.040127,4.811958,2.877745,0.347434,3.897554,0.809665,1.701702,3.669825
LBTRRT,5,true,3.645279,3.397051,0.270515,3.026153,4.841723,2.676700,0.239439,3.882896,1.054158,1.769678,3.665191
LBTRRT,6,true,3.817707,3.681305,0.324307,3.041297,5.067946,3.140016,0.107477,3.885364,1.572498,2.202374,3.667157
LBTRRT,7,true,3.518463,3.647982,0.050167,3.026506,4.504781,2.577028,0.601133,3.877012,0.828091,1.907265,2.589055
LBTRRT,8,true,3.771852,3.436658,0.105368,3.030662,5.049153,2.577438,0.103251,3.895248,2.344410,1.690386,3.616139
LBTRRT,9,true,5.481094,8.216595,0.337162,3.045790,7.325182,6.313028,3.353442,3.895705,1.810270,7.534275,7.135675
LBTRRT,10,true,3.699963,3.539819,0.160062,3.034278,4.872644,2.911282,0.366311,3.910788,0.683663,2.266096,3.551587
BiEST,1,true,3.615671,3.211710,0.119820,0.083783,4.576935,3.118785,0.825670,3.884032,0.921762,1.692168,2.630661
BiEST,2,true,3.853004,3.751627,0.085633,0.126813,4.988276,3.685960,0.837832,3.897057,0.736759,2.075557,3.612472
BiEST,3,true,4.450621,3.514642,0.469387,0.121466,6.157853,2.662726,0.884137,3.879775,4.355984,2.295678,5.729732
BiEST,4,true,3.957588,4.540677,0.155147,0.118729,5.020108,4.924548,0.859052,3.908438,0.697124,1.704820,3.568521
BiEST,5,true,3.805585,3.807112,0.480271,0.089084,5.112874,3.151964,0.158163,3.911223,0.686549,2.176704,4.397875
BiEST,6,true,3.696082,3.213048,0.168038,0.083912,4.527092,3.134959,0.461389,3.925071,3.515844,1.929816,0.693941
BiEST,7,true,3.906723,3.561676,0.358982,0.073363,5.136611,2.644308,0.228486,3.880143,2.084363,3.812455,2.612732
BiEST,8,true,3.696359,4.232080,0.350115,0.061897,4.707733,3.831350,0.099620,3.898963,0.741377,2.425217,2.666544
BiEST,9,true,3.695088,3.396392,0.306940,0.095041,4.731106,2.969340,0.670109,3.874167,1.850136,1.700303,2.589623
BiEST,10,true,4.777427,4.216904,0.296249,0.076353,5.958306,6.779335,2.572748,3.931533,4.142529,2.260249,3.137411
ProjEST,1,true,4.099456,3.924940,0.231546,0.052222,5.162362,4.043992,0.465755,3.913462,3.476440,3.443792,1.462102
ProjEST,2,true,3.666187,3.338422,0.105600,0.180711,4.815902,2.766595,0.613807,3.899057,0.723981,1.846969,3.590519
ProjEST,3,true,3.864703,4.065439,0.188635,0.059269,4.974373,3.859179,0.798572,3.883142,1.272740,1.708874,3.413422
ProjEST,4,true,4.309309,4.559220,0.250391,0.209730,5.512253,6.065520,0.867035,3.869065,1.566059,2.156194,4.046269
ProjEST,5,true,3.761990,3.126898,0.131194,0.075768,4.874196,2.938816,1.283490,3.906090,0.735885,1.707246,3.581044
ProjEST,6,true,4.171470,3.923125,0.207737,0.209920,5.540248,3.007982,1.461073,3.881643,2.892272,1.915460,4.242729
ProjEST,7,true,4.637329,5.425342,0.243888,0.065859,5.835091,8.665041,0.116581,3.873567,3.452358,1.703436,3.693839
ProjEST,8,true,3.451443,3.467744,0.073664,0.238683,4.449771,2.576077,0.162160,3.877935,0.947767,1.756798,2.591719
ProjEST,9,true,3.615617,3.851249,0.303763,0.082533,4.633920,3.247212,0.116531,3.871190,0.854663,2.420312,2.562779
ProjEST,10,true,3.789375,3.496490,0.153144,0.084309,4.832175,2.895196,0.467912,3.910202,3.468434,1.713112,1.904504
LazyPRM,1,true,4.476249,4.974738,0.243621,0.163926,5.644908,5.384037,1.176665,5.213727,2.996376,1.700184,3.565814
LazyPRM,2,true,3.838368,3.151952,0.158890,0.109801,4.948457,2.756337,0.467791,3.911303,3.524897,1.916225,2.156519
LazyPRM,3,true,3.960377,3.568884,0.161060,0.081649,5.002336,3.349316,0.931086,3.912840,4.208590,1.435322,1.847435
LazyPRM,4,true,3.563435,3.030265,0.072214,0.110046,4.298066,2.916541,0.528643,3.914680,3.465071,1.436040,0.437096
LazyPRM,5,true,3.741732,4.019487,0.315302,0.117359,4.930111,3.422783,0.317937,3.909261,0.690082,1.705643,3.954854
LazyPRM,6,true,4.087865,3.730559,0.200260,0.093351,5.235150,5.295884,0.508340,3.877881,1.667843,1.693056,3.667632
LazyPRM,7,true,3.788499,2.989864,0.128610,0.092977,4.900744,2.982888,1.389897,3.901661,0.797344,1.694639,3.586294
LazyPRM,8,true,4.162442,3.820254,0.406081,0.108045,5.320897,4.296080,1.362900,3.903129,1.447840,3.093776,3.222201
LazyPRM,9,true,3.651039,2.940468,0.074388,0.642477,4.461340,2.893612,0.682989,3.943306,3.596550,1.450325,0.763301
LazyPRM,10,true,3.709781,3.255898,0.120478,0.120549,4.719053,2.773212,1.186100,3.875824,1.639755,1.707925,2.579656
LazyPRMstar,1,true,3.659003,2.952658,0.067269,3.031681,4.408270,3.071097,0.866697,3.936238,3.547508,1.436488,0.530275
LazyPRMstar,2,true,3.779656,4.653985,0.408143,3.014998,4.780166,3.791248,0.935616,3.894198,0.751238,2.014056,2.899445
LazyPRMstar,3,true,3.560307,3.134522,0.026087,3.027628,4.302353,2.909056,0.465711,3.918412,3.486650,1.444115,0.451844
LazyPRMstar,4,true,3.870353,3.296585,0.474285,3.035233,4.799136,3.327159,0.738407,4.206918,3.918080,1.444152,1.344918
LazyPRMstar,5,true,4.142423,4.116147,0.548737,3.032111,5.328788,3.179241,1.729295,4.660666,1.016992,2.927631,3.645843
LazyPRMstar,6,true,3.632320,2.941346,0.128691,3.041582,4.479866,2.845213,0.468923,3.939908,3.566742,1.437222,0.935742
LazyPRMstar,7,true,5.033865,6.667931,0.337570,3.059167,6.316747,8.996988,0.917439,4.385565,5.811227,1.706881,3.521693
LazyPRMstar,8,true,3.639349,3.441221,0.096317,3.016003,4.678790,2.896486,0.481242,3.899027,1.588233,1.701775,2.678101
LazyPRMstar,9,true,3.631327,3.510642,0.092565,3.023881,4.842506,2.600764,0.114284,3.878305,0.811397,2.111638,3.670145
LazyPRMstar,10,true,3.716240,3.032724,0.020696,3.035601,4.714124,2.711507,0.455514,3.936416,3.559115,1.442362,1.705526
SPARS,1,true,4.203444,2.802462,0.248446,3.035436,5.593776,3.030643,0.751870,3.890042,4.678120,1.693262,3.625002
SPARS,2,true,3.684692,3.836676,0.214510,3.034802,4.840137,3.408191,0.111529,3.879927,0.811796,1.692837,3.672672
SPARS,3,true,3.739395,3.517040,0.212351,3.035900,4.575427,3.086924,0.981590,3.912060,3.463105,1.590428,0.948964
SPARS,4,true,3.689301,3.617616,0.232406,3.085419,4.729909,3.172380,0.383558,3.873010,1.910573,1.692312,2.579108
SPARS,5,true,3.743038,4.736926,0.236588,3.038863,4.681278,4.251410,0.579022,3.876754,1.008956,1.693316,2.600880
SPARS,6,true,3.767999,3.393742,0.220093,3.068006,4.713391,3.000373,0.469255,3.908777,3.466107,2.154481,1.198824
SPARS,7,true,4.049348,3.282202,0.255728,3.055613,5.235618,3.984625,1.204193,3.876488,1.954125,1.695227,3.682561
SPARS,8,true,3.947476,3.831501,0.311796,3.030761,4.924886,4.386110,0.465782,3.913107,3.481874,1.481329,1.854366
SPARS,9,true,4.116781,5.605583,0.238635,3.046559,5.173371,6.223329,0.679159,3.885254,0.801603,1.702808,3.655735
SPARS,10,true,3.752408,4.117513,0.099535,3.028132,4.475709,3.437151,1.263228,3.926789,3.516387,1.439002,0.498007
SPARStwo,1,true,4.373546,3.691451,0.334292,3.032793,5.748463,3.607185,0.713473,3.939765,4.372763,3.445292,3.049430
SPARStwo,2,false,0,0,0,0,0,0,0,0,0,0,0
SPARStwo,3,false,0,0,0,0,0,0,0,0,0,0,0
SPARStwo,4,true,3.940997,3.392452,0.383520,3.026509,5.125259,2.803655,1.234829,4.476624,1.527719,1.768166,3.720467
SPARStwo,5,true,3.866432,4.063086,0.335919,3.032988,4.814911,4.310293,1.120927,3.872393,1.194985,1.862316,2.588383
SPARStwo,6,false,0,0,0,0,0,0,0,0,0,0,0
SPARStwo,7,true,4.615893,4.390906,0.299537,3.030055,5.727632,5.941267,1.606047,4.855782,4.326787,1.980660,2.595928
SPARStwo,8,true,3.661666,4.283252,0.060148,3.017757,4.394881,3.295928,0.730568,3.911939,3.597849,1.433704,0.437812
SPARStwo,9,false,0,0,0,0,0,0,0,0,0,0,0
SPARStwo,10,true,3.885145,4.188113,0.182722,3.012064,4.818479,5.045635,0.722196,3.906222,1.023411,1.693796,2.703092
SBL,1,true,3.836651,4.517329,0.191274,0.199194,4.785205,5.086836,0.154619,3.871990,1.341493,1.693098,2.571854
SBL,2,true,3.660671,3.355692,0.291192,0.144641,4.731835,2.900588,0.232414,3.882187,1.802945,1.977959,2.604422
SBL,3,true,3.887740,4.011675,0.104198,0.186291,4.972570,3.017945,0.469830,3.907374,3.450617,2.376194,1.892560
SBL,4,true,3.689616,4.500565,0.352736,0.165915,4.640565,3.998297,0.391458,3.872714,0.846465,1.933544,2.570785
SBL,5,true,4.176799,3.343841,0.422037,0.269872,5.055345,4.294232,1.095004,4.839866,3.543365,2.778880,0.894307
SBL,6,true,3.660957,3.921325,0.099391,0.142593,4.788452,3.058434,0.482731,3.905527,0.694291,1.690868,3.570754
SBL,7,true,3.643651,3.333083,0.361633,0.186406,4.428395,3.012180,0.468519,4.158261,3.506020,1.433942,0.697267
SBL,8,true,3.656791,3.274808,0.148222,0.207854,4.814679,2.755707,0.467678,3.908218,0.966915,1.705113,3.568491
SBL,9,true,3.692518,3.072990,0.198536,0.159874,4.722181,2.809971,0.873000,3.873202,1.802022,1.690696,2.585796
SBL,10,true,3.882692,3.646430,0.213207,0.225155,4.982095,2.577387,0.457899,3.934966,3.557985,2.906127,1.640932
