Planner,Run,Success,Length_In_Joint_Space,Length_In_Cartesian_Space(Endeffector),Smoothness,Time,Weighted_Length,Shoulder_Pan_Joint,Shoulder_Lift_Joint,Elbow_Joint,Wrist_1_Joint,Wrist_2_Joint,Wrist_3_Joint
RRTConnect,1,true,1.761723,0.345353,0.000000,0.053568,2.312158,0.134828,0.140042,0.671300,0.632254,1.440330,0.084913
RRTConnect,2,true,1.692866,0.343943,0.000000,0.041019,2.200198,0.134602,0.121059,0.638825,0.530088,1.437450,0.003770
RRTConnect,3,true,1.692428,0.343321,0.000000,0.036020,2.209302,0.134184,0.116918,0.631123,0.504310,1.443164,0.034615
