Planner,Run,Success,Length_In_Joint_Space,Length_In_Cartesian_Space(Endeffector),Smoothness,Time,Weighted_Length,Shoulder_Pan_Joint,Shoulder_Lift_Joint,Elbow_Joint,Wrist_1_Joint,Wrist_2_Joint,Wrist_3_Joint
RRTConnect,1,true,1.464482,0.576160,0.000000,0.125267,1.846421,0.495781,0.188538,0.256695,0.081557,1.061271,0.060866
RRTConnect,2,true,1.467553,0.576908,0.000000,0.068875,1.849605,0.495711,0.188477,0.259982,0.088189,1.063568,0.057785
RRTConnect,3,true,1.468239,0.577062,0.000000,0.108219,1.855789,0.495858,0.189473,0.256554,0.074741,1.064710,0.074389
